<?xml version="1.0" encoding="UTF-8" standalone="no"?>
<!-- Generator: Adobe Illustrator 26.3.1, SVG Export Plug-In . SVG Version: 6.00 Build 0)  -->

<svg
   version="1.1"
   x="0px"
   y="0px"
   viewBox="0 0 841.9 595.3"
   style="enable-background:new 0 0 841.9 595.3;"
   xml:space="preserve"
   id="svg2004"
   sodipodi:docname="DCC_logo.svg"
   inkscape:version="1.2.2 (b0a8486541, 2022-12-01)"
   xmlns:inkscape="http://www.inkscape.org/namespaces/inkscape"
   xmlns:sodipodi="http://sodipodi.sourceforge.net/DTD/sodipodi-0.dtd"
   xmlns="http://www.w3.org/2000/svg"
   xmlns:svg="http://www.w3.org/2000/svg"><defs
   id="defs2008">
		
		
		
		
		
		
	</defs><sodipodi:namedview
   id="namedview2006"
   pagecolor="#ffffff"
   bordercolor="#666666"
   borderopacity="1.0"
   inkscape:showpageshadow="2"
   inkscape:pageopacity="0.0"
   inkscape:pagecheckerboard="0"
   inkscape:deskcolor="#d1d1d1"
   showgrid="false"
   inkscape:zoom="0.72400472"
   inkscape:cx="420.57737"
   inkscape:cy="296.95939"
   inkscape:window-width="1920"
   inkscape:window-height="1003"
   inkscape:window-x="1080"
   inkscape:window-y="643"
   inkscape:window-maximized="1"
   inkscape:current-layer="Layer_1" />
<style
   type="text/css"
   id="style1570">
	.st0{fill:#C90019;}
	.st1{fill:#FFFFFF;stroke:#FFFFFF;stroke-miterlimit:10;}
	.st2{fill:#FFFFFF;}
</style>
<g
   id="Layer_1">
	<g
   id="g2173"><g
     id="UFMG-colorido">
			<path
   d="m 443.1,272.3 v -28.8 c 0,-2.7 -2.2,-3.5 -4.5,-3.7 v -2.5 h 17.5 v 2.5 c -2.2,0.2 -4.1,0.9 -4.1,3.5 v 28.5 c 0,9.6 6,13.5 14,13.5 14.7,0 14.7,-11.4 14.7,-21.9 V 251 c 0,-8.9 -0.8,-10.9 -5.3,-11.2 v -2.5 h 14.8 v 2.5 c -2.7,0.3 -4.6,1.6 -4.6,7.3 v 21.3 c 0,12 -5.8,21.3 -21.1,21.3 -13.3,-0.1 -21.4,-5.2 -21.4,-17.4"
   id="path1572" />
			<path
   d="m 519.5,282.3 v -38 c 0,-3.2 -1.8,-4.2 -5,-4.5 V 237 c 5.9,0.1 11.7,0.2 17.6,0.2 9.9,0 16,-0.1 22.1,-0.2 l 0.3,8.3 h -2.8 c -1.5,-4.3 -4.3,-4.9 -12,-4.9 h -11.2 v 19.8 h 9.8 c 4.3,0 6.6,-0.1 7.3,-3.5 h 2.1 v 10.1 h -2.2 c -0.7,-2.9 -2.6,-3.2 -7.2,-3.2 h -9.8 v 16.7 c 0,5.2 2,6.6 6.4,6.7 v 2.5 h -20.5 v -2.6 c 3.3,-0.3 5.1,-1.4 5.1,-4.6"
   id="path1574" />
			<path
   d="m 733.9,274 v 3.4 9.9 c -5.2,1.4 -12.1,3 -19.7,3 -16.9,0 -28.7,-11.8 -28.7,-26.5 0,-16.8 13,-27.4 29.4,-27.4 2.7,0 4.9,0.3 9.9,0.9 1.4,0.2 8.2,1.5 9.6,1.8 l 0.7,9.7 h -3.4 c -2.4,-4.8 -5.7,-9 -14.8,-9 -11.4,0 -21.1,6.9 -21.1,23.7 0,9.8 5.5,23.5 22.1,23.5 2.6,0 5,-0.6 7.4,-1.7 0,-0.9 0.2,-6.7 0.2,-8.1 0,-4.6 -0.5,-6.6 -4.3,-7.2 v -2.6 h 16.4 v 2.4 c -2.9,0.4 -3.7,1.3 -3.7,4.2"
   id="path1576" />
			<path
   class="st0"
   d="m 662.9,274 c -1.7,1.8 -7.8,7.1 -9.9,7.1 -0.8,0 -1.8,-0.4 -1.8,-1.4 0,-1.3 1,-3.5 1.6,-5.3 l 9.1,-26.6 c 0.6,-1.6 1.1,-3.8 1.1,-5.6 0,-2.5 -1,-4.7 -4.5,-4.7 -10.8,0 -27.8,19.1 -33.9,26.8 h -0.2 l 5.4,-16.9 c 0.7,-2 1.2,-4.3 1.2,-6.1 0,-2.2 -1.6,-3.7 -5.1,-3.7 -10.1,0 -26.9,18.7 -32.3,26.6 h -0.2 l 5.9,-17.1 c 0.5,-1.4 1.3,-3.5 1.3,-5.5 0,-2.1 -1.1,-4 -3.9,-4 -7.5,0 -15.4,9.1 -19.7,14.4 0,0 -1.1,1.3 -0.2,2.1 1,0.9 1.9,0 1.9,0 l 3.1,-3.4 c 2,-2 4.2,-4 6.6,-4 1.4,0 1.8,1 1.8,2.3 0,1 -0.3,2.1 -0.5,2.8 l -11.8,35.7 c -0.3,1.3 2.2,2 3.3,2 2.9,0 4.2,-0.9 4.5,-1.8 l 2,-6 c 3.1,-8.6 7.9,-16.5 14.2,-23.2 3.6,-4 10.4,-11.9 16.6,-11.9 1.6,0 2.2,1.3 2.2,2.8 0,2.9 -1.6,7.3 -1.9,8.4 l -9.9,29.6 c -0.2,0.9 0.8,2.2 3.9,2.2 2.8,0 3.6,-1 4,-2 l 1.9,-4.6 c 3.2,-8.2 6.4,-14.1 11.7,-20.6 3.6,-4.4 14,-15.9 19.9,-15.9 1.2,0 2.6,0.9 2.6,2.7 0,1.1 -0.7,3.1 -1.2,4.7 l -9.2,26.3 c -0.8,2.3 -1.4,4.1 -1.4,5.3 0,2.9 2.1,3.8 4.2,3.8 6.2,0 11.6,-5.1 16,-10 l 3.5,-3.9 c 0,0 1,-1 0,-1.8 -1.2,-0.4 -1.9,0.4 -1.9,0.4"
   id="path1578" />
			<rect
   x="578.40002"
   y="304.39999"
   class="st0"
   width="78.5"
   height="18.9"
   id="rect1580" />
		</g><g
     id="DCC-Color">
			<g
   id="g1589">
				<path
   d="m 314.8,237.6 c 2.1,0.7 3.8,1.8 5.1,3.5 1.2,1.7 1.9,4.1 1.9,7.2 0,3.1 -0.7,5.6 -2.2,7.4 -1.5,1.8 -2.9,2.9 -4.1,3.2 -1.3,0.3 -2.3,0.5 -3,0.5 -0.7,0.1 -1.6,0.1 -2.5,0.1 h -6.2 V 237 h 5 c 1.4,0 2.6,0 3.5,0.1 0.8,0.1 1.6,0.3 2.5,0.5 z m 0.4,5.2 c -1,-1.5 -2.5,-2.2 -4.5,-2.2 h -2.4 v 15.3 h 3 c 0.3,0 0.6,0 0.9,0 0.4,0 0.9,-0.2 1.6,-0.6 0.7,-0.4 1.4,-1.1 1.9,-2.1 0.5,-1 0.8,-2.5 0.8,-4.4 0,-2.7 -0.4,-4.6 -1.3,-6 z"
   id="path1583" />
				<path
   d="m 337.1,259.9 c -1.6,0 -3,-0.2 -4.3,-0.6 -1.3,-0.4 -2.7,-1.4 -4.3,-3 -1.6,-1.6 -2.4,-4.1 -2.4,-7.6 0,-2.8 0.6,-5.1 1.7,-6.8 1.1,-1.8 2.5,-3.1 4.1,-4 1.6,-0.9 3.4,-1.3 5.4,-1.3 1.2,0 2.4,0.2 3.5,0.5 1.1,0.3 2,0.7 2.8,1.3 l -2.2,3.1 c -1.3,-0.8 -2.6,-1.2 -4,-1.2 -1,0 -1.9,0.2 -2.7,0.6 -0.8,0.4 -1.6,1.1 -2.3,2.1 -0.7,1 -1,2.7 -1,5.1 0,1.6 0.1,2.9 0.3,3.8 0.2,0.9 0.7,1.9 1.6,2.9 0.9,1 2.3,1.5 4.3,1.5 1.5,0 3,-0.5 4.4,-1.4 l 2.2,2.8 c -2,1.5 -4.3,2.2 -7.1,2.2 z"
   id="path1585" />
				<path
   d="m 357.7,259.9 c -1.6,0 -3,-0.2 -4.3,-0.6 -1.3,-0.4 -2.7,-1.4 -4.3,-3 -1.6,-1.6 -2.4,-4.1 -2.4,-7.6 0,-2.8 0.6,-5.1 1.7,-6.8 1.1,-1.8 2.5,-3.1 4.1,-4 1.6,-0.9 3.4,-1.3 5.4,-1.3 1.2,0 2.4,0.2 3.5,0.5 1.1,0.3 2,0.7 2.8,1.3 l -2.2,3.1 c -1.3,-0.8 -2.6,-1.2 -4,-1.2 -1,0 -1.9,0.2 -2.7,0.6 -0.8,0.4 -1.6,1.1 -2.3,2.1 -0.7,1 -1,2.7 -1,5.1 0,1.6 0.1,2.9 0.3,3.8 0.2,0.9 0.7,1.9 1.6,2.9 0.9,1 2.3,1.5 4.3,1.5 1.5,0 3,-0.5 4.4,-1.4 l 2.2,2.8 c -2,1.5 -4.3,2.2 -7.1,2.2 z"
   id="path1587" />
			</g>
			<g
   id="g1657">
				<path
   d="m 168.6,310.1 c 1.3,0.4 2.3,1.1 3.1,2.1 0.7,1 1.1,2.4 1.1,4.3 0,1.9 -0.4,3.4 -1.3,4.5 -0.9,1.1 -1.7,1.7 -2.5,1.9 -0.8,0.2 -1.4,0.3 -1.8,0.3 -0.4,0 -0.9,0.1 -1.5,0.1 H 162 v -13.5 h 3 c 0.8,0 1.6,0 2.1,0.1 0.5,0 1,0.1 1.5,0.2 z m 0.2,3.1 c -0.6,-0.9 -1.5,-1.3 -2.7,-1.3 h -1.5 v 9.2 h 1.8 c 0.2,0 0.3,0 0.5,0 0.2,0 0.5,-0.1 1,-0.4 0.4,-0.2 0.8,-0.6 1.1,-1.3 0.3,-0.6 0.5,-1.5 0.5,-2.7 0.1,-1.4 -0.1,-2.6 -0.7,-3.5 z"
   id="path1591" />
				<path
   d="m 176.5,323.3 v -13.5 h 8.5 l -0.4,2.2 h -5.3 v 3.2 h 4.4 v 2.2 h -4.4 v 3.6 h 5.9 v 2.3 z"
   id="path1593" />
				<path
   d="m 197.2,317.5 c -0.5,0.3 -1.1,0.5 -1.6,0.6 -0.5,0.1 -1.1,0.2 -1.9,0.2 h -1.8 v 5 H 189 v -13.5 h 3.9 c 1.2,0 2.1,0 2.6,0.1 0.5,0.1 1.1,0.3 1.6,0.6 0.6,0.3 1.1,0.7 1.4,1.3 0.4,0.6 0.6,1.3 0.6,2.1 0,0.8 -0.2,1.6 -0.6,2.2 -0.2,0.6 -0.7,1.1 -1.3,1.4 z m -5.4,-5.6 v 4.2 h 1.9 c 0.9,0 1.6,-0.2 1.9,-0.6 0.3,-0.4 0.5,-0.9 0.5,-1.5 0,-0.6 -0.2,-1.1 -0.6,-1.5 -0.4,-0.4 -1.1,-0.6 -2,-0.6 z"
   id="path1595" />
				<path
   d="m 210.4,323.3 -1.2,-3.2 h -4.6 l -1.1,3.2 h -2.9 l 5,-13.5 h 3.1 l 4.8,13.5 z M 207,312.4 c -0.1,0.3 -0.3,1.1 -0.7,2.3 -0.4,1.2 -0.7,2.3 -1,3.2 h 3.3 c -0.5,-1.5 -0.8,-2.7 -1.1,-3.7 -0.3,-1 -0.4,-1.6 -0.5,-1.8 z"
   id="path1597" />
				<path
   d="m 223.3,323.3 -1.3,-2.2 c -0.7,-1.1 -1.1,-1.8 -1.4,-2.2 -0.3,-0.4 -0.6,-0.7 -0.8,-0.9 -0.3,-0.2 -0.6,-0.4 -1,-0.4 v 5.6 H 216 v -13.5 h 4.6 c 0.9,0 1.7,0.1 2.3,0.2 0.6,0.1 1.3,0.5 1.9,1.1 0.7,0.6 1,1.5 1,2.7 0,1 -0.3,1.9 -0.9,2.6 -0.6,0.7 -1.4,1.1 -2.4,1.2 0.2,0.2 0.5,0.4 0.8,0.8 0.3,0.4 0.6,0.7 0.8,1 0.2,0.3 0.5,0.7 0.8,1.2 l 1.9,2.7 z m -4.5,-11.4 v 3.7 h 1.2 c 1.1,0 1.9,-0.2 2.3,-0.5 0.4,-0.3 0.6,-0.8 0.6,-1.4 0,-0.9 -0.2,-1.4 -0.7,-1.5 -0.5,-0.2 -0.9,-0.2 -1.1,-0.3 -0.2,0 -0.6,-0.1 -0.9,-0.1 z"
   id="path1599" />
				<path
   d="M 238.7,312.1 H 235 v 11.2 h -2.8 v -11.2 h -3.7 v -2.3 h 10.7 z"
   id="path1601" />
				<path
   d="m 249.6,323.3 -1.2,-3.2 h -4.6 l -1.1,3.2 h -2.9 l 5,-13.5 h 3.1 l 4.8,13.5 z m -3.4,-10.9 c -0.1,0.3 -0.3,1.1 -0.7,2.3 -0.4,1.2 -0.7,2.3 -1,3.2 h 3.3 c -0.5,-1.5 -0.8,-2.7 -1.1,-3.7 -0.3,-1 -0.5,-1.6 -0.5,-1.8 z"
   id="path1603" />
				<path
   d="m 267.2,323.3 -0.6,-7.6 -0.2,-2.6 -0.7,2.6 -2.4,7.6 H 261 l -2.3,-7.5 c 0,-0.1 -0.1,-0.5 -0.3,-1.3 -0.2,-0.8 -0.3,-1.3 -0.4,-1.6 l -0.1,2.8 -0.6,7.5 h -2.8 l 1.4,-13.5 h 3.6 l 2.1,6.9 c 0.1,0.4 0.2,0.8 0.3,1.1 0.1,0.3 0.2,0.8 0.3,1.5 0,-0.3 0.1,-0.7 0.2,-1.2 0.1,-0.5 0.3,-1 0.4,-1.5 l 2.1,-6.9 h 3.7 l 1.3,13.5 z"
   id="path1605" />
				<path
   d="m 273.9,323.3 v -13.5 h 8.5 L 282,312 h -5.3 v 3.2 h 4.4 v 2.2 h -4.4 v 3.6 h 5.9 v 2.3 z"
   id="path1607" />
				<path
   d="m 293.9,323.3 -3.3,-6.2 c -0.3,-0.6 -0.7,-1.3 -1,-2 -0.3,-0.7 -0.5,-1.2 -0.7,-1.5 l 0.1,3.8 0.1,5.9 h -2.7 v -13.5 h 3.1 l 3.4,6.1 c 0.3,0.5 0.6,1.1 0.8,1.7 0.3,0.6 0.5,1.1 0.6,1.5 0,-0.1 0,-0.7 -0.1,-1.6 -0.1,-1 -0.1,-1.6 -0.1,-1.9 v -5.7 h 2.6 v 13.5 z"
   id="path1609" />
				<path
   d="m 310.2,312.1 h -3.7 v 11.2 h -2.8 V 312.1 H 300 v -2.3 h 10.7 z"
   id="path1611" />
				<path
   d="m 314.2,321.8 c -1.3,-1.3 -1.9,-3 -1.9,-5.2 0,-2.2 0.6,-3.9 1.7,-5.1 1.1,-1.2 2.7,-1.9 4.7,-1.9 2.1,0 3.7,0.6 4.8,1.9 1.1,1.3 1.6,2.9 1.6,5 0,2.1 -0.4,3.6 -1.1,4.5 -0.8,0.9 -1.5,1.6 -2.3,1.9 -0.8,0.3 -1.7,0.5 -2.8,0.5 -2,0.1 -3.5,-0.5 -4.7,-1.6 z m 7.3,-2.3 c 0.2,-0.7 0.4,-1.7 0.4,-2.9 0,-0.8 0,-1.4 -0.1,-1.9 -0.1,-0.5 -0.3,-1.1 -0.6,-1.9 -0.3,-0.8 -1.2,-1.1 -2.6,-1.1 -1.2,0 -2.1,0.4 -2.5,1.3 -0.4,0.9 -0.7,2 -0.7,3.5 0,1.6 0.2,2.9 0.7,3.7 0.5,0.8 1.3,1.2 2.6,1.2 0.7,0 1.3,-0.1 1.8,-0.4 0.5,-0.3 0.8,-0.8 1,-1.5 z"
   id="path1613" />
				<path
   d="m 341.3,310.1 c 1.3,0.4 2.3,1.1 3.1,2.1 0.7,1 1.1,2.4 1.1,4.3 0,1.9 -0.4,3.4 -1.3,4.5 -0.9,1.1 -1.7,1.7 -2.5,1.9 -0.8,0.2 -1.4,0.3 -1.8,0.3 -0.4,0 -0.9,0.1 -1.5,0.1 h -3.7 v -13.5 h 3 c 0.8,0 1.6,0 2.1,0.1 0.4,0 1,0.1 1.5,0.2 z m 0.2,3.1 c -0.6,-0.9 -1.5,-1.3 -2.7,-1.3 h -1.5 v 9.2 h 1.8 c 0.2,0 0.3,0 0.5,0 0.2,0 0.5,-0.1 1,-0.4 0.4,-0.2 0.8,-0.6 1.2,-1.3 0.3,-0.6 0.5,-1.5 0.5,-2.7 0,-1.4 -0.2,-2.6 -0.8,-3.5 z"
   id="path1615" />
				<path
   d="m 349.2,323.3 v -13.5 h 8.5 l -0.4,2.2 H 352 v 3.2 h 4.4 v 2.2 H 352 v 3.6 h 5.9 v 2.3 z"
   id="path1617" />
				<path
   d="m 111,354 c -0.9,0 -1.8,-0.1 -2.6,-0.4 -0.8,-0.3 -1.6,-0.8 -2.6,-1.8 -1,-0.9 -1.4,-2.4 -1.4,-4.6 0,-1.7 0.3,-3 1,-4.1 0.7,-1.1 1.5,-1.9 2.5,-2.4 1,-0.5 2.1,-0.8 3.2,-0.8 0.7,0 1.5,0.1 2.1,0.3 0.6,0.2 1.2,0.4 1.7,0.8 l -1.3,1.8 c -0.8,-0.5 -1.6,-0.7 -2.4,-0.7 -0.6,0 -1.1,0.1 -1.6,0.4 -0.5,0.3 -0.9,0.7 -1.4,1.2 -0.4,0.6 -0.6,1.6 -0.6,3.1 0,1 0.1,1.8 0.2,2.3 0.1,0.6 0.4,1.1 1,1.8 0.5,0.6 1.4,0.9 2.6,0.9 0.9,0 1.8,-0.3 2.6,-0.8 l 1.3,1.7 c -1.3,0.9 -2.7,1.3 -4.3,1.3 z"
   id="path1619" />
				<path
   d="m 117.8,353.8 v -13.5 h 2.9 v 13.5 z"
   id="path1621" />
				<path
   d="m 133.1,339.7 -3.5,-2.1 -3.4,2.1 -1,-1.6 4.4,-3.5 4.5,3.5 z m -7.8,14.1 v -13.5 h 8.5 l -0.4,2.2 H 128 v 3.2 h 4.4 v 2.2 H 128 v 3.6 h 5.9 v 2.3 z"
   id="path1623" />
				<path
   d="m 145.3,353.8 -3.3,-6.2 c -0.3,-0.6 -0.7,-1.3 -1,-2 -0.3,-0.7 -0.5,-1.2 -0.7,-1.5 l 0.1,3.8 0.1,5.9 h -2.7 v -13.5 h 3.1 l 3.4,6.1 c 0.3,0.5 0.6,1.1 0.8,1.7 0.2,0.6 0.5,1.1 0.6,1.5 0,-0.1 0,-0.7 -0.1,-1.6 -0.1,-1 -0.1,-1.6 -0.1,-1.9 v -5.7 h 2.6 v 13.5 z"
   id="path1625" />
				<path
   d="m 158.2,354 c -0.9,0 -1.8,-0.1 -2.6,-0.4 -0.8,-0.3 -1.6,-0.8 -2.6,-1.8 -1,-0.9 -1.4,-2.4 -1.4,-4.6 0,-1.7 0.3,-3 1,-4.1 0.7,-1.1 1.5,-1.9 2.5,-2.4 1,-0.5 2.1,-0.8 3.2,-0.8 0.7,0 1.5,0.1 2.1,0.3 0.6,0.2 1.2,0.4 1.7,0.8 l -1.3,1.8 c -0.8,-0.5 -1.6,-0.7 -2.4,-0.7 -0.6,0 -1.1,0.1 -1.6,0.4 -0.5,0.3 -0.9,0.7 -1.4,1.2 -0.4,0.6 -0.6,1.6 -0.6,3.1 0,1 0.1,1.8 0.2,2.3 0.1,0.6 0.4,1.1 1,1.8 0.5,0.6 1.4,0.9 2.6,0.9 0.9,0 1.8,-0.3 2.6,-0.8 l 1.3,1.7 c -1.2,0.9 -2.6,1.3 -4.3,1.3 z"
   id="path1627" />
				<path
   d="m 165.1,353.8 v -13.5 h 2.9 v 13.5 z"
   id="path1629" />
				<path
   d="m 180.3,353.8 -1.2,-3.2 h -4.6 l -1.1,3.2 h -2.9 l 5,-13.5 h 3.1 l 4.8,13.5 z m -3.4,-10.9 c -0.1,0.3 -0.3,1.1 -0.7,2.3 -0.4,1.2 -0.7,2.3 -1,3.2 h 3.3 c -0.5,-1.5 -0.8,-2.7 -1.1,-3.7 -0.3,-1 -0.4,-1.5 -0.5,-1.8 z"
   id="path1631" />
				<path
   d="m 198.4,340.7 c 1.3,0.4 2.3,1.1 3.1,2.1 0.7,1 1.1,2.4 1.1,4.3 0,1.9 -0.4,3.4 -1.3,4.5 -0.9,1.1 -1.7,1.7 -2.5,1.9 -0.8,0.2 -1.4,0.3 -1.8,0.3 -0.4,0 -0.9,0.1 -1.5,0.1 h -3.7 v -13.5 h 3 c 0.8,0 1.6,0 2.1,0.1 0.5,-0.1 1,0 1.5,0.2 z m 0.3,3.1 c -0.6,-0.9 -1.5,-1.3 -2.7,-1.3 h -1.5 v 9.2 h 1.8 c 0.2,0 0.3,0 0.5,0 0.2,0 0.5,-0.1 1,-0.4 0.4,-0.2 0.8,-0.6 1.1,-1.3 0.3,-0.6 0.5,-1.5 0.5,-2.7 0.1,-1.5 -0.2,-2.7 -0.7,-3.5 z"
   id="path1633" />
				<path
   d="m 214.2,353.8 -1.2,-3.2 h -4.6 l -1.1,3.2 h -2.9 l 5,-13.5 h 3.1 l 4.8,13.5 z m -3.4,-10.9 c -0.1,0.3 -0.3,1.1 -0.7,2.3 -0.4,1.2 -0.7,2.3 -1,3.2 h 3.3 c -0.5,-1.5 -0.8,-2.7 -1.1,-3.7 -0.3,-1 -0.5,-1.5 -0.5,-1.8 z"
   id="path1635" />
				<path
   d="m 231.1,354 c -0.9,0 -1.8,-0.1 -2.6,-0.4 -0.8,-0.3 -1.6,-0.8 -2.6,-1.8 -1,-0.9 -1.4,-2.4 -1.4,-4.6 0,-1.7 0.3,-3 1,-4.1 0.7,-1.1 1.5,-1.9 2.5,-2.4 1,-0.5 2.1,-0.8 3.2,-0.8 0.7,0 1.5,0.1 2.1,0.3 0.6,0.2 1.2,0.4 1.7,0.8 l -1.3,1.8 c -0.8,-0.5 -1.6,-0.7 -2.4,-0.7 -0.6,0 -1.1,0.1 -1.6,0.4 -0.5,0.3 -0.9,0.7 -1.4,1.2 -0.4,0.6 -0.6,1.6 -0.6,3.1 0,1 0.1,1.8 0.2,2.3 0.1,0.6 0.4,1.1 1,1.8 0.5,0.6 1.4,0.9 2.6,0.9 0.9,0 1.8,-0.3 2.6,-0.8 l 1.3,1.7 c -1.2,0.9 -2.6,1.3 -4.3,1.3 z"
   id="path1637" />
				<path
   d="m 239,352.3 c -1.3,-1.3 -1.9,-3 -1.9,-5.2 0,-2.2 0.6,-3.9 1.7,-5.1 1.1,-1.2 2.7,-1.9 4.7,-1.9 2.1,0 3.7,0.6 4.8,1.9 1.1,1.3 1.6,2.9 1.6,5 0,2.1 -0.4,3.6 -1.1,4.5 -0.7,0.9 -1.5,1.6 -2.3,1.9 -0.8,0.3 -1.7,0.5 -2.8,0.5 -2.1,0.1 -3.6,-0.4 -4.7,-1.6 z m 7.3,-2.3 c 0.2,-0.7 0.4,-1.7 0.4,-2.9 0,-0.8 0,-1.4 -0.1,-1.9 -0.1,-0.5 -0.3,-1.1 -0.6,-1.9 -0.3,-0.8 -1.2,-1.1 -2.6,-1.1 -1.2,0 -2.1,0.4 -2.5,1.3 -0.4,0.9 -0.7,2 -0.7,3.5 0,1.6 0.2,2.9 0.7,3.7 0.5,0.8 1.3,1.2 2.6,1.2 0.7,0 1.3,-0.1 1.8,-0.4 0.4,-0.3 0.7,-0.8 1,-1.5 z"
   id="path1639" />
				<path
   d="m 265.5,353.8 -0.6,-7.6 -0.2,-2.6 -0.7,2.6 -2.4,7.6 h -2.4 l -2.3,-7.5 c 0,-0.1 -0.1,-0.5 -0.3,-1.3 -0.2,-0.8 -0.3,-1.3 -0.4,-1.6 l -0.1,2.8 -0.6,7.5 h -2.8 l 1.4,-13.5 h 3.6 l 2.1,6.9 c 0.1,0.4 0.2,0.8 0.3,1.1 0.1,0.3 0.2,0.8 0.3,1.5 0,-0.3 0.1,-0.7 0.2,-1.2 0.1,-0.5 0.3,-1 0.4,-1.5 l 2.1,-6.9 h 3.7 l 1.3,13.5 z"
   id="path1641" />
				<path
   d="m 280.3,348.1 c -0.5,0.3 -1.1,0.5 -1.6,0.6 -0.5,0.1 -1.1,0.2 -1.9,0.2 H 275 v 5 h -2.8 v -13.5 h 3.9 c 1.2,0 2.1,0 2.6,0.1 0.5,0.1 1.1,0.3 1.6,0.6 0.6,0.3 1.1,0.7 1.4,1.3 0.4,0.6 0.6,1.3 0.6,2.1 0,0.8 -0.2,1.6 -0.6,2.2 -0.3,0.6 -0.8,1 -1.4,1.4 z m -5.3,-5.6 v 4.2 h 1.9 c 0.9,0 1.6,-0.2 1.9,-0.6 0.3,-0.4 0.5,-0.9 0.5,-1.5 0,-0.6 -0.2,-1.1 -0.6,-1.5 -0.4,-0.4 -1.1,-0.6 -2,-0.6 z"
   id="path1643" />
				<path
   d="m 295.1,352.7 c -0.4,0.4 -1,0.7 -1.7,1 -0.7,0.2 -1.5,0.4 -2.4,0.4 -1.2,0 -2.2,-0.2 -3,-0.5 -0.8,-0.3 -1.3,-0.8 -1.7,-1.3 -0.4,-0.5 -0.5,-0.9 -0.6,-1.4 -0.1,-0.4 -0.1,-1 -0.1,-1.7 v -8.9 h 2.8 v 8.5 c 0,0.9 0.1,1.7 0.4,2.2 0.3,0.5 1,0.8 2.1,0.8 0.9,0 1.5,-0.2 1.8,-0.5 0.3,-0.3 0.5,-0.7 0.5,-1 0.1,-0.3 0.1,-0.8 0.1,-1.4 v -8.6 h 2.9 v 8.8 c 0,1 -0.1,1.8 -0.2,2.2 -0.1,0.5 -0.4,1 -0.9,1.4 z"
   id="path1645" />
				<path
   d="m 309.6,342.6 h -3.7 v 11.2 h -2.8 v -11.2 h -3.7 v -2.3 H 310 Z"
   id="path1647" />
				<path
   d="m 320.4,353.8 -1.2,-3.2 h -4.6 l -1.1,3.2 h -2.9 l 5,-13.5 h 3.1 l 4.8,13.5 z M 317,342.9 c -0.1,0.3 -0.3,1.1 -0.7,2.3 -0.4,1.2 -0.7,2.3 -1,3.2 h 3.3 c -0.5,-1.5 -0.8,-2.7 -1.1,-3.7 -0.3,-1 -0.4,-1.5 -0.5,-1.8 z"
   id="path1649" />
				<path
   d="m 331.9,354 -0.2,0.6 c 0.6,0.1 1,0.3 1.3,0.6 0.3,0.4 0.4,0.8 0.4,1.3 0,0.6 -0.2,1.1 -0.7,1.5 -0.5,0.4 -1.1,0.6 -1.9,0.6 -0.3,0 -0.7,-0.1 -1.1,-0.2 -0.4,-0.1 -0.8,-0.3 -1,-0.4 l 0.7,-1.4 c 0.2,0.1 0.4,0.1 0.6,0.2 0.2,0.1 0.5,0.1 0.8,0.1 0.2,0 0.4,-0.1 0.5,-0.2 0.1,-0.1 0.2,-0.3 0.2,-0.4 0,-0.2 -0.1,-0.4 -0.2,-0.5 -0.1,-0.1 -0.3,-0.2 -0.6,-0.2 -0.3,0.1 -0.5,0.1 -0.7,0.1 l -0.3,-0.4 0.5,-1.7 c -1.2,-0.2 -2.3,-0.7 -3.2,-1.4 -1.4,-1.3 -2.1,-3 -2.1,-5.2 0,-1.7 0.3,-3 1,-4.1 0.7,-1.1 1.5,-1.9 2.5,-2.4 1,-0.5 2,-0.8 3.2,-0.8 0.7,0 1.5,0.1 2.1,0.3 0.7,0.2 1.2,0.4 1.7,0.8 l -1.3,1.8 c -0.8,-0.5 -1.6,-0.7 -2.4,-0.7 -0.6,0 -1.1,0.1 -1.6,0.4 -0.5,0.3 -1,0.7 -1.4,1.2 -0.4,0.5 -0.6,1.6 -0.6,3.1 0,1.8 0.3,3.1 1,3.8 0.6,0.8 1.6,1.2 2.8,1.2 0.5,0 0.9,-0.1 1.3,-0.2 0.4,-0.1 0.8,-0.3 1.3,-0.7 l 1.3,1.7 c -0.5,0.4 -1.1,0.7 -1.8,1 -0.7,0.3 -1.3,0.6 -2.1,0.6 z"
   id="path1651" />
				<path
   d="m 346.5,353.8 -1.2,-3.2 h -4.6 l -1.1,3.2 h -2.9 l 5,-13.5 h 3.1 l 4.8,13.5 z M 345,336.7 c 0.4,0 0.6,-0.1 0.9,-0.2 0.2,-0.1 0.5,-0.4 0.8,-0.7 l 0.9,1.6 c -0.5,0.6 -0.9,1 -1.4,1.3 -0.4,0.3 -1,0.4 -1.7,0.4 -0.5,0 -1.1,-0.2 -1.7,-0.5 -0.6,-0.3 -1.1,-0.5 -1.6,-0.5 -0.4,0 -0.6,0.1 -0.9,0.2 -0.2,0.1 -0.5,0.4 -0.8,0.7 l -0.9,-1.6 c 0.5,-0.6 0.9,-1 1.3,-1.3 0.4,-0.3 1,-0.4 1.7,-0.4 0.5,0 1.1,0.2 1.7,0.5 0.7,0.3 1.2,0.5 1.7,0.5 z m -1.9,6.2 c -0.1,0.3 -0.3,1.1 -0.7,2.3 -0.4,1.2 -0.7,2.3 -1,3.2 h 3.3 c -0.5,-1.5 -0.8,-2.7 -1.1,-3.7 -0.3,-1 -0.5,-1.5 -0.5,-1.8 z"
   id="path1653" />
				<path
   d="m 353.1,352.3 c -1.3,-1.3 -1.9,-3 -1.9,-5.2 0,-2.2 0.6,-3.9 1.7,-5.1 1.1,-1.2 2.7,-1.9 4.7,-1.9 2.1,0 3.7,0.6 4.8,1.9 1.1,1.3 1.6,2.9 1.6,5 0,2.1 -0.4,3.6 -1.1,4.5 -0.8,0.9 -1.5,1.6 -2.3,1.9 -0.8,0.3 -1.7,0.5 -2.8,0.5 -2.1,0.1 -3.6,-0.4 -4.7,-1.6 z m 7.3,-2.3 c 0.2,-0.7 0.4,-1.7 0.4,-2.9 0,-0.8 0,-1.4 -0.1,-1.9 -0.1,-0.5 -0.3,-1.1 -0.6,-1.9 -0.3,-0.8 -1.2,-1.1 -2.6,-1.1 -1.2,0 -2.1,0.4 -2.5,1.3 -0.4,0.9 -0.7,2 -0.7,3.5 0,1.6 0.2,2.9 0.7,3.7 0.5,0.8 1.3,1.2 2.6,1.2 0.7,0 1.3,-0.1 1.8,-0.4 0.5,-0.3 0.7,-0.8 1,-1.5 z"
   id="path1655" />
			</g>
			<rect
   x="287.70001"
   y="274.10001"
   class="st0"
   width="77.699997"
   height="18.700001"
   id="rect1659" />
		</g></g><g
   id="Ícone">
			<g
   id="g1668">
				<path
   d="m 1005.6,638.9 c 2.1,0.7 3.8,1.8 5.1,3.5 1.2,1.7 1.9,4.1 1.9,7.2 0,3.1 -0.7,5.6 -2.2,7.4 -1.5,1.8 -2.9,2.9 -4.1,3.2 -1.3,0.3 -2.3,0.5 -3,0.5 -0.7,0.1 -1.6,0.1 -2.5,0.1 h -6.2 v -22.5 h 5 c 1.4,0 2.6,0 3.5,0.1 0.8,0.1 1.6,0.3 2.5,0.5 z m 0.4,5.2 c -1,-1.5 -2.5,-2.2 -4.5,-2.2 h -2.4 v 15.3 h 3 c 0.3,0 0.6,0 0.9,0 0.4,0 0.9,-0.2 1.6,-0.6 0.7,-0.4 1.4,-1.1 1.9,-2.1 0.5,-1 0.8,-2.5 0.8,-4.4 0,-2.6 -0.4,-4.6 -1.3,-6 z"
   id="path1662" />
				<path
   d="m 1027.9,661.2 c -1.6,0 -3,-0.2 -4.3,-0.6 -1.3,-0.4 -2.7,-1.4 -4.3,-3 -1.6,-1.6 -2.4,-4.1 -2.4,-7.6 0,-2.8 0.6,-5.1 1.7,-6.8 1.1,-1.8 2.5,-3.1 4.1,-4 1.6,-0.9 3.4,-1.3 5.4,-1.3 1.2,0 2.4,0.2 3.5,0.5 1.1,0.3 2,0.7 2.8,1.3 l -2.2,3.1 c -1.3,-0.8 -2.6,-1.2 -4,-1.2 -1,0 -1.9,0.2 -2.7,0.6 -0.8,0.4 -1.6,1.1 -2.3,2.1 -0.7,1 -1,2.7 -1,5.1 0,1.6 0.1,2.9 0.3,3.8 0.2,0.9 0.7,1.9 1.6,2.9 0.9,1 2.3,1.5 4.3,1.5 1.5,0 3,-0.5 4.4,-1.4 l 2.2,2.8 c -2,1.5 -4.3,2.2 -7.1,2.2 z"
   id="path1664" />
				<path
   d="m 1048.5,661.2 c -1.6,0 -3,-0.2 -4.3,-0.6 -1.3,-0.4 -2.7,-1.4 -4.3,-3 -1.6,-1.6 -2.4,-4.1 -2.4,-7.6 0,-2.8 0.6,-5.1 1.7,-6.8 1.1,-1.8 2.5,-3.1 4.1,-4 1.6,-0.9 3.4,-1.3 5.4,-1.3 1.2,0 2.4,0.2 3.5,0.5 1.1,0.3 2,0.7 2.8,1.3 l -2.2,3.1 c -1.3,-0.8 -2.6,-1.2 -4,-1.2 -1,0 -1.9,0.2 -2.7,0.6 -0.8,0.4 -1.6,1.1 -2.3,2.1 -0.7,1 -1,2.7 -1,5.1 0,1.6 0.1,2.9 0.3,3.8 0.2,0.9 0.7,1.9 1.6,2.9 0.9,1 2.3,1.5 4.3,1.5 1.5,0 3,-0.5 4.4,-1.4 l 2.2,2.8 c -2,1.5 -4.3,2.2 -7.1,2.2 z"
   id="path1666" />
			</g>
			<rect
   x="994.40002"
   y="675.40002"
   class="st0"
   width="61.799999"
   height="18.700001"
   id="rect1670" />
		</g><g
   id="UFMG-Branco">
			<path
   class="st1"
   d="M 874.1,51.3 V 22.5 c 0,-2.7 -2.2,-3.5 -4.5,-3.7 v -2.5 h 17.5 v 2.5 c -2.2,0.2 -4.1,0.9 -4.1,3.5 v 28.5 c 0,9.6 6,13.5 14,13.5 14.7,0 14.7,-11.4 14.7,-21.9 V 30 c 0,-8.9 -0.8,-10.9 -5.3,-11.2 v -2.5 h 14.8 v 2.5 c -2.7,0.3 -4.6,1.6 -4.6,7.3 v 21.3 c 0,12 -5.8,21.3 -21.1,21.3 -13.3,-0.1 -21.4,-5.2 -21.4,-17.4"
   id="path1673" />
			<path
   class="st2"
   d="m 950.5,61.3 v -38 c 0,-3.2 -1.8,-4.2 -5,-4.5 V 16 c 5.9,0.1 11.7,0.2 17.6,0.2 9.9,0 16,-0.1 22.1,-0.2 l 0.3,8.3 h -2.8 c -1.5,-4.3 -4.3,-4.9 -12,-4.9 h -11.2 v 19.8 h 9.8 c 4.3,0 6.6,-0.1 7.3,-3.5 h 2.1 v 10.1 h -2.2 c -0.7,-2.9 -2.6,-3.2 -7.2,-3.2 h -9.8 v 16.7 c 0,5.2 2,6.6 6.4,6.7 v 2.5 h -20.5 v -2.6 c 3.3,-0.3 5.1,-1.4 5.1,-4.6"
   id="path1675" />
			<path
   class="st2"
   d="m 1164.9,53 v 3.4 9.9 c -5.2,1.4 -12.1,3 -19.7,3 -16.9,0 -28.7,-11.8 -28.7,-26.5 0,-16.8 13,-27.4 29.4,-27.4 2.7,0 4.9,0.3 9.9,0.9 1.4,0.2 8.2,1.5 9.6,1.8 l 0.7,9.7 h -3.4 c -2.4,-4.8 -5.7,-9 -14.8,-9 -11.4,0 -21.1,6.9 -21.1,23.7 0,9.8 5.5,23.5 22.1,23.5 2.6,0 5,-0.6 7.4,-1.7 0,-0.9 0.2,-6.7 0.2,-8.1 0,-4.6 -0.5,-6.6 -4.3,-7.2 v -2.6 h 16.4 v 2.4 c -2.9,0.4 -3.7,1.3 -3.7,4.2"
   id="path1677" />
			<path
   class="st2"
   d="m 1093.9,53 c -1.7,1.8 -7.8,7.1 -9.9,7.1 -0.8,0 -1.8,-0.4 -1.8,-1.4 0,-1.3 1,-3.5 1.6,-5.3 l 9.1,-26.6 c 0.6,-1.6 1.1,-3.8 1.1,-5.6 0,-2.5 -1,-4.7 -4.5,-4.7 -10.8,0 -27.8,19.1 -33.9,26.8 h -0.2 l 5.4,-16.9 c 0.7,-2 1.2,-4.3 1.2,-6.1 0,-2.2 -1.6,-3.7 -5.1,-3.7 -10.1,0 -26.9,18.7 -32.3,26.6 h -0.2 l 5.9,-17.1 c 0.5,-1.4 1.3,-3.5 1.3,-5.5 0,-2.1 -1.1,-4 -3.9,-4 -7.5,0 -15.4,9.1 -19.7,14.4 0,0 -1.1,1.3 -0.2,2.1 1,0.9 1.9,0 1.9,0 l 3.1,-3.4 c 2,-2 4.2,-4 6.6,-4 1.4,0 1.8,1 1.8,2.3 0,1 -0.3,2.1 -0.5,2.8 l -11.8,35.7 c -0.3,1.3 2.2,2 3.3,2 2.9,0 4.2,-0.9 4.5,-1.8 l 2,-6 c 3.1,-8.6 7.9,-16.5 14.2,-23.2 3.6,-4 10.4,-11.9 16.6,-11.9 1.6,0 2.2,1.3 2.2,2.8 0,2.9 -1.6,7.3 -1.9,8.4 l -9.9,29.6 c -0.2,0.9 0.8,2.2 3.9,2.2 2.8,0 3.6,-1 4,-2 l 1.9,-4.6 c 3.2,-8.2 6.4,-14.1 11.7,-20.6 3.6,-4.4 14,-15.9 19.9,-15.9 1.2,0 2.6,0.9 2.6,2.7 0,1.1 -0.7,3.1 -1.2,4.7 l -9.2,26.3 c -0.8,2.3 -1.4,4.1 -1.4,5.3 0,2.9 2.1,3.8 4.2,3.8 6.2,0 11.6,-5.1 16,-10 l 3.5,-3.9 c 0,0 1,-1 0,-1.8 -1.2,-0.4 -1.9,0.4 -1.9,0.4"
   id="path1679" />
			<rect
   x="1009.4"
   y="83.400002"
   class="st2"
   width="78.5"
   height="18.9"
   id="rect1681" />
		</g><g
   id="Logo-Branca">
			<g
   id="g1690">
				<path
   class="st2"
   d="m 1065.4,203.6 c 2.1,0.7 3.8,1.8 5.1,3.5 1.2,1.7 1.9,4.1 1.9,7.2 0,3.1 -0.7,5.6 -2.2,7.4 -1.5,1.8 -2.9,2.9 -4.1,3.2 -1.3,0.3 -2.3,0.5 -3,0.5 -0.7,0.1 -1.6,0.1 -2.5,0.1 h -6.2 V 203 h 5 c 1.4,0 2.6,0 3.5,0.1 0.8,0.1 1.6,0.3 2.5,0.5 z m 0.4,5.2 c -1,-1.5 -2.5,-2.2 -4.5,-2.2 h -2.4 v 15.3 h 3 c 0.3,0 0.6,0 0.9,0 0.4,0 0.9,-0.2 1.6,-0.6 0.7,-0.4 1.4,-1.1 1.9,-2.1 0.5,-1 0.8,-2.5 0.8,-4.4 0,-2.7 -0.4,-4.6 -1.3,-6 z"
   id="path1684" />
				<path
   class="st2"
   d="m 1087.7,225.9 c -1.6,0 -3,-0.2 -4.3,-0.6 -1.3,-0.4 -2.7,-1.4 -4.3,-3 -1.6,-1.6 -2.4,-4.1 -2.4,-7.6 0,-2.8 0.6,-5.1 1.7,-6.8 1.1,-1.8 2.5,-3.1 4.1,-4 1.6,-0.9 3.4,-1.3 5.4,-1.3 1.2,0 2.4,0.2 3.5,0.5 1.1,0.3 2,0.7 2.8,1.3 l -2.2,3.1 c -1.3,-0.8 -2.6,-1.2 -4,-1.2 -1,0 -1.9,0.2 -2.7,0.6 -0.8,0.4 -1.6,1.1 -2.3,2.1 -0.7,1 -1,2.7 -1,5.1 0,1.6 0.1,2.9 0.3,3.8 0.2,0.9 0.7,1.9 1.6,2.9 0.9,1 2.3,1.5 4.3,1.5 1.5,0 3,-0.5 4.4,-1.4 l 2.2,2.8 c -2,1.5 -4.3,2.2 -7.1,2.2 z"
   id="path1686" />
				<path
   class="st2"
   d="m 1108.3,225.9 c -1.6,0 -3,-0.2 -4.3,-0.6 -1.3,-0.4 -2.7,-1.4 -4.3,-3 -1.6,-1.6 -2.4,-4.1 -2.4,-7.6 0,-2.8 0.6,-5.1 1.7,-6.8 1.1,-1.8 2.5,-3.1 4.1,-4 1.6,-0.9 3.4,-1.3 5.4,-1.3 1.2,0 2.4,0.2 3.5,0.5 1.1,0.3 2,0.7 2.8,1.3 l -2.2,3.1 c -1.3,-0.8 -2.6,-1.2 -4,-1.2 -1,0 -1.9,0.2 -2.7,0.6 -0.8,0.4 -1.6,1.1 -2.3,2.1 -0.7,1 -1,2.7 -1,5.1 0,1.6 0.1,2.9 0.3,3.8 0.2,0.9 0.7,1.9 1.6,2.9 0.9,1 2.3,1.5 4.3,1.5 1.5,0 3,-0.5 4.4,-1.4 l 2.2,2.8 c -2,1.5 -4.3,2.2 -7.1,2.2 z"
   id="path1688" />
			</g>
			<g
   id="g1758">
				<path
   class="st2"
   d="m 919.2,276.1 c 1.3,0.4 2.3,1.1 3.1,2.1 0.7,1 1.1,2.4 1.1,4.3 0,1.9 -0.4,3.4 -1.3,4.5 -0.9,1.1 -1.7,1.7 -2.5,1.9 -0.8,0.2 -1.4,0.3 -1.8,0.3 -0.4,0 -0.9,0.1 -1.5,0.1 h -3.7 v -13.5 h 3 c 0.8,0 1.6,0 2.1,0.1 0.5,0 1,0.1 1.5,0.2 z m 0.2,3.1 c -0.6,-0.9 -1.5,-1.3 -2.7,-1.3 h -1.5 v 9.2 h 1.8 c 0.2,0 0.3,0 0.5,0 0.2,0 0.5,-0.1 1,-0.4 0.4,-0.2 0.8,-0.6 1.1,-1.3 0.3,-0.6 0.5,-1.5 0.5,-2.7 0.1,-1.4 -0.1,-2.6 -0.7,-3.5 z"
   id="path1692" />
				<path
   class="st2"
   d="m 927.1,289.3 v -13.5 h 8.5 l -0.4,2.2 h -5.3 v 3.2 h 4.4 v 2.2 h -4.4 v 3.6 h 5.9 v 2.3 z"
   id="path1694" />
				<path
   class="st2"
   d="m 947.8,283.5 c -0.5,0.3 -1.1,0.5 -1.6,0.6 -0.5,0.1 -1.1,0.2 -1.9,0.2 h -1.8 v 5 h -2.9 v -13.5 h 3.9 c 1.2,0 2.1,0 2.6,0.1 0.5,0.1 1.1,0.3 1.6,0.6 0.6,0.3 1.1,0.7 1.4,1.3 0.4,0.6 0.6,1.3 0.6,2.1 0,0.8 -0.2,1.6 -0.6,2.2 -0.2,0.6 -0.7,1.1 -1.3,1.4 z m -5.4,-5.6 v 4.2 h 1.9 c 0.9,0 1.6,-0.2 1.9,-0.6 0.3,-0.4 0.5,-0.9 0.5,-1.5 0,-0.6 -0.2,-1.1 -0.6,-1.5 -0.4,-0.4 -1.1,-0.6 -2,-0.6 z"
   id="path1696" />
				<path
   class="st2"
   d="m 961,289.3 -1.2,-3.2 h -4.6 l -1.1,3.2 h -2.9 l 5,-13.5 h 3.1 l 4.8,13.5 z m -3.4,-10.9 c -0.1,0.3 -0.3,1.1 -0.7,2.3 -0.4,1.2 -0.7,2.3 -1,3.2 h 3.3 c -0.5,-1.5 -0.8,-2.7 -1.1,-3.7 -0.3,-1 -0.4,-1.6 -0.5,-1.8 z"
   id="path1698" />
				<path
   class="st2"
   d="m 973.9,289.3 -1.3,-2.2 c -0.7,-1.1 -1.1,-1.8 -1.4,-2.2 -0.3,-0.4 -0.6,-0.7 -0.8,-0.9 -0.3,-0.2 -0.6,-0.4 -1,-0.4 v 5.6 h -2.8 v -13.5 h 4.6 c 0.9,0 1.7,0.1 2.3,0.2 0.6,0.1 1.3,0.5 1.9,1.1 0.7,0.6 1,1.5 1,2.7 0,1 -0.3,1.9 -0.9,2.6 -0.6,0.7 -1.4,1.1 -2.4,1.2 0.2,0.2 0.5,0.4 0.8,0.8 0.3,0.4 0.6,0.7 0.8,1 0.2,0.3 0.5,0.7 0.8,1.2 l 1.9,2.7 z m -4.5,-11.4 v 3.7 h 1.2 c 1.1,0 1.9,-0.2 2.3,-0.5 0.4,-0.3 0.6,-0.8 0.6,-1.4 0,-0.9 -0.2,-1.4 -0.7,-1.5 -0.5,-0.2 -0.9,-0.2 -1.1,-0.3 -0.2,0 -0.6,-0.1 -0.9,-0.1 z"
   id="path1700" />
				<path
   class="st2"
   d="m 989.3,278.1 h -3.7 v 11.2 h -2.8 v -11.2 h -3.7 v -2.3 h 10.7 z"
   id="path1702" />
				<path
   class="st2"
   d="m 1000.2,289.3 -1.2,-3.2 h -4.6 l -1.1,3.2 h -2.9 l 5,-13.5 h 3.1 l 4.8,13.5 z m -3.4,-10.9 c -0.1,0.3 -0.3,1.1 -0.7,2.3 -0.4,1.2 -0.7,2.3 -1,3.2 h 3.3 c -0.5,-1.5 -0.8,-2.7 -1.1,-3.7 -0.3,-1 -0.5,-1.6 -0.5,-1.8 z"
   id="path1704" />
				<path
   class="st2"
   d="m 1017.8,289.3 -0.6,-7.6 -0.2,-2.6 -0.7,2.6 -2.4,7.6 h -2.3 l -2.3,-7.5 c 0,-0.1 -0.1,-0.5 -0.3,-1.3 -0.2,-0.8 -0.3,-1.3 -0.4,-1.6 l -0.1,2.8 -0.6,7.5 h -2.8 l 1.4,-13.5 h 3.6 l 2.1,6.9 c 0.1,0.4 0.2,0.8 0.3,1.1 0.1,0.3 0.2,0.8 0.3,1.5 0,-0.3 0.1,-0.7 0.2,-1.2 0.1,-0.5 0.3,-1 0.4,-1.5 l 2.1,-6.9 h 3.7 l 1.3,13.5 z"
   id="path1706" />
				<path
   class="st2"
   d="m 1024.5,289.3 v -13.5 h 8.5 l -0.4,2.2 h -5.3 v 3.2 h 4.4 v 2.2 h -4.4 v 3.6 h 5.9 v 2.3 z"
   id="path1708" />
				<path
   class="st2"
   d="m 1044.5,289.3 -3.3,-6.2 c -0.3,-0.6 -0.7,-1.3 -1,-2 -0.3,-0.7 -0.5,-1.2 -0.7,-1.5 l 0.1,3.8 0.1,5.9 h -2.7 v -13.5 h 3.1 l 3.4,6.1 c 0.3,0.5 0.6,1.1 0.8,1.7 0.3,0.6 0.5,1.1 0.6,1.5 0,-0.1 0,-0.7 -0.1,-1.6 -0.1,-1 -0.1,-1.6 -0.1,-1.9 v -5.7 h 2.6 v 13.5 z"
   id="path1710" />
				<path
   class="st2"
   d="m 1060.8,278.1 h -3.7 v 11.2 h -2.8 v -11.2 h -3.7 v -2.3 h 10.7 z"
   id="path1712" />
				<path
   class="st2"
   d="m 1064.8,287.8 c -1.3,-1.3 -1.9,-3 -1.9,-5.2 0,-2.2 0.6,-3.9 1.7,-5.1 1.1,-1.2 2.7,-1.9 4.7,-1.9 2.1,0 3.7,0.6 4.8,1.9 1.1,1.3 1.6,2.9 1.6,5 0,2.1 -0.4,3.6 -1.1,4.5 -0.8,0.9 -1.5,1.6 -2.3,1.9 -0.8,0.3 -1.7,0.5 -2.8,0.5 -2,0.1 -3.5,-0.5 -4.7,-1.6 z m 7.3,-2.3 c 0.2,-0.7 0.4,-1.7 0.4,-2.9 0,-0.8 0,-1.4 -0.1,-1.9 -0.1,-0.5 -0.3,-1.1 -0.6,-1.9 -0.3,-0.8 -1.2,-1.1 -2.6,-1.1 -1.2,0 -2.1,0.4 -2.5,1.3 -0.4,0.9 -0.7,2 -0.7,3.5 0,1.6 0.2,2.9 0.7,3.7 0.5,0.8 1.3,1.2 2.6,1.2 0.7,0 1.3,-0.1 1.8,-0.4 0.5,-0.3 0.8,-0.8 1,-1.5 z"
   id="path1714" />
				<path
   class="st2"
   d="m 1091.9,276.1 c 1.3,0.4 2.3,1.1 3.1,2.1 0.7,1 1.1,2.4 1.1,4.3 0,1.9 -0.4,3.4 -1.3,4.5 -0.9,1.1 -1.7,1.7 -2.5,1.9 -0.8,0.2 -1.4,0.3 -1.8,0.3 -0.4,0 -0.9,0.1 -1.5,0.1 h -3.7 v -13.5 h 3 c 0.8,0 1.6,0 2.1,0.1 0.4,0 1,0.1 1.5,0.2 z m 0.2,3.1 c -0.6,-0.9 -1.5,-1.3 -2.7,-1.3 h -1.5 v 9.2 h 1.8 c 0.2,0 0.3,0 0.5,0 0.2,0 0.5,-0.1 1,-0.4 0.4,-0.2 0.8,-0.6 1.2,-1.3 0.3,-0.6 0.5,-1.5 0.5,-2.7 0,-1.4 -0.2,-2.6 -0.8,-3.5 z"
   id="path1716" />
				<path
   class="st2"
   d="m 1099.8,289.3 v -13.5 h 8.5 l -0.4,2.2 h -5.3 v 3.2 h 4.4 v 2.2 h -4.4 v 3.6 h 5.9 v 2.3 z"
   id="path1718" />
				<path
   class="st2"
   d="m 861.6,320 c -0.9,0 -1.8,-0.1 -2.6,-0.4 -0.8,-0.3 -1.6,-0.8 -2.6,-1.8 -1,-0.9 -1.4,-2.4 -1.4,-4.6 0,-1.7 0.3,-3 1,-4.1 0.7,-1.1 1.5,-1.9 2.5,-2.4 1,-0.5 2.1,-0.8 3.2,-0.8 0.7,0 1.5,0.1 2.1,0.3 0.6,0.2 1.2,0.4 1.7,0.8 l -1.3,1.8 c -0.8,-0.5 -1.6,-0.7 -2.4,-0.7 -0.6,0 -1.1,0.1 -1.6,0.4 -0.5,0.3 -0.9,0.7 -1.4,1.2 -0.4,0.6 -0.6,1.6 -0.6,3.1 0,1 0.1,1.8 0.2,2.3 0.1,0.6 0.4,1.1 1,1.8 0.5,0.6 1.4,0.9 2.6,0.9 0.9,0 1.8,-0.3 2.6,-0.8 l 1.3,1.7 c -1.3,0.9 -2.7,1.3 -4.3,1.3 z"
   id="path1720" />
				<path
   class="st2"
   d="m 868.4,319.8 v -13.5 h 2.9 v 13.5 z"
   id="path1722" />
				<path
   class="st2"
   d="m 883.7,305.7 -3.5,-2.1 -3.4,2.1 -1,-1.6 4.4,-3.5 4.5,3.5 z m -7.8,14.1 v -13.5 h 8.5 l -0.4,2.2 h -5.4 v 3.2 h 4.4 v 2.2 h -4.4 v 3.6 h 5.9 v 2.3 z"
   id="path1724" />
				<path
   class="st2"
   d="m 895.9,319.8 -3.3,-6.2 c -0.3,-0.6 -0.7,-1.3 -1,-2 -0.3,-0.7 -0.5,-1.2 -0.7,-1.5 l 0.1,3.8 0.1,5.9 h -2.7 v -13.5 h 3.1 l 3.4,6.1 c 0.3,0.5 0.6,1.1 0.8,1.7 0.2,0.6 0.5,1.1 0.6,1.5 0,-0.1 0,-0.7 -0.1,-1.6 -0.1,-1 -0.1,-1.6 -0.1,-1.9 v -5.7 h 2.6 v 13.5 z"
   id="path1726" />
				<path
   class="st2"
   d="m 908.8,320 c -0.9,0 -1.8,-0.1 -2.6,-0.4 -0.8,-0.3 -1.6,-0.8 -2.6,-1.8 -1,-0.9 -1.4,-2.4 -1.4,-4.6 0,-1.7 0.3,-3 1,-4.1 0.7,-1.1 1.5,-1.9 2.5,-2.4 1,-0.5 2.1,-0.8 3.2,-0.8 0.7,0 1.5,0.1 2.1,0.3 0.6,0.2 1.2,0.4 1.7,0.8 l -1.3,1.8 c -0.8,-0.5 -1.6,-0.7 -2.4,-0.7 -0.6,0 -1.1,0.1 -1.6,0.4 -0.5,0.3 -0.9,0.7 -1.4,1.2 -0.4,0.6 -0.6,1.6 -0.6,3.1 0,1 0.1,1.8 0.2,2.3 0.1,0.6 0.4,1.1 1,1.8 0.5,0.6 1.4,0.9 2.6,0.9 0.9,0 1.8,-0.3 2.6,-0.8 l 1.3,1.7 c -1.2,0.9 -2.6,1.3 -4.3,1.3 z"
   id="path1728" />
				<path
   class="st2"
   d="m 915.7,319.8 v -13.5 h 2.9 v 13.5 z"
   id="path1730" />
				<path
   class="st2"
   d="m 930.9,319.8 -1.2,-3.2 h -4.6 l -1.1,3.2 h -2.9 l 5,-13.5 h 3.1 l 4.8,13.5 z m -3.4,-10.9 c -0.1,0.3 -0.3,1.1 -0.7,2.3 -0.4,1.2 -0.7,2.3 -1,3.2 h 3.3 c -0.5,-1.5 -0.8,-2.7 -1.1,-3.7 -0.3,-1 -0.4,-1.5 -0.5,-1.8 z"
   id="path1732" />
				<path
   class="st2"
   d="m 949,306.7 c 1.3,0.4 2.3,1.1 3.1,2.1 0.7,1 1.1,2.4 1.1,4.3 0,1.9 -0.4,3.4 -1.3,4.5 -0.9,1.1 -1.7,1.7 -2.5,1.9 -0.8,0.2 -1.4,0.3 -1.8,0.3 -0.4,0 -0.9,0.1 -1.5,0.1 h -3.7 v -13.5 h 3 c 0.8,0 1.6,0 2.1,0.1 0.5,-0.1 1,0 1.5,0.2 z m 0.3,3.1 c -0.6,-0.9 -1.5,-1.3 -2.7,-1.3 h -1.5 v 9.2 h 1.8 c 0.2,0 0.3,0 0.5,0 0.2,0 0.5,-0.1 1,-0.4 0.4,-0.2 0.8,-0.6 1.1,-1.3 0.3,-0.6 0.5,-1.5 0.5,-2.7 0.1,-1.5 -0.2,-2.7 -0.7,-3.5 z"
   id="path1734" />
				<path
   class="st2"
   d="m 964.8,319.8 -1.2,-3.2 H 959 l -1.1,3.2 H 955 l 5,-13.5 h 3.1 l 4.8,13.5 z m -3.4,-10.9 c -0.1,0.3 -0.3,1.1 -0.7,2.3 -0.4,1.2 -0.7,2.3 -1,3.2 h 3.3 c -0.5,-1.5 -0.8,-2.7 -1.1,-3.7 -0.3,-1 -0.5,-1.5 -0.5,-1.8 z"
   id="path1736" />
				<path
   class="st2"
   d="m 981.7,320 c -0.9,0 -1.8,-0.1 -2.6,-0.4 -0.8,-0.3 -1.6,-0.8 -2.6,-1.8 -1,-0.9 -1.4,-2.4 -1.4,-4.6 0,-1.7 0.3,-3 1,-4.1 0.7,-1.1 1.5,-1.9 2.5,-2.4 1,-0.5 2.1,-0.8 3.2,-0.8 0.7,0 1.5,0.1 2.1,0.3 0.6,0.2 1.2,0.4 1.7,0.8 l -1.3,1.8 c -0.8,-0.5 -1.6,-0.7 -2.4,-0.7 -0.6,0 -1.1,0.1 -1.6,0.4 -0.5,0.3 -0.9,0.7 -1.4,1.2 -0.4,0.6 -0.6,1.6 -0.6,3.1 0,1 0.1,1.8 0.2,2.3 0.1,0.6 0.4,1.1 1,1.8 0.5,0.6 1.4,0.9 2.6,0.9 0.9,0 1.8,-0.3 2.6,-0.8 l 1.3,1.7 c -1.2,0.9 -2.6,1.3 -4.3,1.3 z"
   id="path1738" />
				<path
   class="st2"
   d="m 989.6,318.3 c -1.3,-1.3 -1.9,-3 -1.9,-5.2 0,-2.2 0.6,-3.9 1.7,-5.1 1.1,-1.2 2.7,-1.9 4.7,-1.9 2.1,0 3.7,0.6 4.8,1.9 1.1,1.3 1.6,2.9 1.6,5 0,2.1 -0.4,3.6 -1.1,4.5 -0.7,0.9 -1.5,1.6 -2.3,1.9 -0.8,0.3 -1.7,0.5 -2.8,0.5 -2.1,0.1 -3.6,-0.4 -4.7,-1.6 z m 7.3,-2.3 c 0.2,-0.7 0.4,-1.7 0.4,-2.9 0,-0.8 0,-1.4 -0.1,-1.9 -0.1,-0.5 -0.3,-1.1 -0.6,-1.9 -0.3,-0.8 -1.2,-1.1 -2.6,-1.1 -1.2,0 -2.1,0.4 -2.5,1.3 -0.4,0.9 -0.7,2 -0.7,3.5 0,1.6 0.2,2.9 0.7,3.7 0.5,0.8 1.3,1.2 2.6,1.2 0.7,0 1.3,-0.1 1.8,-0.4 0.4,-0.3 0.7,-0.8 1,-1.5 z"
   id="path1740" />
				<path
   class="st2"
   d="m 1016.1,319.8 -0.6,-7.6 -0.2,-2.6 -0.7,2.6 -2.4,7.6 h -2.4 l -2.3,-7.5 c 0,-0.1 -0.1,-0.5 -0.3,-1.3 -0.2,-0.8 -0.3,-1.3 -0.4,-1.6 l -0.1,2.8 -0.6,7.5 h -2.8 l 1.4,-13.5 h 3.6 l 2.1,6.9 c 0.1,0.4 0.2,0.8 0.3,1.1 0.1,0.3 0.2,0.8 0.3,1.5 0,-0.3 0.1,-0.7 0.2,-1.2 0.1,-0.5 0.3,-1 0.4,-1.5 l 2.1,-6.9 h 3.7 l 1.3,13.5 z"
   id="path1742" />
				<path
   class="st2"
   d="m 1030.9,314.1 c -0.5,0.3 -1.1,0.5 -1.6,0.6 -0.5,0.1 -1.1,0.2 -1.9,0.2 h -1.8 v 5 h -2.8 v -13.5 h 3.9 c 1.2,0 2.1,0 2.6,0.1 0.5,0.1 1.1,0.3 1.6,0.6 0.6,0.3 1.1,0.7 1.4,1.3 0.4,0.6 0.6,1.3 0.6,2.1 0,0.8 -0.2,1.6 -0.6,2.2 -0.3,0.6 -0.8,1 -1.4,1.4 z m -5.3,-5.6 v 4.2 h 1.9 c 0.9,0 1.6,-0.2 1.9,-0.6 0.3,-0.4 0.5,-0.9 0.5,-1.5 0,-0.6 -0.2,-1.1 -0.6,-1.5 -0.4,-0.4 -1.1,-0.6 -2,-0.6 z"
   id="path1744" />
				<path
   class="st2"
   d="m 1045.7,318.7 c -0.4,0.4 -1,0.7 -1.7,1 -0.7,0.2 -1.5,0.4 -2.4,0.4 -1.2,0 -2.2,-0.2 -3,-0.5 -0.8,-0.3 -1.3,-0.8 -1.7,-1.3 -0.4,-0.5 -0.5,-0.9 -0.6,-1.4 -0.1,-0.4 -0.1,-1 -0.1,-1.7 v -8.9 h 2.8 v 8.5 c 0,0.9 0.1,1.7 0.4,2.2 0.3,0.5 1,0.8 2.1,0.8 0.9,0 1.5,-0.2 1.8,-0.5 0.3,-0.3 0.5,-0.7 0.5,-1 0.1,-0.3 0.1,-0.8 0.1,-1.4 v -8.6 h 2.9 v 8.8 c 0,1 -0.1,1.8 -0.2,2.2 -0.1,0.5 -0.4,1 -0.9,1.4 z"
   id="path1746" />
				<path
   class="st2"
   d="m 1060.2,308.6 h -3.7 v 11.2 h -2.8 v -11.2 h -3.7 v -2.3 h 10.6 z"
   id="path1748" />
				<path
   class="st2"
   d="m 1071,319.8 -1.2,-3.2 h -4.6 l -1.1,3.2 h -2.9 l 5,-13.5 h 3.1 l 4.8,13.5 z m -3.4,-10.9 c -0.1,0.3 -0.3,1.1 -0.7,2.3 -0.4,1.2 -0.7,2.3 -1,3.2 h 3.3 c -0.5,-1.5 -0.8,-2.7 -1.1,-3.7 -0.3,-1 -0.4,-1.5 -0.5,-1.8 z"
   id="path1750" />
				<path
   class="st2"
   d="m 1082.5,320 -0.2,0.6 c 0.6,0.1 1,0.3 1.3,0.6 0.3,0.4 0.4,0.8 0.4,1.3 0,0.6 -0.2,1.1 -0.7,1.5 -0.5,0.4 -1.1,0.6 -1.9,0.6 -0.3,0 -0.7,-0.1 -1.1,-0.2 -0.4,-0.1 -0.8,-0.3 -1,-0.4 l 0.7,-1.4 c 0.2,0.1 0.4,0.1 0.6,0.2 0.2,0.1 0.5,0.1 0.8,0.1 0.2,0 0.4,-0.1 0.5,-0.2 0.1,-0.1 0.2,-0.3 0.2,-0.4 0,-0.2 -0.1,-0.4 -0.2,-0.5 -0.1,-0.1 -0.3,-0.2 -0.6,-0.2 -0.3,0.1 -0.5,0.1 -0.7,0.1 l -0.3,-0.4 0.5,-1.7 c -1.2,-0.2 -2.3,-0.7 -3.2,-1.4 -1.4,-1.3 -2.1,-3 -2.1,-5.2 0,-1.7 0.3,-3 1,-4.1 0.7,-1.1 1.5,-1.9 2.5,-2.4 1,-0.5 2,-0.8 3.2,-0.8 0.7,0 1.5,0.1 2.1,0.3 0.7,0.2 1.2,0.4 1.7,0.8 l -1.3,1.8 c -0.8,-0.5 -1.6,-0.7 -2.4,-0.7 -0.6,0 -1.1,0.1 -1.6,0.4 -0.5,0.3 -1,0.7 -1.4,1.2 -0.4,0.5 -0.6,1.6 -0.6,3.1 0,1.8 0.3,3.1 1,3.8 0.6,0.8 1.6,1.2 2.8,1.2 0.5,0 0.9,-0.1 1.3,-0.2 0.4,-0.1 0.8,-0.3 1.3,-0.7 l 1.3,1.7 c -0.5,0.4 -1.1,0.7 -1.8,1 -0.7,0.3 -1.3,0.6 -2.1,0.6 z"
   id="path1752" />
				<path
   class="st2"
   d="m 1097.1,319.8 -1.2,-3.2 h -4.6 l -1.1,3.2 h -2.9 l 5,-13.5 h 3.1 l 4.8,13.5 z m -1.5,-17.1 c 0.4,0 0.6,-0.1 0.9,-0.2 0.2,-0.1 0.5,-0.4 0.8,-0.7 l 0.9,1.6 c -0.5,0.6 -0.9,1 -1.4,1.3 -0.4,0.3 -1,0.4 -1.7,0.4 -0.5,0 -1.1,-0.2 -1.7,-0.5 -0.6,-0.3 -1.1,-0.5 -1.6,-0.5 -0.4,0 -0.6,0.1 -0.9,0.2 -0.2,0.1 -0.5,0.4 -0.8,0.7 l -0.9,-1.6 c 0.5,-0.6 0.9,-1 1.3,-1.3 0.4,-0.3 1,-0.4 1.7,-0.4 0.5,0 1.1,0.2 1.7,0.5 0.7,0.3 1.2,0.5 1.7,0.5 z m -1.9,6.2 c -0.1,0.3 -0.3,1.1 -0.7,2.3 -0.4,1.2 -0.7,2.3 -1,3.2 h 3.3 c -0.5,-1.5 -0.8,-2.7 -1.1,-3.7 -0.3,-1 -0.5,-1.5 -0.5,-1.8 z"
   id="path1754" />
				<path
   class="st2"
   d="m 1103.7,318.3 c -1.3,-1.3 -1.9,-3 -1.9,-5.2 0,-2.2 0.6,-3.9 1.7,-5.1 1.1,-1.2 2.7,-1.9 4.7,-1.9 2.1,0 3.7,0.6 4.8,1.9 1.1,1.3 1.6,2.9 1.6,5 0,2.1 -0.4,3.6 -1.1,4.5 -0.8,0.9 -1.5,1.6 -2.3,1.9 -0.8,0.3 -1.7,0.5 -2.8,0.5 -2.1,0.1 -3.6,-0.4 -4.7,-1.6 z m 7.3,-2.3 c 0.2,-0.7 0.4,-1.7 0.4,-2.9 0,-0.8 0,-1.4 -0.1,-1.9 -0.1,-0.5 -0.3,-1.1 -0.6,-1.9 -0.3,-0.8 -1.2,-1.1 -2.6,-1.1 -1.2,0 -2.1,0.4 -2.5,1.3 -0.4,0.9 -0.7,2 -0.7,3.5 0,1.6 0.2,2.9 0.7,3.7 0.5,0.8 1.3,1.2 2.6,1.2 0.7,0 1.3,-0.1 1.8,-0.4 0.5,-0.3 0.7,-0.8 1,-1.5 z"
   id="path1756" />
			</g>
			<rect
   x="1038.3"
   y="240.10001"
   class="st2"
   width="77.699997"
   height="18.700001"
   id="rect1760" />
		</g><g
   id="Logo-branca-conjunta">
			<g
   id="g1841">
				<g
   id="g1769">
					<path
   class="st2"
   d="m 284,627.6 c 2.1,0.7 3.8,1.8 5.1,3.5 1.2,1.7 1.9,4.1 1.9,7.2 0,3.1 -0.7,5.6 -2.2,7.4 -1.5,1.8 -2.9,2.9 -4.1,3.2 -1.3,0.3 -2.3,0.5 -3,0.5 -0.7,0.1 -1.6,0.1 -2.5,0.1 H 273 V 627 h 5 c 1.4,0 2.6,0 3.5,0.1 0.8,0.1 1.6,0.3 2.5,0.5 z m 0.4,5.2 c -1,-1.5 -2.5,-2.2 -4.5,-2.2 h -2.4 v 15.3 h 3 c 0.3,0 0.6,0 0.9,0 0.4,0 0.9,-0.2 1.6,-0.6 0.7,-0.4 1.4,-1.1 1.9,-2.1 0.5,-1 0.8,-2.5 0.8,-4.4 0,-2.7 -0.4,-4.6 -1.3,-6 z"
   id="path1763" />
					<path
   class="st2"
   d="m 306.3,649.9 c -1.6,0 -3,-0.2 -4.3,-0.6 -1.3,-0.4 -2.7,-1.4 -4.3,-3 -1.6,-1.6 -2.4,-4.1 -2.4,-7.6 0,-2.8 0.6,-5.1 1.7,-6.8 1.1,-1.8 2.5,-3.1 4.1,-4 1.6,-0.9 3.4,-1.3 5.4,-1.3 1.2,0 2.4,0.2 3.5,0.5 1.1,0.3 2,0.7 2.8,1.3 l -2.2,3.1 c -1.3,-0.8 -2.6,-1.2 -4,-1.2 -1,0 -1.9,0.2 -2.7,0.6 -0.8,0.4 -1.6,1.1 -2.3,2.1 -0.7,1 -1,2.7 -1,5.1 0,1.6 0.1,2.9 0.3,3.8 0.2,0.9 0.7,1.9 1.6,2.9 0.9,1 2.3,1.5 4.3,1.5 1.5,0 3,-0.5 4.4,-1.4 l 2.2,2.8 c -2,1.5 -4.3,2.2 -7.1,2.2 z"
   id="path1765" />
					<path
   class="st2"
   d="m 326.9,649.9 c -1.6,0 -3,-0.2 -4.3,-0.6 -1.3,-0.4 -2.7,-1.4 -4.3,-3 -1.6,-1.6 -2.4,-4.1 -2.4,-7.6 0,-2.8 0.6,-5.1 1.7,-6.8 1.1,-1.8 2.5,-3.1 4.1,-4 1.6,-0.9 3.4,-1.3 5.4,-1.3 1.2,0 2.4,0.2 3.5,0.5 1.1,0.3 2,0.7 2.8,1.3 l -2.2,3.1 c -1.3,-0.8 -2.6,-1.2 -4,-1.2 -1,0 -1.9,0.2 -2.7,0.6 -0.8,0.4 -1.6,1.1 -2.3,2.1 -0.7,1 -1,2.7 -1,5.1 0,1.6 0.1,2.9 0.3,3.8 0.2,0.9 0.7,1.9 1.6,2.9 0.9,1 2.3,1.5 4.3,1.5 1.5,0 3,-0.5 4.4,-1.4 l 2.2,2.8 c -2,1.5 -4.3,2.2 -7.1,2.2 z"
   id="path1767" />
				</g>
				<g
   id="g1837">
					<path
   class="st2"
   d="m 137.8,700.1 c 1.3,0.4 2.3,1.1 3.1,2.1 0.7,1 1.1,2.4 1.1,4.3 0,1.9 -0.4,3.4 -1.3,4.5 -0.9,1.1 -1.7,1.7 -2.5,1.9 -0.8,0.2 -1.4,0.3 -1.8,0.3 -0.4,0 -0.9,0.1 -1.5,0.1 h -3.7 v -13.5 h 3 c 0.8,0 1.6,0 2.1,0.1 0.5,0 1,0.1 1.5,0.2 z m 0.2,3.1 c -0.6,-0.9 -1.5,-1.3 -2.7,-1.3 h -1.5 v 9.2 h 1.8 c 0.2,0 0.3,0 0.5,0 0.2,0 0.5,-0.1 1,-0.4 0.4,-0.2 0.8,-0.6 1.1,-1.3 0.3,-0.6 0.5,-1.5 0.5,-2.7 0.1,-1.4 -0.1,-2.6 -0.7,-3.5 z"
   id="path1771" />
					<path
   class="st2"
   d="m 145.7,713.3 v -13.5 h 8.5 l -0.4,2.2 h -5.3 v 3.2 h 4.4 v 2.2 h -4.4 v 3.6 h 5.9 v 2.3 z"
   id="path1773" />
					<path
   class="st2"
   d="m 166.4,707.5 c -0.5,0.3 -1.1,0.5 -1.6,0.6 -0.5,0.1 -1.1,0.2 -1.9,0.2 h -1.8 v 5 h -2.9 v -13.5 h 3.9 c 1.2,0 2.1,0 2.6,0.1 0.5,0.1 1.1,0.3 1.6,0.6 0.6,0.3 1.1,0.7 1.4,1.3 0.4,0.6 0.6,1.3 0.6,2.1 0,0.8 -0.2,1.6 -0.6,2.2 -0.2,0.6 -0.7,1.1 -1.3,1.4 z m -5.4,-5.6 v 4.2 h 1.9 c 0.9,0 1.6,-0.2 1.9,-0.6 0.3,-0.4 0.5,-0.9 0.5,-1.5 0,-0.6 -0.2,-1.1 -0.6,-1.5 -0.4,-0.4 -1.1,-0.6 -2,-0.6 z"
   id="path1775" />
					<path
   class="st2"
   d="m 179.6,713.3 -1.2,-3.2 h -4.6 l -1.1,3.2 h -2.9 l 5,-13.5 h 3.1 l 4.8,13.5 z m -3.4,-10.9 c -0.1,0.3 -0.3,1.1 -0.7,2.3 -0.4,1.2 -0.7,2.3 -1,3.2 h 3.3 c -0.5,-1.5 -0.8,-2.7 -1.1,-3.7 -0.3,-1 -0.4,-1.6 -0.5,-1.8 z"
   id="path1777" />
					<path
   class="st2"
   d="m 192.5,713.3 -1.3,-2.2 c -0.7,-1.1 -1.1,-1.8 -1.4,-2.2 -0.3,-0.4 -0.6,-0.7 -0.8,-0.9 -0.3,-0.2 -0.6,-0.4 -1,-0.4 v 5.6 h -2.8 v -13.5 h 4.6 c 0.9,0 1.7,0.1 2.3,0.2 0.6,0.1 1.3,0.5 1.9,1.1 0.7,0.6 1,1.5 1,2.7 0,1 -0.3,1.9 -0.9,2.6 -0.6,0.7 -1.4,1.1 -2.4,1.2 0.2,0.2 0.5,0.4 0.8,0.8 0.3,0.4 0.6,0.7 0.8,1 0.2,0.3 0.5,0.7 0.8,1.2 l 1.9,2.7 z M 188,701.9 v 3.7 h 1.2 c 1.1,0 1.9,-0.2 2.3,-0.5 0.4,-0.3 0.6,-0.8 0.6,-1.4 0,-0.9 -0.2,-1.4 -0.7,-1.5 -0.5,-0.2 -0.9,-0.2 -1.1,-0.3 -0.2,0 -0.6,-0.1 -0.9,-0.1 z"
   id="path1779" />
					<path
   class="st2"
   d="m 207.9,702.1 h -3.7 v 11.2 h -2.8 v -11.2 h -3.7 v -2.3 h 10.7 z"
   id="path1781" />
					<path
   class="st2"
   d="m 218.8,713.3 -1.2,-3.2 H 213 l -1.1,3.2 H 209 l 5,-13.5 h 3.1 l 4.8,13.5 z m -3.4,-10.9 c -0.1,0.3 -0.3,1.1 -0.7,2.3 -0.4,1.2 -0.7,2.3 -1,3.2 h 3.3 c -0.5,-1.5 -0.8,-2.7 -1.1,-3.7 -0.3,-1 -0.5,-1.6 -0.5,-1.8 z"
   id="path1783" />
					<path
   class="st2"
   d="m 236.4,713.3 -0.6,-7.6 -0.2,-2.6 -0.7,2.6 -2.4,7.6 h -2.3 l -2.3,-7.5 c 0,-0.1 -0.1,-0.5 -0.3,-1.3 -0.2,-0.8 -0.3,-1.3 -0.4,-1.6 l -0.1,2.8 -0.6,7.5 h -2.8 l 1.4,-13.5 h 3.6 l 2.1,6.9 c 0.1,0.4 0.2,0.8 0.3,1.1 0.1,0.3 0.2,0.8 0.3,1.5 0,-0.3 0.1,-0.7 0.2,-1.2 0.1,-0.5 0.3,-1 0.4,-1.5 l 2.1,-6.9 h 3.7 l 1.3,13.5 z"
   id="path1785" />
					<path
   class="st2"
   d="m 243.1,713.3 v -13.5 h 8.5 l -0.4,2.2 h -5.3 v 3.2 h 4.4 v 2.2 h -4.4 v 3.6 h 5.9 v 2.3 z"
   id="path1787" />
					<path
   class="st2"
   d="m 263.1,713.3 -3.3,-6.2 c -0.3,-0.6 -0.7,-1.3 -1,-2 -0.3,-0.7 -0.5,-1.2 -0.7,-1.5 l 0.1,3.8 0.1,5.9 h -2.7 v -13.5 h 3.1 l 3.4,6.1 c 0.3,0.5 0.6,1.1 0.8,1.7 0.3,0.6 0.5,1.1 0.6,1.5 0,-0.1 0,-0.7 -0.1,-1.6 -0.1,-1 -0.1,-1.6 -0.1,-1.9 v -5.7 h 2.6 v 13.5 z"
   id="path1789" />
					<path
   class="st2"
   d="m 279.4,702.1 h -3.7 v 11.2 h -2.8 v -11.2 h -3.7 v -2.3 h 10.7 z"
   id="path1791" />
					<path
   class="st2"
   d="m 283.4,711.8 c -1.3,-1.3 -1.9,-3 -1.9,-5.2 0,-2.2 0.6,-3.9 1.7,-5.1 1.1,-1.2 2.7,-1.9 4.7,-1.9 2.1,0 3.7,0.6 4.8,1.9 1.1,1.3 1.6,2.9 1.6,5 0,2.1 -0.4,3.6 -1.1,4.5 -0.8,0.9 -1.5,1.6 -2.3,1.9 -0.8,0.3 -1.7,0.5 -2.8,0.5 -2,0.1 -3.5,-0.5 -4.7,-1.6 z m 7.3,-2.3 c 0.2,-0.7 0.4,-1.7 0.4,-2.9 0,-0.8 0,-1.4 -0.1,-1.9 -0.1,-0.5 -0.3,-1.1 -0.6,-1.9 -0.3,-0.8 -1.2,-1.1 -2.6,-1.1 -1.2,0 -2.1,0.4 -2.5,1.3 -0.4,0.9 -0.7,2 -0.7,3.5 0,1.6 0.2,2.9 0.7,3.7 0.5,0.8 1.3,1.2 2.6,1.2 0.7,0 1.3,-0.1 1.8,-0.4 0.5,-0.3 0.8,-0.8 1,-1.5 z"
   id="path1793" />
					<path
   class="st2"
   d="m 310.5,700.1 c 1.3,0.4 2.3,1.1 3.1,2.1 0.7,1 1.1,2.4 1.1,4.3 0,1.9 -0.4,3.4 -1.3,4.5 -0.9,1.1 -1.7,1.7 -2.5,1.9 -0.8,0.2 -1.4,0.3 -1.8,0.3 -0.4,0 -0.9,0.1 -1.5,0.1 h -3.7 v -13.5 h 3 c 0.8,0 1.6,0 2.1,0.1 0.4,0 1,0.1 1.5,0.2 z m 0.2,3.1 c -0.6,-0.9 -1.5,-1.3 -2.7,-1.3 h -1.5 v 9.2 h 1.8 c 0.2,0 0.3,0 0.5,0 0.2,0 0.5,-0.1 1,-0.4 0.4,-0.2 0.8,-0.6 1.2,-1.3 0.3,-0.6 0.5,-1.5 0.5,-2.7 0,-1.4 -0.2,-2.6 -0.8,-3.5 z"
   id="path1795" />
					<path
   class="st2"
   d="m 318.4,713.3 v -13.5 h 8.5 l -0.4,2.2 h -5.3 v 3.2 h 4.4 v 2.2 h -4.4 v 3.6 h 5.9 v 2.3 z"
   id="path1797" />
					<path
   class="st2"
   d="m 80.2,744 c -0.9,0 -1.8,-0.1 -2.6,-0.4 -0.8,-0.3 -1.6,-0.8 -2.6,-1.8 -1,-0.9 -1.4,-2.4 -1.4,-4.6 0,-1.7 0.3,-3 1,-4.1 0.7,-1.1 1.5,-1.9 2.5,-2.4 1,-0.5 2.1,-0.8 3.2,-0.8 0.7,0 1.5,0.1 2.1,0.3 0.6,0.2 1.2,0.4 1.7,0.8 l -1.3,1.8 c -0.8,-0.5 -1.6,-0.7 -2.4,-0.7 -0.6,0 -1.1,0.1 -1.6,0.4 -0.5,0.3 -0.9,0.7 -1.4,1.2 -0.4,0.6 -0.6,1.6 -0.6,3.1 0,1 0.1,1.8 0.2,2.3 0.1,0.6 0.4,1.1 1,1.8 0.5,0.6 1.4,0.9 2.6,0.9 0.9,0 1.8,-0.3 2.6,-0.8 l 1.3,1.7 c -1.3,0.9 -2.7,1.3 -4.3,1.3 z"
   id="path1799" />
					<path
   class="st2"
   d="m 87,743.8 v -13.5 h 2.9 v 13.5 z"
   id="path1801" />
					<path
   class="st2"
   d="m 102.3,729.7 -3.5,-2.1 -3.4,2.1 -1,-1.6 4.4,-3.5 4.5,3.5 z m -7.8,14.1 v -13.5 h 8.5 l -0.4,2.2 h -5.4 v 3.2 h 4.4 v 2.2 h -4.4 v 3.6 h 5.9 v 2.3 z"
   id="path1803" />
					<path
   class="st2"
   d="m 114.5,743.8 -3.3,-6.2 c -0.3,-0.6 -0.7,-1.3 -1,-2 -0.3,-0.7 -0.5,-1.2 -0.7,-1.5 l 0.1,3.8 0.1,5.9 H 107 v -13.5 h 3.1 l 3.4,6.1 c 0.3,0.5 0.6,1.1 0.8,1.7 0.2,0.6 0.5,1.1 0.6,1.5 0,-0.1 0,-0.7 -0.1,-1.6 -0.1,-1 -0.1,-1.6 -0.1,-1.9 v -5.7 h 2.6 v 13.5 z"
   id="path1805" />
					<path
   class="st2"
   d="m 127.4,744 c -0.9,0 -1.8,-0.1 -2.6,-0.4 -0.8,-0.3 -1.6,-0.8 -2.6,-1.8 -1,-0.9 -1.4,-2.4 -1.4,-4.6 0,-1.7 0.3,-3 1,-4.1 0.7,-1.1 1.5,-1.9 2.5,-2.4 1,-0.5 2.1,-0.8 3.2,-0.8 0.7,0 1.5,0.1 2.1,0.3 0.6,0.2 1.2,0.4 1.7,0.8 l -1.3,1.8 c -0.8,-0.5 -1.6,-0.7 -2.4,-0.7 -0.6,0 -1.1,0.1 -1.6,0.4 -0.5,0.3 -0.9,0.7 -1.4,1.2 -0.4,0.6 -0.6,1.6 -0.6,3.1 0,1 0.1,1.8 0.2,2.3 0.1,0.6 0.4,1.1 1,1.8 0.5,0.6 1.4,0.9 2.6,0.9 0.9,0 1.8,-0.3 2.6,-0.8 l 1.3,1.7 c -1.2,0.9 -2.6,1.3 -4.3,1.3 z"
   id="path1807" />
					<path
   class="st2"
   d="m 134.3,743.8 v -13.5 h 2.9 v 13.5 z"
   id="path1809" />
					<path
   class="st2"
   d="m 149.5,743.8 -1.2,-3.2 h -4.6 l -1.1,3.2 h -2.9 l 5,-13.5 h 3.1 l 4.8,13.5 z m -3.4,-10.9 c -0.1,0.3 -0.3,1.1 -0.7,2.3 -0.4,1.2 -0.7,2.3 -1,3.2 h 3.3 c -0.5,-1.5 -0.8,-2.7 -1.1,-3.7 -0.3,-1 -0.4,-1.5 -0.5,-1.8 z"
   id="path1811" />
					<path
   class="st2"
   d="m 167.6,730.7 c 1.3,0.4 2.3,1.1 3.1,2.1 0.7,1 1.1,2.4 1.1,4.3 0,1.9 -0.4,3.4 -1.3,4.5 -0.9,1.1 -1.7,1.7 -2.5,1.9 -0.8,0.2 -1.4,0.3 -1.8,0.3 -0.4,0 -0.9,0.1 -1.5,0.1 H 161 v -13.5 h 3 c 0.8,0 1.6,0 2.1,0.1 0.5,-0.1 1,0 1.5,0.2 z m 0.3,3.1 c -0.6,-0.9 -1.5,-1.3 -2.7,-1.3 h -1.5 v 9.2 h 1.8 c 0.2,0 0.3,0 0.5,0 0.2,0 0.5,-0.1 1,-0.4 0.4,-0.2 0.8,-0.6 1.1,-1.3 0.3,-0.6 0.5,-1.5 0.5,-2.7 0.1,-1.5 -0.2,-2.7 -0.7,-3.5 z"
   id="path1813" />
					<path
   class="st2"
   d="m 183.4,743.8 -1.2,-3.2 h -4.6 l -1.1,3.2 h -2.9 l 5,-13.5 h 3.1 l 4.8,13.5 z M 180,732.9 c -0.1,0.3 -0.3,1.1 -0.7,2.3 -0.4,1.2 -0.7,2.3 -1,3.2 h 3.3 c -0.5,-1.5 -0.8,-2.7 -1.1,-3.7 -0.3,-1 -0.5,-1.5 -0.5,-1.8 z"
   id="path1815" />
					<path
   class="st2"
   d="m 200.3,744 c -0.9,0 -1.8,-0.1 -2.6,-0.4 -0.8,-0.3 -1.6,-0.8 -2.6,-1.8 -1,-0.9 -1.4,-2.4 -1.4,-4.6 0,-1.7 0.3,-3 1,-4.1 0.7,-1.1 1.5,-1.9 2.5,-2.4 1,-0.5 2.1,-0.8 3.2,-0.8 0.7,0 1.5,0.1 2.1,0.3 0.6,0.2 1.2,0.4 1.7,0.8 l -1.3,1.8 c -0.8,-0.5 -1.6,-0.7 -2.4,-0.7 -0.6,0 -1.1,0.1 -1.6,0.4 -0.5,0.3 -0.9,0.7 -1.4,1.2 -0.4,0.6 -0.6,1.6 -0.6,3.1 0,1 0.1,1.8 0.2,2.3 0.1,0.6 0.4,1.1 1,1.8 0.5,0.6 1.4,0.9 2.6,0.9 0.9,0 1.8,-0.3 2.6,-0.8 l 1.3,1.7 c -1.2,0.9 -2.6,1.3 -4.3,1.3 z"
   id="path1817" />
					<path
   class="st2"
   d="m 208.2,742.3 c -1.3,-1.3 -1.9,-3 -1.9,-5.2 0,-2.2 0.6,-3.9 1.7,-5.1 1.1,-1.2 2.7,-1.9 4.7,-1.9 2.1,0 3.7,0.6 4.8,1.9 1.1,1.3 1.6,2.9 1.6,5 0,2.1 -0.4,3.6 -1.1,4.5 -0.7,0.9 -1.5,1.6 -2.3,1.9 -0.8,0.3 -1.7,0.5 -2.8,0.5 -2.1,0.1 -3.6,-0.4 -4.7,-1.6 z m 7.3,-2.3 c 0.2,-0.7 0.4,-1.7 0.4,-2.9 0,-0.8 0,-1.4 -0.1,-1.9 -0.1,-0.5 -0.3,-1.1 -0.6,-1.9 -0.3,-0.8 -1.2,-1.1 -2.6,-1.1 -1.2,0 -2.1,0.4 -2.5,1.3 -0.4,0.9 -0.7,2 -0.7,3.5 0,1.6 0.2,2.9 0.7,3.7 0.5,0.8 1.3,1.2 2.6,1.2 0.7,0 1.3,-0.1 1.8,-0.4 0.4,-0.3 0.7,-0.8 1,-1.5 z"
   id="path1819" />
					<path
   class="st2"
   d="m 234.7,743.8 -0.6,-7.6 -0.2,-2.6 -0.7,2.6 -2.4,7.6 h -2.4 l -2.3,-7.5 c 0,-0.1 -0.1,-0.5 -0.3,-1.3 -0.2,-0.8 -0.3,-1.3 -0.4,-1.6 l -0.1,2.8 -0.6,7.5 h -2.8 l 1.4,-13.5 h 3.6 l 2.1,6.9 c 0.1,0.4 0.2,0.8 0.3,1.1 0.1,0.3 0.2,0.8 0.3,1.5 0,-0.3 0.1,-0.7 0.2,-1.2 0.1,-0.5 0.3,-1 0.4,-1.5 l 2.1,-6.9 h 3.7 l 1.3,13.5 z"
   id="path1821" />
					<path
   class="st2"
   d="m 249.5,738.1 c -0.5,0.3 -1.1,0.5 -1.6,0.6 -0.5,0.1 -1.1,0.2 -1.9,0.2 h -1.8 v 5 h -2.8 v -13.5 h 3.9 c 1.2,0 2.1,0 2.6,0.1 0.5,0.1 1.1,0.3 1.6,0.6 0.6,0.3 1.1,0.7 1.4,1.3 0.4,0.6 0.6,1.3 0.6,2.1 0,0.8 -0.2,1.6 -0.6,2.2 -0.3,0.6 -0.8,1 -1.4,1.4 z m -5.3,-5.6 v 4.2 h 1.9 c 0.9,0 1.6,-0.2 1.9,-0.6 0.3,-0.4 0.5,-0.9 0.5,-1.5 0,-0.6 -0.2,-1.1 -0.6,-1.5 -0.4,-0.4 -1.1,-0.6 -2,-0.6 z"
   id="path1823" />
					<path
   class="st2"
   d="m 264.3,742.7 c -0.4,0.4 -1,0.7 -1.7,1 -0.7,0.2 -1.5,0.4 -2.4,0.4 -1.2,0 -2.2,-0.2 -3,-0.5 -0.8,-0.3 -1.3,-0.8 -1.7,-1.3 -0.4,-0.5 -0.5,-0.9 -0.6,-1.4 -0.1,-0.4 -0.1,-1 -0.1,-1.7 v -8.9 h 2.8 v 8.5 c 0,0.9 0.1,1.7 0.4,2.2 0.3,0.5 1,0.8 2.1,0.8 0.9,0 1.5,-0.2 1.8,-0.5 0.3,-0.3 0.5,-0.7 0.5,-1 0.1,-0.3 0.1,-0.8 0.1,-1.4 v -8.6 h 2.9 v 8.8 c 0,1 -0.1,1.8 -0.2,2.2 -0.1,0.5 -0.4,1 -0.9,1.4 z"
   id="path1825" />
					<path
   class="st2"
   d="m 278.8,732.6 h -3.7 v 11.2 h -2.8 v -11.2 h -3.7 v -2.3 h 10.6 z"
   id="path1827" />
					<path
   class="st2"
   d="m 289.6,743.8 -1.2,-3.2 h -4.6 l -1.1,3.2 h -2.9 l 5,-13.5 h 3.1 l 4.8,13.5 z m -3.4,-10.9 c -0.1,0.3 -0.3,1.1 -0.7,2.3 -0.4,1.2 -0.7,2.3 -1,3.2 h 3.3 c -0.5,-1.5 -0.8,-2.7 -1.1,-3.7 -0.3,-1 -0.4,-1.5 -0.5,-1.8 z"
   id="path1829" />
					<path
   class="st2"
   d="m 301.1,744 -0.2,0.6 c 0.6,0.1 1,0.3 1.3,0.6 0.3,0.4 0.4,0.8 0.4,1.3 0,0.6 -0.2,1.1 -0.7,1.5 -0.5,0.4 -1.1,0.6 -1.9,0.6 -0.3,0 -0.7,-0.1 -1.1,-0.2 -0.4,-0.1 -0.8,-0.3 -1,-0.4 l 0.7,-1.4 c 0.2,0.1 0.4,0.1 0.6,0.2 0.2,0.1 0.5,0.1 0.8,0.1 0.2,0 0.4,-0.1 0.5,-0.2 0.1,-0.1 0.2,-0.3 0.2,-0.4 0,-0.2 -0.1,-0.4 -0.2,-0.5 -0.1,-0.1 -0.3,-0.2 -0.6,-0.2 -0.3,0.1 -0.5,0.1 -0.7,0.1 l -0.3,-0.4 0.5,-1.7 c -1.2,-0.2 -2.3,-0.7 -3.2,-1.4 -1.4,-1.3 -2.1,-3 -2.1,-5.2 0,-1.7 0.3,-3 1,-4.1 0.7,-1.1 1.5,-1.9 2.5,-2.4 1,-0.5 2,-0.8 3.2,-0.8 0.7,0 1.5,0.1 2.1,0.3 0.7,0.2 1.2,0.4 1.7,0.8 l -1.3,1.8 c -0.8,-0.5 -1.6,-0.7 -2.4,-0.7 -0.6,0 -1.1,0.1 -1.6,0.4 -0.5,0.3 -1,0.7 -1.4,1.2 -0.4,0.5 -0.6,1.6 -0.6,3.1 0,1.8 0.3,3.1 1,3.8 0.6,0.8 1.6,1.2 2.8,1.2 0.5,0 0.9,-0.1 1.3,-0.2 0.4,-0.1 0.8,-0.3 1.3,-0.7 l 1.3,1.7 c -0.5,0.4 -1.1,0.7 -1.8,1 -0.7,0.3 -1.3,0.6 -2.1,0.6 z"
   id="path1831" />
					<path
   class="st2"
   d="m 315.7,743.8 -1.2,-3.2 h -4.6 l -1.1,3.2 h -2.9 l 5,-13.5 h 3.1 l 4.8,13.5 z m -1.5,-17.1 c 0.4,0 0.6,-0.1 0.9,-0.2 0.2,-0.1 0.5,-0.4 0.8,-0.7 l 0.9,1.6 c -0.5,0.6 -0.9,1 -1.4,1.3 -0.4,0.3 -1,0.4 -1.7,0.4 -0.5,0 -1.1,-0.2 -1.7,-0.5 -0.6,-0.3 -1.1,-0.5 -1.6,-0.5 -0.4,0 -0.6,0.1 -0.9,0.2 -0.2,0.1 -0.5,0.4 -0.8,0.7 l -0.9,-1.6 c 0.5,-0.6 0.9,-1 1.3,-1.3 0.4,-0.3 1,-0.4 1.7,-0.4 0.5,0 1.1,0.2 1.7,0.5 0.7,0.3 1.2,0.5 1.7,0.5 z m -1.9,6.2 c -0.1,0.3 -0.3,1.1 -0.7,2.3 -0.4,1.2 -0.7,2.3 -1,3.2 h 3.3 c -0.5,-1.5 -0.8,-2.7 -1.1,-3.7 -0.3,-1 -0.5,-1.5 -0.5,-1.8 z"
   id="path1833" />
					<path
   class="st2"
   d="m 322.3,742.3 c -1.3,-1.3 -1.9,-3 -1.9,-5.2 0,-2.2 0.6,-3.9 1.7,-5.1 1.1,-1.2 2.7,-1.9 4.7,-1.9 2.1,0 3.7,0.6 4.8,1.9 1.1,1.3 1.6,2.9 1.6,5 0,2.1 -0.4,3.6 -1.1,4.5 -0.8,0.9 -1.5,1.6 -2.3,1.9 -0.8,0.3 -1.7,0.5 -2.8,0.5 -2.1,0.1 -3.6,-0.4 -4.7,-1.6 z m 7.3,-2.3 c 0.2,-0.7 0.4,-1.7 0.4,-2.9 0,-0.8 0,-1.4 -0.1,-1.9 -0.1,-0.5 -0.3,-1.1 -0.6,-1.9 -0.3,-0.8 -1.2,-1.1 -2.6,-1.1 -1.2,0 -2.1,0.4 -2.5,1.3 -0.4,0.9 -0.7,2 -0.7,3.5 0,1.6 0.2,2.9 0.7,3.7 0.5,0.8 1.3,1.2 2.6,1.2 0.7,0 1.3,-0.1 1.8,-0.4 0.5,-0.3 0.7,-0.8 1,-1.5 z"
   id="path1835" />
				</g>
				<rect
   x="256.89999"
   y="664.09998"
   class="st2"
   width="77.699997"
   height="18.700001"
   id="rect1839" />
			</g>
			<g
   id="g1853">
				<path
   class="st1"
   d="m 423.1,662.3 v -28.8 c 0,-2.7 -2.2,-3.5 -4.5,-3.7 v -2.5 h 17.5 v 2.5 c -2.2,0.2 -4.1,0.9 -4.1,3.5 v 28.5 c 0,9.6 6,13.5 14,13.5 14.7,0 14.7,-11.4 14.7,-21.9 V 641 c 0,-8.9 -0.8,-10.9 -5.3,-11.2 v -2.5 h 14.8 v 2.5 c -2.7,0.3 -4.6,1.6 -4.6,7.3 v 21.3 c 0,12 -5.8,21.3 -21.1,21.3 -13.3,-0.1 -21.4,-5.2 -21.4,-17.4"
   id="path1843" />
				<path
   class="st2"
   d="m 499.5,672.3 v -38 c 0,-3.2 -1.8,-4.2 -5,-4.5 V 627 c 5.9,0.1 11.7,0.2 17.6,0.2 9.9,0 16,-0.1 22.1,-0.2 l 0.3,8.3 h -2.8 c -1.5,-4.3 -4.3,-4.9 -12,-4.9 h -11.2 v 19.8 h 9.8 c 4.3,0 6.6,-0.1 7.3,-3.5 h 2.1 v 10.1 h -2.2 c -0.7,-2.9 -2.6,-3.2 -7.2,-3.2 h -9.8 v 16.7 c 0,5.2 2,6.6 6.4,6.7 v 2.5 h -20.5 v -2.6 c 3.3,-0.3 5.1,-1.4 5.1,-4.6"
   id="path1845" />
				<path
   class="st2"
   d="m 713.9,664 v 3.4 9.9 c -5.2,1.4 -12.1,3 -19.7,3 -16.9,0 -28.7,-11.8 -28.7,-26.5 0,-16.8 13,-27.4 29.4,-27.4 2.7,0 4.9,0.3 9.9,0.9 1.4,0.2 8.2,1.5 9.6,1.8 l 0.7,9.7 h -3.4 c -2.4,-4.8 -5.7,-9 -14.8,-9 -11.4,0 -21.1,6.9 -21.1,23.7 0,9.8 5.5,23.5 22.1,23.5 2.6,0 5,-0.6 7.4,-1.7 0,-0.9 0.2,-6.7 0.2,-8.1 0,-4.6 -0.5,-6.6 -4.3,-7.2 v -2.6 h 16.4 v 2.4 c -2.9,0.4 -3.7,1.3 -3.7,4.2"
   id="path1847" />
				<path
   class="st2"
   d="m 642.9,664 c -1.7,1.8 -7.8,7.1 -9.9,7.1 -0.8,0 -1.8,-0.4 -1.8,-1.4 0,-1.3 1,-3.5 1.6,-5.3 l 9.1,-26.6 c 0.6,-1.6 1.1,-3.8 1.1,-5.6 0,-2.5 -1,-4.7 -4.5,-4.7 -10.8,0 -27.8,19.1 -33.9,26.8 h -0.2 l 5.4,-16.9 c 0.7,-2 1.2,-4.3 1.2,-6.1 0,-2.2 -1.6,-3.7 -5.1,-3.7 -10.1,0 -26.9,18.7 -32.3,26.6 h -0.2 l 5.9,-17.1 c 0.5,-1.4 1.3,-3.5 1.3,-5.5 0,-2.1 -1.1,-4 -3.9,-4 -7.5,0 -15.4,9.1 -19.7,14.4 0,0 -1.1,1.3 -0.2,2.1 1,0.9 1.9,0 1.9,0 l 3.1,-3.4 c 2,-2 4.2,-4 6.6,-4 1.4,0 1.8,1 1.8,2.3 0,1 -0.3,2.1 -0.5,2.8 l -11.8,35.7 c -0.3,1.3 2.2,2 3.3,2 2.9,0 4.2,-0.9 4.5,-1.8 l 2,-6 c 3.1,-8.6 7.9,-16.5 14.2,-23.2 3.6,-4 10.4,-11.9 16.6,-11.9 1.6,0 2.2,1.3 2.2,2.8 0,2.9 -1.6,7.3 -1.9,8.4 l -9.9,29.6 c -0.2,0.9 0.8,2.2 3.9,2.2 2.8,0 3.6,-1 4,-2 l 1.9,-4.6 c 3.2,-8.2 6.4,-14.1 11.7,-20.6 3.6,-4.4 14,-15.9 19.9,-15.9 1.2,0 2.6,0.9 2.6,2.7 0,1.1 -0.7,3.1 -1.2,4.7 l -9.2,26.3 c -0.8,2.3 -1.4,4.1 -1.4,5.3 0,2.9 2.1,3.8 4.2,3.8 6.2,0 11.6,-5.1 16,-10 l 3.5,-3.9 c 0,0 1,-1 0,-1.8 -1.2,-0.4 -1.9,0.4 -1.9,0.4"
   id="path1849" />
				<rect
   x="558.40002"
   y="694.40002"
   class="st2"
   width="78.5"
   height="18.9"
   id="rect1851" />
			</g>
		</g>
	<g
   id="DCC-Ingles">
		<g
   id="g1863">
			<path
   d="M1069.4,351.8c2.1,0.7,3.8,1.8,5.1,3.5c1.2,1.7,1.9,4.1,1.9,7.2s-0.7,5.6-2.2,7.4s-2.9,2.9-4.1,3.2     c-1.3,0.3-2.3,0.5-3,0.5c-0.7,0.1-1.6,0.1-2.5,0.1h-6.2v-22.5h5c1.4,0,2.6,0,3.5,0.1C1067.7,351.4,1068.5,351.6,1069.4,351.8z      M1069.8,357c-1-1.5-2.5-2.2-4.5-2.2h-2.4v15.3h3c0.3,0,0.6,0,0.9,0c0.4,0,0.9-0.2,1.6-0.6s1.4-1.1,1.9-2.1s0.8-2.5,0.8-4.4     C1071.1,360.4,1070.7,358.4,1069.8,357z"
   id="path1857" />
			<path
   d="M1091.7,374.1c-1.6,0-3-0.2-4.3-0.6s-2.7-1.4-4.3-3c-1.6-1.6-2.4-4.1-2.4-7.6c0-2.8,0.6-5.1,1.7-6.8     c1.1-1.8,2.5-3.1,4.1-4s3.4-1.3,5.4-1.3c1.2,0,2.4,0.2,3.5,0.5s2,0.7,2.8,1.3l-2.2,3.1c-1.3-0.8-2.6-1.2-4-1.2     c-1,0-1.9,0.2-2.7,0.6c-0.8,0.4-1.6,1.1-2.3,2.1c-0.7,1-1,2.7-1,5.1c0,1.6,0.1,2.9,0.3,3.8s0.7,1.9,1.6,2.9s2.3,1.5,4.3,1.5     c1.5,0,3-0.5,4.4-1.4l2.2,2.8C1096.8,373.4,1094.5,374.1,1091.7,374.1z"
   id="path1859" />
			<path
   d="M1112.3,374.1c-1.6,0-3-0.2-4.3-0.6s-2.7-1.4-4.3-3s-2.4-4.1-2.4-7.6c0-2.8,0.6-5.1,1.7-6.8c1.1-1.8,2.5-3.1,4.1-4     s3.4-1.3,5.4-1.3c1.2,0,2.4,0.2,3.5,0.5s2,0.7,2.8,1.3l-2.2,3.1c-1.3-0.8-2.6-1.2-4-1.2c-1,0-1.9,0.2-2.7,0.6     c-0.8,0.4-1.6,1.1-2.3,2.1c-0.7,1-1,2.7-1,5.1c0,1.6,0.1,2.9,0.3,3.8c0.2,0.9,0.7,1.9,1.6,2.9s2.3,1.5,4.3,1.5     c1.5,0,3-0.5,4.4-1.4l2.2,2.8C1117.4,373.4,1115.1,374.1,1112.3,374.1z"
   id="path1861" />
		</g>
		<rect
   x="1058.2"
   y="388.3"
   class="st0"
   width="61.8"
   height="18.7"
   id="rect1865" />
		
			<text
   transform="matrix(0.9034 0 0 1 937.6816 436.4828)"
   style="display:none;enable-background:new    ; font-family:'Corbel-Bold'; font-size:22px;"
   id="text1867">COMPUTER SCIENCE</text>
		
			<text
   transform="matrix(0.9034 0 0 1 996.3545 461.8832)"
   style="display:none;enable-background:new    ; font-family:'Corbel-Bold'; font-size:22px;"
   id="text1869">DEPARTMENT</text>
	</g>
	<g
   id="DCC-Ingles-Nova">
		<path
   d="M1007,421.5h-3.7v11.2h-2.8v-11.2h-3.7v-2.3h10.6L1007,421.5z"
   id="path1872" />
		<path
   d="M993.1,431.6c-0.4,0.4-1,0.7-1.7,1c-0.7,0.2-1.5,0.4-2.4,0.4c-1.2,0-2.2-0.2-3-0.5s-1.3-0.8-1.7-1.3s-0.5-0.9-0.6-1.4    c-0.1-0.4-0.1-1-0.1-1.7v-8.9h2.8v8.5c0,0.9,0.1,1.7,0.4,2.2s1,0.8,2.1,0.8c0.9,0,1.5-0.2,1.8-0.5s0.5-0.7,0.5-1    c0.1-0.3,0.1-0.8,0.1-1.4v-8.6h2.9v8.8c0,1-0.1,1.8-0.2,2.2C993.9,430.7,993.6,431.2,993.1,431.6z"
   id="path1874" />
		<path
   d="M1047.2,456.1l-1.3-2.2c-0.7-1.1-1.1-1.8-1.4-2.2c-0.3-0.4-0.6-0.7-0.8-0.9c-0.3-0.2-0.6-0.4-1-0.4v5.6h-2.8v-13.5h4.6    c0.9,0,1.7,0.1,2.3,0.2c0.6,0.1,1.3,0.5,1.9,1.1c0.7,0.6,1,1.5,1,2.7c0,1-0.3,1.9-0.9,2.6s-1.4,1.1-2.4,1.2    c0.2,0.2,0.5,0.4,0.8,0.8s0.6,0.7,0.8,1s0.5,0.7,0.8,1.2l1.9,2.7L1047.2,456.1L1047.2,456.1z M1042.7,444.7v3.7h1.2    c1.1,0,1.9-0.2,2.3-0.5s0.6-0.8,0.6-1.4c0-0.9-0.2-1.4-0.7-1.5c-0.5-0.2-0.9-0.2-1.1-0.3c-0.2,0-0.6-0.1-0.9-0.1L1042.7,444.7    L1042.7,444.7z"
   id="path1876" />
		<path
   d="M939.3,431.4c-1.3-1.3-1.9-3-1.9-5.2s0.6-3.9,1.7-5.1c1.1-1.2,2.7-1.9,4.7-1.9c2.1,0,3.7,0.6,4.8,1.9s1.6,2.9,1.6,5    s-0.4,3.6-1.1,4.5c-0.8,0.9-1.5,1.6-2.3,1.9s-1.7,0.5-2.8,0.5C942,433.1,940.5,432.5,939.3,431.4z M946.6,429.1    c0.2-0.7,0.4-1.7,0.4-2.9c0-0.8,0-1.4-0.1-1.9s-0.3-1.1-0.6-1.9s-1.2-1.1-2.6-1.1c-1.2,0-2.1,0.4-2.5,1.3s-0.7,2-0.7,3.5    c0,1.6,0.2,2.9,0.7,3.7c0.5,0.8,1.3,1.2,2.6,1.2c0.7,0,1.3-0.1,1.8-0.4S946.4,429.8,946.6,429.1z"
   id="path1878" />
		<path
   d="M1034.4,456l-1.2-3.2h-4.6l-1.1,3.2h-2.9l5-13.5h3.1l4.8,13.5H1034.4z M1031,445.1c-0.1,0.3-0.3,1.1-0.7,2.3    c-0.4,1.2-0.7,2.3-1,3.2h3.3c-0.5-1.5-0.8-2.7-1.1-3.7C1031.2,445.9,1031,445.3,1031,445.1z"
   id="path1880" />
		<path
   d="M1078.3,456.2l-0.6-7.6l-0.2-2.6l-0.7,2.6l-2.4,7.6h-2.3l-2.3-7.5c0-0.1-0.1-0.5-0.3-1.3c-0.2-0.8-0.3-1.3-0.4-1.6    l-0.1,2.8l-0.6,7.5h-2.8l1.4-13.5h3.6l2.1,6.9c0.1,0.4,0.2,0.8,0.3,1.1c0.1,0.3,0.2,0.8,0.3,1.5c0-0.3,0.1-0.7,0.2-1.2    s0.3-1,0.4-1.5l2.1-6.9h3.7l1.3,13.5L1078.3,456.2z"
   id="path1882" />
		<path
   d="M978.9,426.9c-0.5,0.3-1.1,0.5-1.6,0.6s-1.1,0.2-1.9,0.2h-1.8v5h-2.8v-13.5h3.9c1.2,0,2.1,0,2.6,0.1s1.1,0.3,1.6,0.6    c0.6,0.3,1.1,0.7,1.4,1.3c0.4,0.6,0.6,1.3,0.6,2.1c0,0.8-0.2,1.6-0.6,2.2C980,426.1,979.5,426.5,978.9,426.9z M973.6,421.3v4.2    h1.9c0.9,0,1.6-0.2,1.9-0.6s0.5-0.9,0.5-1.5s-0.2-1.1-0.6-1.5c-0.4-0.4-1.1-0.6-2-0.6H973.6L973.6,421.3z"
   id="path1884" />
		<path
   d="M930.5,433.3c-0.9,0-1.8-0.1-2.6-0.4s-1.6-0.8-2.6-1.8c-1-0.9-1.4-2.4-1.4-4.6c0-1.7,0.3-3,1-4.1s1.5-1.9,2.5-2.4    s2.1-0.8,3.2-0.8c0.7,0,1.5,0.1,2.1,0.3c0.6,0.2,1.2,0.4,1.7,0.8l-1.3,1.8c-0.8-0.5-1.6-0.7-2.4-0.7c-0.6,0-1.1,0.1-1.6,0.4    s-0.9,0.7-1.4,1.2c-0.4,0.6-0.6,1.6-0.6,3.1c0,1,0.1,1.8,0.2,2.3c0.1,0.6,0.4,1.1,1,1.8c0.5,0.6,1.4,0.9,2.6,0.9    c0.9,0,1.8-0.3,2.6-0.8l1.3,1.7C933.6,432.9,932.2,433.3,930.5,433.3z"
   id="path1886" />
		<path
   d="M965.5,432.9l-0.6-7.6l-0.2-2.6l-0.7,2.6l-2.4,7.6h-2.3l-2.3-7.5c0-0.1-0.1-0.5-0.3-1.3s-0.3-1.3-0.4-1.6l-0.1,2.8    l-0.6,7.5h-2.8l1.4-13.5h3.6l2.1,6.9c0.1,0.4,0.2,0.8,0.3,1.1c0.1,0.3,0.2,0.8,0.3,1.5c0-0.3,0.1-0.7,0.2-1.2    c0.1-0.5,0.3-1,0.4-1.5l2.1-6.9h3.7l1.3,13.5L965.5,432.9z"
   id="path1888" />
		<path
   d="M1028.6,432.8l-1.3-2.2c-0.7-1.1-1.1-1.8-1.4-2.2c-0.3-0.4-0.6-0.7-0.8-0.9c-0.3-0.2-0.6-0.4-1-0.4v5.6h-2.8v-13.5h4.6    c0.9,0,1.7,0.1,2.3,0.2s1.3,0.5,1.9,1.1c0.7,0.6,1,1.5,1,2.7c0,1-0.3,1.9-0.9,2.6s-1.4,1.1-2.4,1.2c0.2,0.2,0.5,0.4,0.8,0.8    s0.6,0.7,0.8,1c0.2,0.3,0.5,0.7,0.8,1.2l1.9,2.7L1028.6,432.8L1028.6,432.8z M1024.1,421.4v3.7h1.2c1.1,0,1.9-0.2,2.3-0.5    s0.6-0.8,0.6-1.4c0-0.9-0.2-1.4-0.7-1.5c-0.5-0.2-0.9-0.2-1.1-0.3c-0.2,0-0.6-0.1-0.9-0.1L1024.1,421.4L1024.1,421.4z"
   id="path1890" />
		<path
   d="M1010,432.7v-13.5h8.5l-0.4,2.2h-5.3v3.2h4.4v2.2h-4.4v3.6h5.9v2.3L1010,432.7L1010,432.7z"
   id="path1892" />
		<path
   d="M1060.8,433.3c-0.9,0-1.8-0.1-2.6-0.4c-0.8-0.3-1.6-0.8-2.6-1.8c-1-0.9-1.4-2.4-1.4-4.6c0-1.7,0.3-3,1-4.1    s1.5-1.9,2.5-2.4s2.1-0.8,3.2-0.8c0.7,0,1.5,0.1,2.1,0.3s1.2,0.4,1.7,0.8l-1.3,1.8c-0.8-0.5-1.6-0.7-2.4-0.7    c-0.6,0-1.1,0.1-1.6,0.4s-0.9,0.7-1.4,1.2c-0.4,0.6-0.6,1.6-0.6,3.1c0,1,0.1,1.8,0.2,2.3c0.1,0.6,0.4,1.1,1,1.8    c0.5,0.6,1.4,0.9,2.6,0.9c0.9,0,1.8-0.3,2.6-0.8l1.3,1.7C1063.9,432.9,1062.5,433.3,1060.8,433.3z"
   id="path1894" />
		<path
   d="M1067.7,432.7v-13.5h2.9v13.5H1067.7z"
   id="path1896" />
		<path
   d="M1073.2,432.7v-13.5h8.5l-0.4,2.2h-5.3v3.2h4.4v2.2h-4.4v3.6h5.9v2.3L1073.2,432.7L1073.2,432.7z"
   id="path1898" />
		<path
   d="M1092,432.7l-3.3-6.2c-0.3-0.6-0.7-1.3-1-2s-0.5-1.2-0.7-1.5l0.1,3.8l0.1,5.9h-2.7v-13.5h3.1l3.4,6.1    c0.3,0.5,0.6,1.1,0.8,1.7c0.2,0.6,0.5,1.1,0.6,1.5c0-0.1,0-0.7-0.1-1.6c-0.1-1-0.1-1.6-0.1-1.9v-5.7h2.6v13.5L1092,432.7    L1092,432.7z"
   id="path1900" />
		<path
   d="M1104,433.3c-0.9,0-1.8-0.1-2.6-0.4c-0.8-0.3-1.6-0.8-2.6-1.8c-1-0.9-1.4-2.4-1.4-4.6c0-1.7,0.3-3,1-4.1s1.5-1.9,2.5-2.4    s2.1-0.8,3.2-0.8c0.7,0,1.5,0.1,2.1,0.3s1.2,0.4,1.7,0.8l-1.3,1.8c-0.8-0.5-1.6-0.7-2.4-0.7c-0.6,0-1.1,0.1-1.6,0.4    s-0.9,0.7-1.4,1.2c-0.4,0.6-0.6,1.6-0.6,3.1c0,1,0.1,1.8,0.2,2.3c0.1,0.6,0.4,1.1,1,1.8c0.5,0.6,1.4,0.9,2.6,0.9    c0.9,0,1.8-0.3,2.6-0.8l1.3,1.7C1107.1,432.9,1105.7,433.3,1104,433.3z"
   id="path1902" />
		<path
   d="M1111,432.7v-13.5h8.5l-0.4,2.2h-5.3v3.2h4.4v2.2h-4.4v3.6h5.9v2.3L1111,432.7L1111,432.7z"
   id="path1904" />
		<path
   d="M994.5,442.8c1.3,0.4,2.3,1.1,3.1,2.1c0.7,1,1.1,2.4,1.1,4.3s-0.4,3.4-1.3,4.5c-0.9,1.1-1.7,1.7-2.5,1.9s-1.4,0.3-1.8,0.3    s-0.9,0.1-1.5,0.1h-3.7v-13.5h3c0.8,0,1.6,0,2.1,0.1C993.5,442.5,994,442.6,994.5,442.8z M994.8,445.9c-0.6-0.9-1.5-1.3-2.7-1.3    h-1.5v9.2h1.8c0.2,0,0.3,0,0.5,0s0.5-0.1,1-0.4c0.4-0.2,0.8-0.6,1.1-1.3c0.3-0.6,0.5-1.5,0.5-2.7    C995.6,447.9,995.3,446.7,994.8,445.9z"
   id="path1906" />
		<path
   d="M1119,444.8h-3.7V456h-2.8v-11.2h-3.7v-2.3h10.6L1119,444.8z"
   id="path1908" />
		<path
   d="M1103.5,456l-3.3-6.2c-0.3-0.6-0.7-1.3-1-2s-0.5-1.2-0.7-1.5l0.1,3.8l0.1,5.9h-2.7v-13.5h3.1l3.4,6.1    c0.3,0.5,0.6,1.1,0.8,1.7s0.5,1.1,0.6,1.5c0-0.1,0-0.7-0.1-1.6c-0.1-1-0.1-1.6-0.1-1.9v-5.7h2.6v13.5L1103.5,456L1103.5,456z"
   id="path1910" />
		<path
   d="M1083.7,456v-13.5h8.5l-0.4,2.2h-5.3v3.2h4.4v2.2h-4.4v3.6h5.9v2.3L1083.7,456L1083.7,456z"
   id="path1912" />
		<path
   d="M1001.4,456v-13.5h8.5l-0.4,2.2h-5.3v3.2h4.4v2.2h-4.4v3.6h5.9v2.3L1001.4,456L1001.4,456z"
   id="path1914" />
		<path
   d="M1021.7,450.2c-0.5,0.3-1.1,0.5-1.6,0.6s-1.1,0.2-1.9,0.2h-1.8v5h-2.9v-13.5h3.9c1.2,0,2.1,0,2.6,0.1s1.1,0.3,1.6,0.6    c0.6,0.3,1.1,0.7,1.4,1.3c0.4,0.6,0.6,1.3,0.6,2.1c0,0.8-0.2,1.6-0.6,2.2C1022.8,449.4,1022.3,449.9,1021.7,450.2z M1016.3,444.6    v4.2h1.9c0.9,0,1.6-0.2,1.9-0.6s0.5-0.9,0.5-1.5s-0.2-1.1-0.6-1.5c-0.4-0.4-1.1-0.6-2-0.6H1016.3L1016.3,444.6z"
   id="path1916" />
		<path
   d="M1062.6,444.8h-3.7V456h-2.8v-11.2h-3.7v-2.3h10.6L1062.6,444.8z"
   id="path1918" />
		<path
   id="S_00000169544652499087728370000012376156333498528946_"
   d="M1049.2,432.3c-1,0.5-2.2,0.8-3.6,0.8    c-1.7,0-3.3-0.4-4.9-1.2l1-2.1c1.4,0.7,2.6,1,4,1c0.8,0,1.3-0.1,1.8-0.3c0.6-0.3,0.9-0.7,0.9-1.3c0-0.8-0.6-1.4-2.1-1.8l-1.8-0.4    c-1.3-0.3-2.2-0.9-2.8-1.8c-0.4-0.6-0.5-1.2-0.5-1.9c0-2.4,2.1-4.1,5.2-4.1c1.7,0,3.7,0.5,4.9,1.3l-1.3,1.9c-1.2-0.7-2.4-1-3.5-1    c-1.3,0-2.2,0.6-2.2,1.5c0,0.7,0.4,1.2,1.8,1.5l1.8,0.4c1.1,0.3,2.1,0.7,2.7,1.4c0.6,0.6,1,1.5,1,2.4    C1051.5,430.2,1050.7,431.5,1049.2,432.3z" />
	</g>
</g>
<g
   id="DCC-Color-Left">
	<g
   id="g1929">
		<path
   d="M916.3,493.7c2.1,0.7,3.8,1.8,5.1,3.5c1.2,1.7,1.9,4.1,1.9,7.2c0,3.1-0.7,5.6-2.2,7.4c-1.5,1.8-2.9,2.9-4.1,3.2    c-1.3,0.3-2.3,0.5-3,0.5c-0.7,0.1-1.6,0.1-2.5,0.1h-6.2v-22.5h5c1.4,0,2.6,0,3.5,0.1C914.6,493.3,915.4,493.5,916.3,493.7z     M916.7,498.9c-1-1.5-2.5-2.2-4.5-2.2h-2.4V512h3c0.3,0,0.6,0,0.9,0c0.4,0,0.9-0.2,1.6-0.6c0.7-0.4,1.4-1.1,1.9-2.1    s0.8-2.5,0.8-4.4C918,502.2,917.6,500.3,916.7,498.9z"
   id="path1923" />
		<path
   d="M938.6,516c-1.6,0-3-0.2-4.3-0.6c-1.3-0.4-2.7-1.4-4.3-3c-1.6-1.6-2.4-4.1-2.4-7.6c0-2.8,0.6-5.1,1.7-6.8    c1.1-1.8,2.5-3.1,4.1-4c1.6-0.9,3.4-1.3,5.4-1.3c1.2,0,2.4,0.2,3.5,0.5c1.1,0.3,2,0.7,2.8,1.3l-2.2,3.1c-1.3-0.8-2.6-1.2-4-1.2    c-1,0-1.9,0.2-2.7,0.6c-0.8,0.4-1.6,1.1-2.3,2.1s-1,2.7-1,5.1c0,1.6,0.1,2.9,0.3,3.8s0.7,1.9,1.6,2.9c0.9,1,2.3,1.5,4.3,1.5    c1.5,0,3-0.5,4.4-1.4l2.2,2.8C943.7,515.3,941.4,516,938.6,516z"
   id="path1925" />
		<path
   d="M959.2,516c-1.6,0-3-0.2-4.3-0.6c-1.3-0.4-2.7-1.4-4.3-3c-1.6-1.6-2.4-4.1-2.4-7.6c0-2.8,0.6-5.1,1.7-6.8    c1.1-1.8,2.5-3.1,4.1-4s3.4-1.3,5.4-1.3c1.2,0,2.4,0.2,3.5,0.5c1.1,0.3,2,0.7,2.8,1.3l-2.2,3.1c-1.3-0.8-2.6-1.2-4-1.2    c-1,0-1.9,0.2-2.7,0.6c-0.8,0.4-1.6,1.1-2.3,2.1c-0.7,1-1,2.7-1,5.1c0,1.6,0.1,2.9,0.3,3.8c0.2,0.9,0.7,1.9,1.6,2.9    s2.3,1.5,4.3,1.5c1.5,0,3-0.5,4.4-1.4l2.2,2.8C964.3,515.3,962,516,959.2,516z"
   id="path1927" />
	</g>
	<rect
   x="904.9"
   y="531.4"
   class="st0"
   width="77.7"
   height="18.7"
   id="rect1931" />
	<g
   id="texto1">
		<g
   id="g1961">
			<path
   d="M911.7,566c1.3,0.4,2.3,1.1,3.1,2.1c0.7,1,1.1,2.4,1.1,4.3c0,1.9-0.4,3.4-1.3,4.5c-0.9,1.1-1.7,1.7-2.5,1.9     c-0.8,0.2-1.4,0.3-1.8,0.3c-0.4,0-0.9,0.1-1.5,0.1h-3.7v-13.5h3c0.8,0,1.6,0,2.1,0.1C910.7,565.8,911.2,565.9,911.7,566z      M911.9,569.1c-0.6-0.9-1.5-1.3-2.7-1.3h-1.5v9.2h1.8c0.2,0,0.3,0,0.5,0s0.5-0.1,1-0.4c0.4-0.2,0.8-0.6,1.1-1.3     c0.3-0.6,0.5-1.5,0.5-2.7C912.7,571.2,912.5,570,911.9,569.1z"
   id="path1933" />
			<path
   d="M919.6,579.2v-13.5h8.5l-0.4,2.2h-5.3v3.2h4.4v2.2h-4.4v3.6h5.9v2.3H919.6L919.6,579.2z"
   id="path1935" />
			<path
   d="M940.3,573.4c-0.5,0.3-1.1,0.5-1.6,0.6c-0.5,0.1-1.1,0.2-1.9,0.2H935v5h-2.9v-13.5h3.9c1.2,0,2.1,0,2.6,0.1     c0.5,0.1,1.1,0.3,1.6,0.6c0.6,0.3,1.1,0.7,1.4,1.3c0.4,0.6,0.6,1.3,0.6,2.1c0,0.8-0.2,1.6-0.6,2.2     C941.4,572.6,940.9,573.1,940.3,573.4z M934.9,567.8v4.2h1.9c0.9,0,1.6-0.2,1.9-0.6c0.3-0.4,0.5-0.9,0.5-1.5     c0-0.6-0.2-1.1-0.6-1.5c-0.4-0.4-1.1-0.6-2-0.6H934.9L934.9,567.8z"
   id="path1937" />
			<path
   d="M953.5,579.2l-1.2-3.2h-4.6l-1.1,3.2h-2.9l5-13.5h3.1l4.8,13.5H953.5z M950.1,568.3c-0.1,0.3-0.3,1.1-0.7,2.3     c-0.4,1.2-0.7,2.3-1,3.2h3.3c-0.5-1.5-0.8-2.7-1.1-3.7C950.3,569.1,950.2,568.5,950.1,568.3z"
   id="path1939" />
			<path
   d="M966.4,579.2l-1.3-2.2c-0.7-1.1-1.1-1.8-1.4-2.2s-0.6-0.7-0.8-0.9c-0.3-0.2-0.6-0.4-1-0.4v5.6h-2.8v-13.5h4.6     c0.9,0,1.7,0.1,2.3,0.2c0.6,0.1,1.3,0.5,1.9,1.1c0.7,0.6,1,1.5,1,2.7c0,1-0.3,1.9-0.9,2.6s-1.4,1.1-2.4,1.2     c0.2,0.2,0.5,0.4,0.8,0.8c0.3,0.4,0.6,0.7,0.8,1s0.5,0.7,0.8,1.2l1.9,2.7L966.4,579.2L966.4,579.2z M961.9,567.8v3.7h1.2     c1.1,0,1.9-0.2,2.3-0.5c0.4-0.3,0.6-0.8,0.6-1.4c0-0.9-0.2-1.4-0.7-1.5c-0.5-0.2-0.9-0.2-1.1-0.3c-0.2,0-0.6-0.1-0.9-0.1     L961.9,567.8L961.9,567.8z"
   id="path1941" />
			<path
   d="M981.8,568h-3.7v11.2h-2.8V568h-3.7v-2.3h10.7L981.8,568z"
   id="path1943" />
			<path
   d="M992.7,579.2l-1.2-3.2h-4.6l-1.1,3.2h-2.9l5-13.5h3.1l4.8,13.5H992.7z M989.3,568.3c-0.1,0.3-0.3,1.1-0.7,2.3     c-0.4,1.2-0.7,2.3-1,3.2h3.3c-0.5-1.5-0.8-2.7-1.1-3.7S989.3,568.5,989.3,568.3z"
   id="path1945" />
			<path
   d="M1010.3,579.2l-0.6-7.6l-0.2-2.6l-0.7,2.6l-2.4,7.6h-2.3l-2.3-7.5c0-0.1-0.1-0.5-0.3-1.3c-0.2-0.8-0.3-1.3-0.4-1.6     l-0.1,2.8l-0.6,7.5h-2.8l1.4-13.5h3.6l2.1,6.9c0.1,0.4,0.2,0.8,0.3,1.1s0.2,0.8,0.3,1.5c0-0.3,0.1-0.7,0.2-1.2     c0.1-0.5,0.3-1,0.4-1.5l2.1-6.9h3.7l1.3,13.5L1010.3,579.2z"
   id="path1947" />
			<path
   d="M1017,579.2v-13.5h8.5l-0.4,2.2h-5.3v3.2h4.4v2.2h-4.4v3.6h5.9v2.3H1017L1017,579.2z"
   id="path1949" />
			<path
   d="M1037,579.2l-3.3-6.2c-0.3-0.6-0.7-1.3-1-2c-0.3-0.7-0.5-1.2-0.7-1.5l0.1,3.8l0.1,5.9h-2.7v-13.5h3.1l3.4,6.1     c0.3,0.5,0.6,1.1,0.8,1.7c0.3,0.6,0.5,1.1,0.6,1.5c0-0.1,0-0.7-0.1-1.6c-0.1-1-0.1-1.6-0.1-1.9v-5.7h2.6v13.5L1037,579.2     L1037,579.2z"
   id="path1951" />
			<path
   d="M1053.3,568h-3.7v11.2h-2.8V568h-3.7v-2.3h10.7L1053.3,568z"
   id="path1953" />
			<path
   d="M1057.3,577.7c-1.3-1.3-1.9-3-1.9-5.2s0.6-3.9,1.7-5.1c1.1-1.2,2.7-1.9,4.7-1.9c2.1,0,3.7,0.6,4.8,1.9     c1.1,1.3,1.6,2.9,1.6,5c0,2.1-0.4,3.6-1.1,4.5c-0.8,0.9-1.5,1.6-2.3,1.9c-0.8,0.3-1.7,0.5-2.8,0.5     C1060,579.4,1058.5,578.8,1057.3,577.7z M1064.6,575.4c0.2-0.7,0.4-1.7,0.4-2.9c0-0.8,0-1.4-0.1-1.9c-0.1-0.5-0.3-1.1-0.6-1.9     c-0.3-0.8-1.2-1.1-2.6-1.1c-1.2,0-2.1,0.4-2.5,1.3c-0.4,0.9-0.7,2-0.7,3.5c0,1.6,0.2,2.9,0.7,3.7c0.5,0.8,1.3,1.2,2.6,1.2     c0.7,0,1.3-0.1,1.8-0.4S1064.4,576.1,1064.6,575.4z"
   id="path1955" />
			<path
   d="M1084.4,566c1.3,0.4,2.3,1.1,3.1,2.1c0.7,1,1.1,2.4,1.1,4.3c0,1.9-0.4,3.4-1.3,4.5c-0.9,1.1-1.7,1.7-2.5,1.9     c-0.8,0.2-1.4,0.3-1.8,0.3s-0.9,0.1-1.5,0.1h-3.7v-13.5h3c0.8,0,1.6,0,2.1,0.1C1083.3,565.8,1083.9,565.9,1084.4,566z      M1084.6,569.1c-0.6-0.9-1.5-1.3-2.7-1.3h-1.5v9.2h1.8c0.2,0,0.3,0,0.5,0c0.2,0,0.5-0.1,1-0.4c0.4-0.2,0.8-0.6,1.2-1.3     c0.3-0.6,0.5-1.5,0.5-2.7C1085.4,571.2,1085.2,570,1084.6,569.1z"
   id="path1957" />
			<path
   d="M1092.3,579.2v-13.5h8.5l-0.4,2.2h-5.3v3.2h4.4v2.2h-4.4v3.6h5.9v2.3H1092.3L1092.3,579.2z"
   id="path1959" />
		</g>
	</g>
	<g
   id="texto2">
		<path
   d="M911.8,607.2c-0.9,0-1.8-0.1-2.6-0.4c-0.8-0.3-1.6-0.8-2.6-1.8c-1-0.9-1.4-2.4-1.4-4.6c0-1.7,0.3-3,1-4.1    c0.7-1.1,1.5-1.9,2.5-2.4s2.1-0.8,3.2-0.8c0.7,0,1.5,0.1,2.1,0.3c0.6,0.2,1.2,0.4,1.7,0.8l-1.3,1.8c-0.8-0.5-1.6-0.7-2.4-0.7    c-0.6,0-1.1,0.1-1.6,0.4s-0.9,0.7-1.4,1.2c-0.4,0.6-0.6,1.6-0.6,3.1c0,1,0.1,1.8,0.2,2.3c0.1,0.6,0.4,1.1,1,1.8    c0.5,0.6,1.4,0.9,2.6,0.9c0.9,0,1.8-0.3,2.6-0.8l1.3,1.7C914.8,606.8,913.4,607.2,911.8,607.2z"
   id="path1964" />
		<path
   d="M918.6,607v-13.5h2.9V607H918.6z"
   id="path1966" />
		<path
   d="M933.9,592.9l-3.5-2.1l-3.4,2.1l-1-1.6l4.4-3.5l4.5,3.5L933.9,592.9z M926.1,607v-13.5h8.5l-0.4,2.2h-5.4v3.2h4.4v2.2    h-4.4v3.6h5.9v2.3L926.1,607L926.1,607z"
   id="path1968" />
		<path
   d="M946.1,607l-3.3-6.2c-0.3-0.6-0.7-1.3-1-2s-0.5-1.2-0.7-1.5l0.1,3.8l0.1,5.9h-2.7v-13.5h3.1l3.4,6.1    c0.3,0.5,0.6,1.1,0.8,1.7c0.2,0.6,0.5,1.1,0.6,1.5c0-0.1,0-0.7-0.1-1.6c-0.1-1-0.1-1.6-0.1-1.9v-5.7h2.6v13.5L946.1,607L946.1,607    z"
   id="path1970" />
		<path
   d="M959,607.2c-0.9,0-1.8-0.1-2.6-0.4s-1.6-0.8-2.6-1.8c-1-0.9-1.4-2.4-1.4-4.6c0-1.7,0.3-3,1-4.1c0.7-1.1,1.5-1.9,2.5-2.4    s2.1-0.8,3.2-0.8c0.7,0,1.5,0.1,2.1,0.3c0.6,0.2,1.2,0.4,1.7,0.8l-1.3,1.8c-0.8-0.5-1.6-0.7-2.4-0.7c-0.6,0-1.1,0.1-1.6,0.4    s-0.9,0.7-1.4,1.2c-0.4,0.6-0.6,1.6-0.6,3.1c0,1,0.1,1.8,0.2,2.3c0.1,0.6,0.4,1.1,1,1.8c0.5,0.6,1.4,0.9,2.6,0.9    c0.9,0,1.8-0.3,2.6-0.8l1.3,1.7C962.1,606.8,960.7,607.2,959,607.2z"
   id="path1972" />
		<path
   d="M965.9,607v-13.5h2.9V607H965.9z"
   id="path1974" />
		<path
   d="M981.1,607l-1.2-3.2h-4.6l-1.1,3.2h-2.9l5-13.5h3.1l4.8,13.5H981.1z M977.7,596.1c-0.1,0.3-0.3,1.1-0.7,2.3    c-0.4,1.2-0.7,2.3-1,3.2h3.3c-0.5-1.5-0.8-2.7-1.1-3.7C977.9,596.9,977.8,596.4,977.7,596.1z"
   id="path1976" />
		<path
   d="M999.2,593.9c1.3,0.4,2.3,1.1,3.1,2.1c0.7,1,1.1,2.4,1.1,4.3c0,1.9-0.4,3.4-1.3,4.5c-0.9,1.1-1.7,1.7-2.5,1.9    c-0.8,0.2-1.4,0.3-1.8,0.3s-0.9,0.1-1.5,0.1h-3.7v-13.5h3c0.8,0,1.6,0,2.1,0.1C998.2,593.6,998.7,593.7,999.2,593.9z M999.5,597    c-0.6-0.9-1.5-1.3-2.7-1.3h-1.5v9.2h1.8c0.2,0,0.3,0,0.5,0s0.5-0.1,1-0.4c0.4-0.2,0.8-0.6,1.1-1.3c0.3-0.6,0.5-1.5,0.5-2.7    C1000.3,599,1000,597.8,999.5,597z"
   id="path1978" />
		<path
   d="M1015,607l-1.2-3.2h-4.6l-1.1,3.2h-2.9l5-13.5h3.1l4.8,13.5H1015z M1011.6,596.1c-0.1,0.3-0.3,1.1-0.7,2.3    c-0.4,1.2-0.7,2.3-1,3.2h3.3c-0.5-1.5-0.8-2.7-1.1-3.7S1011.6,596.4,1011.6,596.1z"
   id="path1980" />
		<path
   d="M1031.9,607.2c-0.9,0-1.8-0.1-2.6-0.4c-0.8-0.3-1.6-0.8-2.6-1.8c-1-0.9-1.4-2.4-1.4-4.6c0-1.7,0.3-3,1-4.1    c0.7-1.1,1.5-1.9,2.5-2.4s2.1-0.8,3.2-0.8c0.7,0,1.5,0.1,2.1,0.3c0.6,0.2,1.2,0.4,1.7,0.8l-1.3,1.8c-0.8-0.5-1.6-0.7-2.4-0.7    c-0.6,0-1.1,0.1-1.6,0.4s-0.9,0.7-1.4,1.2c-0.4,0.6-0.6,1.6-0.6,3.1c0,1,0.1,1.8,0.2,2.3c0.1,0.6,0.4,1.1,1,1.8    c0.5,0.6,1.4,0.9,2.6,0.9c0.9,0,1.8-0.3,2.6-0.8l1.3,1.7C1035,606.8,1033.6,607.2,1031.9,607.2z"
   id="path1982" />
		<path
   d="M1039.8,605.5c-1.3-1.3-1.9-3-1.9-5.2s0.6-3.9,1.7-5.1s2.7-1.9,4.7-1.9c2.1,0,3.7,0.6,4.8,1.9s1.6,2.9,1.6,5    c0,2.1-0.4,3.6-1.1,4.5c-0.7,0.9-1.5,1.6-2.3,1.9c-0.8,0.3-1.7,0.5-2.8,0.5C1042.4,607.2,1040.9,606.7,1039.8,605.5z     M1047.1,603.2c0.2-0.7,0.4-1.7,0.4-2.9c0-0.8,0-1.4-0.1-1.9c-0.1-0.5-0.3-1.1-0.6-1.9c-0.3-0.8-1.2-1.1-2.6-1.1    c-1.2,0-2.1,0.4-2.5,1.3c-0.4,0.9-0.7,2-0.7,3.5c0,1.6,0.2,2.9,0.7,3.7s1.3,1.2,2.6,1.2c0.7,0,1.3-0.1,1.8-0.4    C1046.5,604.4,1046.8,603.9,1047.1,603.2z"
   id="path1984" />
		<path
   d="M1066.3,607l-0.6-7.6l-0.2-2.6l-0.7,2.6l-2.4,7.6h-2.4l-2.3-7.5c0-0.1-0.1-0.5-0.3-1.3c-0.2-0.8-0.3-1.3-0.4-1.6l-0.1,2.8    l-0.6,7.5h-2.8l1.4-13.5h3.6l2.1,6.9c0.1,0.4,0.2,0.8,0.3,1.1c0.1,0.3,0.2,0.8,0.3,1.5c0-0.3,0.1-0.7,0.2-1.2    c0.1-0.5,0.3-1,0.4-1.5l2.1-6.9h3.7l1.3,13.5L1066.3,607z"
   id="path1986" />
		<path
   d="M1081.1,601.3c-0.5,0.3-1.1,0.5-1.6,0.6c-0.5,0.1-1.1,0.2-1.9,0.2h-1.8v5h-2.8v-13.5h3.9c1.2,0,2.1,0,2.6,0.1    c0.5,0.1,1.1,0.3,1.6,0.6c0.6,0.3,1.1,0.7,1.4,1.3c0.4,0.6,0.6,1.3,0.6,2.1c0,0.8-0.2,1.6-0.6,2.2    C1082.2,600.5,1081.7,600.9,1081.1,601.3z M1075.8,595.7v4.2h1.9c0.9,0,1.6-0.2,1.9-0.6c0.3-0.4,0.5-0.9,0.5-1.5    c0-0.6-0.2-1.1-0.6-1.5c-0.4-0.4-1.1-0.6-2-0.6H1075.8L1075.8,595.7z"
   id="path1988" />
		<path
   d="M1095.9,605.9c-0.4,0.4-1,0.7-1.7,1c-0.7,0.2-1.5,0.4-2.4,0.4c-1.2,0-2.2-0.2-3-0.5c-0.8-0.3-1.3-0.8-1.7-1.3    s-0.5-0.9-0.6-1.4c-0.1-0.4-0.1-1-0.1-1.7v-8.9h2.8v8.5c0,0.9,0.1,1.7,0.4,2.2c0.3,0.5,1,0.8,2.1,0.8c0.9,0,1.5-0.2,1.8-0.5    c0.3-0.3,0.5-0.7,0.5-1c0.1-0.3,0.1-0.8,0.1-1.4v-8.6h2.9v8.8c0,1-0.1,1.8-0.2,2.2C1096.7,605,1096.4,605.5,1095.9,605.9z"
   id="path1990" />
		<path
   d="M1110.4,595.8h-3.7V607h-2.8v-11.2h-3.7v-2.3h10.6L1110.4,595.8z"
   id="path1992" />
		<path
   d="M1121.2,607l-1.2-3.2h-4.6l-1.1,3.2h-2.9l5-13.5h3.1l4.8,13.5H1121.2z M1117.8,596.1c-0.1,0.3-0.3,1.1-0.7,2.3    s-0.7,2.3-1,3.2h3.3c-0.5-1.5-0.8-2.7-1.1-3.7S1117.9,596.4,1117.8,596.1z"
   id="path1994" />
		<path
   d="M1132.7,607.2l-0.2,0.6c0.6,0.1,1,0.3,1.3,0.6c0.3,0.4,0.4,0.8,0.4,1.3c0,0.6-0.2,1.1-0.7,1.5c-0.5,0.4-1.1,0.6-1.9,0.6    c-0.3,0-0.7-0.1-1.1-0.2c-0.4-0.1-0.8-0.3-1-0.4l0.7-1.4c0.2,0.1,0.4,0.1,0.6,0.2c0.2,0.1,0.5,0.1,0.8,0.1c0.2,0,0.4-0.1,0.5-0.2    c0.1-0.1,0.2-0.3,0.2-0.4c0-0.2-0.1-0.4-0.2-0.5c-0.1-0.1-0.3-0.2-0.6-0.2c-0.3,0.1-0.5,0.1-0.7,0.1l-0.3-0.4l0.5-1.7    c-1.2-0.2-2.3-0.7-3.2-1.4c-1.4-1.3-2.1-3-2.1-5.2c0-1.7,0.3-3,1-4.1c0.7-1.1,1.5-1.9,2.5-2.4s2-0.8,3.2-0.8    c0.7,0,1.5,0.1,2.1,0.3c0.7,0.2,1.2,0.4,1.7,0.8l-1.3,1.8c-0.8-0.5-1.6-0.7-2.4-0.7c-0.6,0-1.1,0.1-1.6,0.4s-1,0.7-1.4,1.2    c-0.4,0.5-0.6,1.6-0.6,3.1c0,1.8,0.3,3.1,1,3.8c0.6,0.8,1.6,1.2,2.8,1.2c0.5,0,0.9-0.1,1.3-0.2c0.4-0.1,0.8-0.3,1.3-0.7l1.3,1.7    c-0.5,0.4-1.1,0.7-1.8,1S1133.5,607.2,1132.7,607.2z"
   id="path1996" />
		<path
   d="M1147.3,607l-1.2-3.2h-4.6l-1.1,3.2h-2.9l5-13.5h3.1l4.8,13.5H1147.3z M1145.8,589.9c0.4,0,0.6-0.1,0.9-0.2    c0.2-0.1,0.5-0.4,0.8-0.7l0.9,1.6c-0.5,0.6-0.9,1-1.4,1.3c-0.4,0.3-1,0.4-1.7,0.4c-0.5,0-1.1-0.2-1.7-0.5    c-0.6-0.3-1.1-0.5-1.6-0.5c-0.4,0-0.6,0.1-0.9,0.2c-0.2,0.1-0.5,0.4-0.8,0.7l-0.9-1.6c0.5-0.6,0.9-1,1.3-1.3s1-0.4,1.7-0.4    c0.5,0,1.1,0.2,1.7,0.5C1144.8,589.7,1145.3,589.9,1145.8,589.9z M1143.9,596.1c-0.1,0.3-0.3,1.1-0.7,2.3s-0.7,2.3-1,3.2h3.3    c-0.5-1.5-0.8-2.7-1.1-3.7C1144.1,596.9,1143.9,596.4,1143.9,596.1z"
   id="path1998" />
		<path
   d="M1153.9,605.5c-1.3-1.3-1.9-3-1.9-5.2s0.6-3.9,1.7-5.1c1.1-1.2,2.7-1.9,4.7-1.9c2.1,0,3.7,0.6,4.8,1.9    c1.1,1.3,1.6,2.9,1.6,5c0,2.1-0.4,3.6-1.1,4.5c-0.8,0.9-1.5,1.6-2.3,1.9c-0.8,0.3-1.7,0.5-2.8,0.5    C1156.5,607.2,1155,606.7,1153.9,605.5z M1161.2,603.2c0.2-0.7,0.4-1.7,0.4-2.9c0-0.8,0-1.4-0.1-1.9c-0.1-0.5-0.3-1.1-0.6-1.9    c-0.3-0.8-1.2-1.1-2.6-1.1c-1.2,0-2.1,0.4-2.5,1.3c-0.4,0.9-0.7,2-0.7,3.5c0,1.6,0.2,2.9,0.7,3.7s1.3,1.2,2.6,1.2    c0.7,0,1.3-0.1,1.8-0.4S1160.9,603.9,1161.2,603.2z"
   id="path2000" />
	</g>
</g>
</svg>
