<?xml version="1.0" encoding="UTF-8" standalone="no"?>
<!-- Created with Inkscape (http://www.inkscape.org/) -->

<svg
   width="1000"
   height="1000"
   viewBox="0 0 264.58333 264.58334"
   version="1.1"
   id="svg8"
   inkscape:version="1.2.2 (b0a8486541, 2022-12-01)"
   sodipodi:docname="banner-encerramento.svg"
   enable-background="new"
   inkscape:export-filename="banner-encerramento.png"
   inkscape:export-xdpi="96"
   inkscape:export-ydpi="96"
   xmlns:inkscape="http://www.inkscape.org/namespaces/inkscape"
   xmlns:sodipodi="http://sodipodi.sourceforge.net/DTD/sodipodi-0.dtd"
   xmlns:xlink="http://www.w3.org/1999/xlink"
   xmlns="http://www.w3.org/2000/svg"
   xmlns:svg="http://www.w3.org/2000/svg"
   xmlns:rdf="http://www.w3.org/1999/02/22-rdf-syntax-ns#"
   xmlns:cc="http://creativecommons.org/ns#"
   xmlns:dc="http://purl.org/dc/elements/1.1/">
  <defs
     id="defs2">
    <radialGradient
       id="rect5602_1_-1-0"
       cx="39.507702"
       cy="136.8791"
       r="629.53729"
       gradientTransform="matrix(0.36767629,0,0,-0.26488582,115.90193,189.91301)"
       gradientUnits="userSpaceOnUse">
      <stop
         offset="0"
         style="stop-color:#ED6D14"
         id="stop6328-3-0" />
      <stop
         offset="1"
         style="stop-color:#AF1917"
         id="stop6330-0-2" />
    </radialGradient>
    <linearGradient
       id="linearGradient11737">
      <stop
         style="stop-color:#ffffff;stop-opacity:0;"
         offset="0"
         id="stop11739" />
      <stop
         id="stop11741"
         offset="0.7044031"
         style="stop-color:#0046af;stop-opacity:0;" />
      <stop
         id="stop11743"
         offset="0.86842364"
         style="stop-color:#0044ab;stop-opacity:0.42352942;" />
      <stop
         style="stop-color:#003996;stop-opacity:0.64999998;"
         offset="0.95386213"
         id="stop11745" />
      <stop
         style="stop-color:#002c80;stop-opacity:1;"
         offset="1"
         id="stop11747" />
    </linearGradient>
    <linearGradient
       id="linearGradient11729">
      <stop
         id="stop11731"
         offset="0"
         style="stop-color:#5bcaff;stop-opacity:1;" />
      <stop
         id="stop11733"
         offset="1"
         style="stop-color:#0071de;stop-opacity:1;" />
    </linearGradient>
    <linearGradient
       id="linearGradient5073">
      <stop
         id="stop5075"
         offset="0"
         style="stop-color:#ffffff;stop-opacity:1;" />
      <stop
         id="stop5077"
         offset="1"
         style="stop-color:#ffffff;stop-opacity:0;" />
    </linearGradient>
    <radialGradient
       id="SVGID_7_-6"
       cx="41.2771"
       cy="77.994598"
       r="115.1427"
       gradientTransform="matrix(0.59465161,-0.00803016,0.00779185,0.57698869,27.560967,38.49588)"
       gradientUnits="userSpaceOnUse">
      <stop
         offset="0"
         style="stop-color:#F9B233"
         id="stop8653-6" />
      <stop
         offset="1"
         style="stop-color:#AF1917"
         id="stop8655-1" />
    </radialGradient>
    <radialGradient
       id="rect5602_1_-1-0-5"
       cx="39.507702"
       cy="136.8791"
       r="629.53729"
       gradientTransform="matrix(0.36767629,0,0,-0.26488583,115.90192,157.49637)"
       gradientUnits="userSpaceOnUse">
      <stop
         offset="0"
         style="stop-color:#ED6D14"
         id="stop6328-3-0-6" />
      <stop
         offset="1"
         style="stop-color:#AF1917"
         id="stop6330-0-2-5" />
    </radialGradient>
    <filter
       inkscape:collect="always"
       style="color-interpolation-filters:sRGB"
       id="filter5204">
      <feBlend
         inkscape:collect="always"
         mode="multiply"
         in2="BackgroundImage"
         id="feBlend5206" />
    </filter>
    <filter
       inkscape:collect="always"
       id="filter14506-80-6-61-7"
       style="color-interpolation-filters:sRGB"
       x="-0.14978878"
       y="-0.44617967"
       width="1.2995776"
       height="1.8923593">
      <feGaussianBlur
         inkscape:collect="always"
         stdDeviation="0.70957443"
         id="feGaussianBlur14508-15-9-2-5" />
    </filter>
    <radialGradient
       r="68.636078"
       fy="170.44995"
       fx="339.39481"
       cy="170.44995"
       cx="339.39481"
       gradientUnits="userSpaceOnUse"
       id="radialGradient20235-3"
       xlink:href="#linearGradient11737"
       inkscape:collect="always"
       gradientTransform="matrix(0.68715852,0,0,0.68715852,599.61371,681.9423)" />
    <radialGradient
       r="68.136078"
       fy="131.75188"
       fx="360.3381"
       cy="131.75188"
       cx="360.3381"
       gradientTransform="matrix(2.0322283,0,0,2.0322283,-350.33294,-138.65768)"
       gradientUnits="userSpaceOnUse"
       id="radialGradient20237-2"
       xlink:href="#linearGradient11729"
       inkscape:collect="always" />
    <filter
       height="1.32"
       y="-0.15999999"
       width="1.32"
       x="-0.16"
       id="filter4645-9"
       inkscape:collect="always">
      <feGaussianBlur
         id="feGaussianBlur4647-3"
         stdDeviation="9.0848104"
         inkscape:collect="always" />
    </filter>
    <filter
       inkscape:collect="always"
       id="filter15293-6"
       x="-0.10819635"
       y="-0.075850788"
       width="1.21636"
       height="1.1526797">
      <feGaussianBlur
         inkscape:collect="always"
         stdDeviation="2.6999294"
         id="feGaussianBlur15295-0" />
    </filter>
    <linearGradient
       inkscape:collect="always"
       xlink:href="#linearGradient5073"
       id="linearGradient4542"
       gradientUnits="userSpaceOnUse"
       gradientTransform="matrix(-0.63593482,-0.37693419,-0.22248174,0.57997513,1235.4192,915.11076)"
       x1="530.65643"
       y1="92.872658"
       x2="571.87354"
       y2="138.7977" />
  </defs>
  <sodipodi:namedview
     id="base"
     pagecolor="#ffffff"
     bordercolor="#666666"
     borderopacity="1.0"
     inkscape:pageopacity="0.0"
     inkscape:pageshadow="2"
     inkscape:zoom="0.49497475"
     inkscape:cx="641.44686"
     inkscape:cy="642.45701"
     inkscape:document-units="mm"
     inkscape:current-layer="g5817"
     showgrid="false"
     units="px"
     inkscape:snap-others="true"
     inkscape:snap-nodes="false"
     inkscape:window-width="1920"
     inkscape:window-height="1003"
     inkscape:window-x="1080"
     inkscape:window-y="643"
     inkscape:window-maximized="1"
     showguides="true"
     inkscape:showpageshadow="2"
     inkscape:pagecheckerboard="0"
     inkscape:deskcolor="#d1d1d1" />
  <metadata
     id="metadata5">
    <rdf:RDF>
      <cc:Work
         rdf:about="">
        <dc:format>image/svg+xml</dc:format>
        <dc:type
           rdf:resource="http://purl.org/dc/dcmitype/StillImage" />
      </cc:Work>
    </rdf:RDF>
  </metadata>
  <g
     inkscape:groupmode="layer"
     id="layer2"
     inkscape:label="BG">
    <rect
       id="rect5602-3"
       x="-5.0862632e-006"
       y="-3.3839596e-014"
       class="st0"
       width="264.58337"
       height="264.58337"
       style="fill:url(#rect5602_1_-1-0-5);stroke-width:0.42072514" />
    <g
       id="g5817"
       transform="translate(0,-0.13118047)">
      <g
         id="g6036">
        <g
           id="g5089"
           transform="matrix(0.99041786,0,0,0.99041786,-4.1121495,-62.259647)"
           style="fill:#ffcc00">
          <text
             xml:space="preserve"
             style="font-style:normal;font-weight:normal;font-size:24.7888px;line-height:1.25;font-family:sans-serif;letter-spacing:0px;word-spacing:0px;fill:#ffffff;fill-opacity:1;stroke:none;stroke-width:0.61972"
             x="82.878319"
             y="242.90511"
             id="text4262"><tspan
               sodipodi:role="line"
               id="tspan4260"
               x="82.878319"
               y="242.90511"
               style="font-style:normal;font-variant:normal;font-weight:bold;font-stretch:normal;font-family:Lato;-inkscape-font-specification:'Lato Bold';fill:#ffffff;stroke-width:0.61972">Obrigado!</tspan></text>
        </g>
        <text
           xml:space="preserve"
           style="font-style:normal;font-weight:normal;font-size:11.4455px;line-height:1.25;font-family:sans-serif;text-align:center;letter-spacing:0px;word-spacing:0px;text-anchor:middle;fill:#ffffff;fill-opacity:1;stroke:none;stroke-width:0.286138"
           x="132.46048"
           y="205.81131"
           id="text4266-0"><tspan
             sodipodi:role="line"
             id="tspan4264-9"
             x="132.46048"
             y="205.81131"
             style="font-style:normal;font-variant:normal;font-weight:normal;font-stretch:normal;font-family:Lato;-inkscape-font-specification:Lato;text-align:center;text-anchor:middle;fill:#ffffff;stroke-width:0.286138">Veja outros eventos de </tspan><tspan
             sodipodi:role="line"
             x="132.46048"
             y="220.34853"
             style="font-style:normal;font-variant:normal;font-weight:normal;font-stretch:normal;font-family:Lato;-inkscape-font-specification:Lato;text-align:center;text-anchor:middle;fill:#ffffff;stroke-width:0.286138"
             id="tspan311">Software Livre em Belo Horizonte no site:</tspan></text>
        <text
           id="text5111-2"
           y="243.30638"
           x="80.683922"
           style="font-style:normal;font-weight:normal;font-size:11.4455px;line-height:1.25;font-family:sans-serif;letter-spacing:0px;word-spacing:0px;fill:#ffff00;fill-opacity:1;stroke:none;stroke-width:0.286138"
           xml:space="preserve"><tspan
             style="font-style:normal;font-variant:normal;font-weight:900;font-stretch:normal;font-family:Lato;-inkscape-font-specification:'Lato Heavy';fill:#ffff00;stroke-width:0.286138"
             y="243.30638"
             x="80.683922"
             id="tspan5109-6"
             sodipodi:role="line">softwarelivre.bhz.br</tspan></text>
        <g
           id="g1502-1"
           transform="matrix(2.1262088,0,0,2.1262087,-48.309835,293.73028)"
           style="enable-background:new">
          <g
             id="g6845_1_-8"
             transform="matrix(0.10336508,0,0,0.10336508,149.69559,-6.9447893)">
            <g
               id="g6848_1_-7"
               transform="translate(-1.9999988,247.45081)">
              <g
                 id="path6850_1_-9">
                <g
                   id="g24832-2">
                  <path
                     style="fill:#ffffff"
                     inkscape:connector-curvature="0"
                     class="st1"
                     d="m -1004.7,-1162.6 c -6.2,0 -11.2,-5 -11.2,-11.2 V -1297 c 0,-24.9 20.3,-45.2 45.2,-45.2 h 21.3 c 6.2,0 11.2,5 11.2,11.2 0,6.2 -5,11.2 -11.2,11.2 h -21.3 c -12.6,0 -22.8,10.2 -22.8,22.8 v 123.2 c 0,6.2 -5,11.2 -11.2,11.2 z"
                     id="path24834-0" />
                </g>
              </g>
              <g
                 id="path6852_1_-2">
                <g
                   id="g24837-3">
                  <path
                     style="fill:#ffffff"
                     inkscape:connector-curvature="0"
                     class="st1"
                     d="m -957.4,-1245.5 h -58.9 c -6.2,0 -11.2,-5 -11.2,-11.2 0,-6.2 5,-11.2 11.2,-11.2 h 58.9 c 6.2,0 11.2,5 11.2,11.2 0,6.2 -5,11.2 -11.2,11.2 z"
                     id="path24839-7" />
                </g>
              </g>
            </g>
            <g
               id="path6854_1_-5">
              <g
                 id="g24842-9">
                <path
                   style="fill:#ffffff"
                   inkscape:connector-curvature="0"
                   class="st1"
                   d="m -837.3,-915.2 c -6.2,0 -11.2,-5 -11.2,-11.2 v -157.8 c 0,-6.2 5,-11.2 11.2,-11.2 6.2,0 11.2,5 11.2,11.2 v 157.8 c 0,6.2 -5.1,11.2 -11.2,11.2 z"
                   id="path24844-2" />
              </g>
            </g>
            <g
               id="path6856_1_-2">
              <g
                 id="g24847-8">
                <path
                   style="fill:#ffffff"
                   inkscape:connector-curvature="0"
                   class="st1"
                   d="m -758.9,-915.2 h -37.5 c -6.2,0 -11.2,-5 -11.2,-11.2 0,-6.2 5,-11.2 11.2,-11.2 h 37.5 c 13.5,0 24.5,-10.9 24.5,-24.3 v -7.1 c 0,-6.6 -2.5,-12.7 -7.2,-17.3 -4.6,-4.5 -10.6,-7 -17.1,-7 -0.2,0 -0.4,0 -0.6,0 -1,0.2 -2.2,0.3 -3.5,0.4 -1.3,0 -3.3,0 -6.3,0.1 -25.9,0 -47,-21 -47,-46.7 v -7.1 c 0,-25.8 21,-46.7 46.9,-46.7 h 37.5 c 6.2,0 11.2,5 11.2,11.2 0,6.2 -5,11.2 -11.2,11.2 h -37.5 c -13.5,0 -24.5,10.9 -24.5,24.3 v 7.1 c 0,13.4 11,24.3 24.5,24.3 0.1,0 0.3,0 0.4,0 1,-0.2 2.2,-0.3 3.5,-0.4 1.3,0 3.3,0 6.3,-0.1 0.1,0 0.2,0 0.3,0 12.4,0 24.1,4.8 32.9,13.6 8.9,8.8 13.8,20.6 13.8,33.2 v 7.1 c 0,25.6 -21,46.6 -46.9,46.6 z"
                   id="path24849-9" />
              </g>
            </g>
            <g
               id="rect6858_1_-7">
              <g
                 id="g24852-3">
                <path
                   style="fill:#ffffff"
                   inkscape:connector-curvature="0"
                   class="st1"
                   d="m -640.2,-915.2 h -31.4 c -18.4,0 -33.4,-15 -33.4,-33.4 v -66.6 c 0,-18.4 15,-33.4 33.4,-33.4 h 31.4 c 18.4,0 33.4,15 33.4,33.4 v 66.6 c 0,18.5 -15,33.4 -33.4,33.4 z m -31.4,-110.9 c -6,0 -11,4.9 -11,11 v 66.6 c 0,6 4.9,11 11,11 h 31.4 c 6,0 11,-4.9 11,-11 v -66.6 c 0,-6 -4.9,-11 -11,-11 z"
                   id="path24854-6" />
              </g>
            </g>
            <g
               id="path6860_1_-1">
              <g
                 id="g24857-2">
                <path
                   style="fill:#ffffff"
                   inkscape:connector-curvature="0"
                   class="st1"
                   d="M -866.8,-915.2 H -888 c -24.9,0 -45.2,-20.3 -45.2,-45.2 v -123.2 c 0,-6.2 5,-11.2 11.2,-11.2 6.2,0 11.2,5 11.2,11.2 v 123.2 c 0,12.6 10.2,22.8 22.8,22.8 h 21.3 c 6.2,0 11.2,5 11.2,11.2 0,6.2 -5.1,11.2 -11.3,11.2 z"
                   id="path24859-9" />
              </g>
            </g>
            <g
               id="path6862_1_-3">
              <g
                 id="g24862-1">
                <path
                   style="fill:#ffffff"
                   inkscape:connector-curvature="0"
                   class="st1"
                   d="M -531.7,-915.2 H -553 c -24.9,0 -45.2,-20.3 -45.2,-45.2 v -123.2 c 0,-6.2 5,-11.2 11.2,-11.2 6.2,0 11.2,5 11.2,11.2 v 123.2 c 0,12.6 10.2,22.8 22.8,22.8 h 21.3 c 6.2,0 11.2,5 11.2,11.2 0,6.2 -5,11.2 -11.2,11.2 z"
                   id="path24864-9" />
              </g>
            </g>
          </g>
          <g
             id="g6864_1_-4"
             transform="matrix(0.10924882,0,0,0.10924882,143.83225,50.396705)">
            <g
               id="path6866_1_-7">
              <g
                 id="g24868-8">
                <path
                   style="fill:#ffffff"
                   inkscape:connector-curvature="0"
                   sodipodi:nodetypes="cccccccccccccccccccc"
                   class="st1"
                   d="m -294.1,-1453.3 77.8,77.3 45.6,-42.1 -38.1,-36.1 -25.4,24.8 17.8,17 21.6,-16.4 1.9,1.9 -18.4,19.1 c -2.8,2.8 -5.8,3.7 -9.3,0.6 l -18.5,-17.8 c -2.2,-2.8 -2.7,-5.5 -0.9,-8.1 0,0 11.2,-14.9 26.5,-28.3 4.8,-3.5 8.9,-2.6 12.7,0.9 l 40.6,35.4 c 3.7,4.3 2.9,9.7 -1,13.7 l -46.7,49.8 c -4.4,5.1 -14.7,4.8 -19.1,-0.2 l -81.4,-77.9 z"
                   id="path24870-4" />
              </g>
            </g>
            <g
               id="path6868_1_-5">
              <g
                 id="g24873-0">
                <path
                   style="fill:#ffffff"
                   inkscape:connector-curvature="0"
                   sodipodi:nodetypes="cccccccccccccccccccc"
                   class="st1"
                   d="m -336.4,-1498.7 -77.8,-77.3 -45.6,42.1 38.1,36.1 25.4,-24.8 -17.8,-17 -21.6,16.4 -1.9,-1.9 18.4,-19.1 c 2.8,-2.8 5.8,-3.7 9.3,-0.6 l 18.5,17.8 c 2.2,2.8 2.7,5.5 0.9,8.1 0,0 -11.2,14.9 -26.5,28.3 -4.8,3.5 -8.9,2.6 -12.7,-0.9 l -40.6,-35.4 c -3.7,-4.3 -2.9,-9.7 1,-13.7 l 46.7,-49.8 c 4.4,-5.1 14.7,-4.8 19.1,0.2 l 81.4,77.9 z"
                   id="path24875-3" />
              </g>
            </g>
            <g
               id="path6870_1_-6">
              <g
                 id="g24878-1">
                <path
                   style="fill:#ffffff"
                   inkscape:connector-curvature="0"
                   sodipodi:nodetypes="cccccccccccccccccccc"
                   class="st1"
                   d="m -292.6,-1497.2 77.3,-77.8 -42.1,-45.6 -36.1,38.1 24.8,25.4 17,-17.8 -16.4,-21.6 1.9,-1.9 19.1,18.4 c 2.8,2.8 3.7,5.8 0.6,9.3 l -17.8,18.5 c -2.8,2.2 -5.5,2.7 -8.1,0.9 0,0 -14.9,-11.2 -28.3,-26.5 -3.5,-4.8 -2.6,-8.9 0.9,-12.7 l 35.4,-40.6 c 4.3,-3.7 9.7,-2.9 13.7,1 l 49.8,46.7 c 5.1,4.4 4.8,14.7 -0.2,19.1 l -77.9,81.4 z"
                   id="path24880-0" />
              </g>
            </g>
            <g
               id="path6872_1_-6">
              <g
                 id="g24883-3">
                <path
                   style="fill:#ffffff"
                   inkscape:connector-curvature="0"
                   sodipodi:nodetypes="cccccccccccccccccccc"
                   class="st1"
                   d="m -337.9,-1454.8 -77.3,77.8 42.1,45.6 36.1,-38.1 -24.8,-25.4 -17,17.8 16.4,21.6 -1.9,1.9 -19.1,-18.4 c -2.8,-2.8 -3.7,-5.8 -0.6,-9.3 l 17.8,-18.5 c 2.8,-2.2 5.5,-2.7 8.1,-0.9 0,0 14.9,11.2 28.3,26.5 3.5,4.8 2.6,8.9 -0.9,12.7 l -35.3,40.5 c -4.3,3.7 -9.7,2.9 -13.7,-1 l -49.8,-46.7 c -5.1,-4.4 -4.8,-14.7 0.2,-19.1 l 77.9,-81.4 z"
                   id="path24885-2" />
              </g>
            </g>
            <g
               id="g6874_1_-0"
               transform="matrix(1.0923337,0.25861982,-0.25861982,1.0923337,160.90403,65.72318)">
              <g
                 id="path6876_1_-6">
                <g
                   id="g24889-1">
                  <path
                     style="fill:#ffffff"
                     inkscape:connector-curvature="0"
                     sodipodi:nodetypes="ccsccc"
                     class="st1"
                     d="m -716.2,-1184.4 22.9,68.7 c 0,0 16.2,-7.5 17.1,2.7 0.9,10.2 -22.4,9 -22.4,9 l -21.9,-79.9 z"
                     id="path24891-5" />
                </g>
              </g>
              <g
                 id="ellipse6878_1_-5">
                <g
                   id="g24894-4">
                  <path
                     id="ellipse24896-7"
                     style="fill:#ffffff"
                     class="st1"
                     transform="matrix(-0.2049,0.9788,-0.9788,-0.2049,-1969.4539,-714.7151)"
                     d="m -687.20002,-1157.3 a 7.1999998,10.5 0 0 1 -7.2,10.5 7.1999998,10.5 0 0 1 -7.2,-10.5 7.1999998,10.5 0 0 1 7.2,-10.5 7.1999998,10.5 0 0 1 7.2,10.5 z" />
                </g>
              </g>
              <g
                 id="ellipse6880_1_-6">
                <g
                   id="g24899-5">
                  <path
                     id="ellipse24901-6"
                     style="fill:#ffffff"
                     class="st1"
                     transform="matrix(-0.2049,0.9788,-0.9788,-0.2049,-1938.2141,-705.644)"
                     d="m -675.3,-1140.1 a 7.1999998,10.5 0 0 1 -7.2,10.5 7.1999998,10.5 0 0 1 -7.2,-10.5 7.1999998,10.5 0 0 1 7.2,-10.5 7.1999998,10.5 0 0 1 7.2,10.5 z" />
                </g>
              </g>
              <g
                 id="path6882_1_-9">
                <g
                   id="g24904-3">
                  <path
                     style="fill:#ffffff"
                     inkscape:connector-curvature="0"
                     sodipodi:nodetypes="ccsccc"
                     class="st1"
                     d="m -742.2,-1293.1 -22.9,-68.7 c 0,0 -16.2,7.5 -17.1,-2.7 -0.9,-10.2 22.4,-9 22.4,-9 l 21.9,79.9 z"
                     id="path24906-7" />
                </g>
              </g>
              <g
                 id="ellipse6884_1_-4">
                <g
                   id="g24909-5">
                  <path
                     id="ellipse24911-2"
                     style="fill:#ffffff"
                     class="st1"
                     transform="matrix(-0.2049,0.9788,-0.9788,-0.2049,-2212.728,-842.939)"
                     d="m -756.8,-1320.2 a 7.1999998,10.5 0 0 1 -7.2,10.5 7.1999998,10.5 0 0 1 -7.2,-10.5 7.1999998,10.5 0 0 1 7.2,-10.5 7.1999998,10.5 0 0 1 7.2,10.5 z" />
                </g>
              </g>
              <g
                 id="ellipse6886_1_-5">
                <g
                   id="g24914-4">
                  <path
                     id="ellipse24916-7"
                     style="fill:#ffffff"
                     class="st1"
                     transform="matrix(-0.2049,0.9788,-0.9788,-0.2049,-2243.9678,-852.0101)"
                     d="m -768.70002,-1337.5 a 7.1999998,10.5 0 0 1 -7.2,10.5 7.1999998,10.5 0 0 1 -7.2,-10.5 7.1999998,10.5 0 0 1 7.2,-10.5 7.1999998,10.5 0 0 1 7.2,10.5 z" />
                </g>
              </g>
              <g
                 id="path6888_1_-4">
                <g
                   id="g24919-4">
                  <path
                     style="fill:#ffffff"
                     inkscape:connector-curvature="0"
                     sodipodi:nodetypes="ccsccc"
                     class="st1"
                     d="m -674.9,-1251.8 68.7,-22.9 c 0,0 -7.5,-16.2 2.7,-17.1 10.2,-0.8 9,22.4 9,22.4 l -79.9,21.9 z"
                     id="path24921-3" />
                </g>
              </g>
              <g
                 id="ellipse6890_1_-0">
                <g
                   id="g24924-7">
                  <path
                     id="ellipse24926-8"
                     style="fill:#ffffff"
                     class="st1"
                     transform="matrix(-0.2049,0.9788,-0.9788,-0.2049,-2026.9791,-900.4641)"
                     d="m -637.20001,-1273.6 a 10.5,7.1999998 0 0 1 -10.5,7.2 10.5,7.1999998 0 0 1 -10.5,-7.2 10.5,7.1999998 0 0 1 10.5,-7.2 10.5,7.1999998 0 0 1 10.5,7.2 z" />
                </g>
              </g>
              <g
                 id="ellipse6892_1_-6">
                <g
                   id="g24929-8">
                  <path
                     id="ellipse24931-8"
                     style="fill:#ffffff"
                     class="st1"
                     transform="matrix(-0.2049,0.9788,-0.9788,-0.2049,-2017.908,-931.7039)"
                     d="m -620,-1285.5 a 10.5,7.1999998 0 0 1 -10.5,7.2 10.5,7.1999998 0 0 1 -10.5,-7.2 10.5,7.1999998 0 0 1 10.5,-7.2 10.5,7.1999998 0 0 1 10.5,7.2 z" />
                </g>
              </g>
              <g
                 id="path6894_1_-4">
                <g
                   id="g24934-3">
                  <path
                     style="fill:#ffffff"
                     inkscape:connector-curvature="0"
                     sodipodi:nodetypes="ccsccc"
                     class="st1"
                     d="m -783.5,-1225.8 -68.7,22.9 c 0,0 7.5,16.2 -2.7,17.1 -10.2,0.9 -9,-22.4 -9,-22.4 l 79.9,-21.9 z"
                     id="path24936-1" />
                </g>
              </g>
              <g
                 id="ellipse6896_1_-4">
                <g
                   id="g24939-9">
                  <path
                     id="ellipse24941-2"
                     style="fill:#ffffff"
                     class="st1"
                     transform="matrix(-0.2049,0.9788,-0.9788,-0.2049,-2155.2029,-657.1899)"
                     d="m -800.20001,-1204 a 10.5,7.1999998 0 0 1 -10.5,7.2 10.5,7.1999998 0 0 1 -10.5,-7.2 10.5,7.1999998 0 0 1 10.5,-7.2 10.5,7.1999998 0 0 1 10.5,7.2 z" />
                </g>
              </g>
              <g
                 id="ellipse6898_1_-0">
                <g
                   id="g24944-6">
                  <path
                     id="ellipse24946-8"
                     style="fill:#ffffff"
                     class="st1"
                     transform="matrix(-0.2049,0.9788,-0.9788,-0.2049,-2164.2742,-625.9502)"
                     d="m -817.40002,-1192.1 a 10.5,7.1999998 0 0 1 -10.5,7.2 10.5,7.1999998 0 0 1 -10.5,-7.2 10.5,7.1999998 0 0 1 10.5,-7.2 10.5,7.1999998 0 0 1 10.5,7.2 z" />
                </g>
              </g>
            </g>
          </g>
          <g
             transform="matrix(0.28227167,0,0,0.28227167,25.717877,-147.84088)"
             style="enable-background:new"
             class="st421"
             id="g26872-9">
            <g
               id="g26874-2">
              <path
                 style="fill:#ffffff"
                 inkscape:connector-curvature="0"
                 class="st1"
                 d="m 60.7,187.9 v -10.2 h 6.9 v 1.2 H 62 v 3.2 h 4.8 v 1.2 H 62 v 4.7 h -1.3 z"
                 id="path26876-6" />
            </g>
            <g
               id="g26878-6">
              <path
                 style="fill:#ffffff"
                 inkscape:connector-curvature="0"
                 class="st1"
                 d="m 74.3,185.6 1.3,0.2 c -0.2,0.8 -0.6,1.3 -1.1,1.8 -0.6,0.4 -1.3,0.6 -2.1,0.6 -1.1,0 -1.9,-0.3 -2.6,-1 -0.6,-0.7 -1,-1.6 -1,-2.8 0,-1.2 0.3,-2.2 1,-2.9 0.6,-0.7 1.5,-1 2.5,-1 1,0 1.8,0.3 2.4,1 0.6,0.7 0.9,1.6 0.9,2.8 0,0.1 0,0.2 0,0.3 h -5.5 c 0,0.8 0.3,1.4 0.7,1.9 0.4,0.4 0.9,0.6 1.6,0.6 0.5,0 0.9,-0.1 1.2,-0.4 0.3,-0.2 0.5,-0.6 0.7,-1.1 z m -4.1,-2.1 h 4.1 c -0.1,-0.6 -0.2,-1.1 -0.5,-1.4 -0.4,-0.5 -0.9,-0.7 -1.6,-0.7 -0.6,0 -1.1,0.2 -1.5,0.6 -0.3,0.4 -0.5,0.9 -0.5,1.5 z"
                 id="path26880-4" />
            </g>
            <g
               id="g26882-9">
              <path
                 style="fill:#ffffff"
                 inkscape:connector-curvature="0"
                 class="st1"
                 d="m 76.7,185.7 1.2,-0.2 c 0.1,0.5 0.3,0.9 0.6,1.1 0.3,0.3 0.8,0.4 1.3,0.4 0.6,0 1,-0.1 1.3,-0.4 0.3,-0.2 0.4,-0.5 0.4,-0.8 0,-0.3 -0.1,-0.5 -0.4,-0.7 -0.2,-0.1 -0.6,-0.3 -1.3,-0.4 -0.9,-0.2 -1.6,-0.4 -1.9,-0.6 -0.4,-0.2 -0.6,-0.4 -0.8,-0.7 -0.2,-0.3 -0.3,-0.6 -0.3,-1 0,-0.3 0.1,-0.6 0.2,-0.9 0.2,-0.3 0.4,-0.5 0.6,-0.7 0.2,-0.1 0.5,-0.3 0.8,-0.4 0.3,-0.1 0.7,-0.2 1.1,-0.2 0.6,0 1.1,0.1 1.5,0.3 0.4,0.2 0.8,0.4 1,0.7 0.2,0.3 0.4,0.7 0.4,1.1 l -1.2,0.2 c -0.1,-0.4 -0.2,-0.7 -0.5,-0.9 -0.3,-0.2 -0.6,-0.3 -1.1,-0.3 -0.6,0 -1,0.1 -1.2,0.3 -0.2,0.2 -0.4,0.4 -0.4,0.7 0,0.2 0.1,0.3 0.2,0.4 0.1,0.1 0.3,0.2 0.5,0.3 0.1,0 0.5,0.2 1.1,0.3 0.9,0.2 1.5,0.4 1.9,0.6 0.4,0.2 0.6,0.4 0.8,0.7 0.2,0.3 0.3,0.6 0.3,1.1 0,0.4 -0.1,0.8 -0.4,1.2 -0.2,0.4 -0.6,0.7 -1.1,0.9 -0.5,0.2 -1,0.3 -1.6,0.3 -1,0 -1.7,-0.2 -2.2,-0.6 -0.5,-0.4 -0.7,-1 -0.8,-1.8 z"
                 id="path26884-5" />
            </g>
            <g
               id="g26886-0">
              <path
                 style="fill:#ffffff"
                 inkscape:connector-curvature="0"
                 class="st1"
                 d="m 87.1,186.8 0.2,1.1 c -0.4,0.1 -0.7,0.1 -0.9,0.1 -0.5,0 -0.8,-0.1 -1.1,-0.2 -0.3,-0.1 -0.4,-0.3 -0.5,-0.6 -0.1,-0.2 -0.2,-0.7 -0.2,-1.5 v -4.3 h -0.9 v -1 h 0.9 v -1.8 l 1.2,-0.8 v 2.6 h 1.3 v 1 h -1.3 v 4.3 c 0,0.4 0,0.6 0.1,0.7 0,0.1 0.1,0.2 0.2,0.2 0.1,0.1 0.2,0.1 0.4,0.1 0.2,0.2 0.3,0.2 0.6,0.1 z"
                 id="path26888-4" />
            </g>
            <g
               id="g26890-8">
              <path
                 style="fill:#ffffff"
                 inkscape:connector-curvature="0"
                 class="st1"
                 d="m 88.3,179.2 v -1.4 h 1.3 v 1.4 z m 0,8.7 v -7.4 h 1.3 v 7.4 z"
                 id="path26892-7" />
            </g>
            <g
               id="g26894-1">
              <path
                 style="fill:#ffffff"
                 inkscape:connector-curvature="0"
                 class="st1"
                 d="m 93.5,187.9 -2.8,-7.4 H 92 l 1.6,4.4 c 0.2,0.5 0.3,1 0.5,1.5 0.1,-0.4 0.3,-0.9 0.5,-1.4 l 1.6,-4.5 h 1.3 l -2.8,7.4 z"
                 id="path26896-7" />
            </g>
            <g
               id="g26898-2">
              <path
                 style="fill:#ffffff"
                 inkscape:connector-curvature="0"
                 class="st1"
                 d="m 103.5,187 c -0.5,0.4 -0.9,0.7 -1.3,0.8 -0.4,0.2 -0.9,0.2 -1.4,0.2 -0.8,0 -1.4,-0.2 -1.9,-0.6 -0.4,-0.4 -0.7,-0.9 -0.7,-1.5 0,-0.4 0.1,-0.7 0.2,-1 0.2,-0.3 0.4,-0.5 0.6,-0.7 0.3,-0.2 0.6,-0.3 0.9,-0.4 0.2,-0.1 0.6,-0.1 1.1,-0.2 1,-0.1 1.8,-0.3 2.2,-0.4 0,-0.2 0,-0.3 0,-0.3 0,-0.5 -0.1,-0.9 -0.4,-1.1 -0.3,-0.3 -0.8,-0.4 -1.4,-0.4 -0.6,0 -1,0.1 -1.3,0.3 -0.3,0.2 -0.5,0.6 -0.6,1.1 l -1.2,-0.2 c 0.1,-0.5 0.3,-1 0.6,-1.3 0.3,-0.3 0.6,-0.6 1.1,-0.7 0.5,-0.2 1,-0.3 1.7,-0.3 0.6,0 1.1,0.1 1.5,0.2 0.4,0.1 0.7,0.3 0.9,0.6 0.2,0.3 0.3,0.5 0.4,0.9 0,0.2 0.1,0.6 0.1,1.2 v 1.7 c 0,1.2 0,1.9 0.1,2.2 0.1,0.3 0.2,0.6 0.3,0.9 h -1.3 c -0.1,-0.3 -0.2,-0.6 -0.2,-1 z m -0.1,-2.8 c -0.5,0.2 -1.1,0.3 -2.1,0.5 -0.5,0.1 -0.9,0.2 -1.1,0.3 -0.2,0.1 -0.4,0.2 -0.5,0.4 -0.1,0.2 -0.2,0.4 -0.2,0.6 0,0.3 0.1,0.6 0.4,0.8 0.3,0.2 0.6,0.3 1.1,0.3 0.5,0 0.9,-0.1 1.3,-0.3 0.4,-0.2 0.7,-0.5 0.8,-0.9 0.1,-0.3 0.2,-0.7 0.2,-1.3 v -0.4 z"
                 id="path26900-7" />
            </g>
            <g
               id="g26902-2">
              <path
                 style="fill:#ffffff"
                 inkscape:connector-curvature="0"
                 class="st1"
                 d="m 106.6,187.9 v -10.2 h 1.3 v 10.2 z"
                 id="path26904-2" />
            </g>
            <g
               id="g26906-6">
              <path
                 style="fill:#ffffff"
                 inkscape:connector-curvature="0"
                 class="st1"
                 d="m 113.8,187.9 v -10.2 h 1.4 v 9 h 5 v 1.2 z"
                 id="path26908-1" />
            </g>
            <g
               id="g26910-0">
              <path
                 style="fill:#ffffff"
                 inkscape:connector-curvature="0"
                 class="st1"
                 d="m 126.5,187 c -0.5,0.4 -0.9,0.7 -1.3,0.8 -0.4,0.2 -0.9,0.2 -1.4,0.2 -0.8,0 -1.4,-0.2 -1.9,-0.6 -0.4,-0.4 -0.7,-0.9 -0.7,-1.5 0,-0.4 0.1,-0.7 0.2,-1 0.2,-0.3 0.4,-0.5 0.6,-0.7 0.3,-0.2 0.6,-0.3 0.9,-0.4 0.2,-0.1 0.6,-0.1 1.1,-0.2 1,-0.1 1.8,-0.3 2.2,-0.4 0,-0.2 0,-0.3 0,-0.3 0,-0.5 -0.1,-0.9 -0.4,-1.1 -0.3,-0.3 -0.8,-0.4 -1.4,-0.4 -0.6,0 -1,0.1 -1.3,0.3 -0.3,0.2 -0.5,0.6 -0.6,1.1 l -1.2,-0.2 c 0.1,-0.5 0.3,-1 0.6,-1.3 0.3,-0.3 0.6,-0.6 1.1,-0.7 0.5,-0.2 1,-0.3 1.7,-0.3 0.6,0 1.1,0.1 1.5,0.2 0.4,0.1 0.7,0.3 0.9,0.6 0.2,0.3 0.3,0.5 0.4,0.9 0,0.2 0.1,0.6 0.1,1.2 v 1.7 c 0,1.2 0,1.9 0.1,2.2 0.1,0.3 0.2,0.6 0.3,0.9 h -1.3 c -0.1,-0.3 -0.1,-0.6 -0.2,-1 z m -0.1,-2.8 c -0.5,0.2 -1.1,0.3 -2.1,0.5 -0.5,0.1 -0.9,0.2 -1.1,0.3 -0.2,0.1 -0.4,0.2 -0.5,0.4 -0.1,0.2 -0.2,0.4 -0.2,0.6 0,0.3 0.1,0.6 0.4,0.8 0.3,0.2 0.6,0.3 1.1,0.3 0.5,0 0.9,-0.1 1.3,-0.3 0.4,-0.2 0.7,-0.5 0.8,-0.9 0.1,-0.3 0.2,-0.7 0.2,-1.3 v -0.4 z"
                 id="path26912-6" />
            </g>
            <g
               id="g26914-1">
              <path
                 style="fill:#ffffff"
                 inkscape:connector-curvature="0"
                 class="st1"
                 d="m 132.4,186.8 0.2,1.1 c -0.4,0.1 -0.7,0.1 -0.9,0.1 -0.5,0 -0.8,-0.1 -1.1,-0.2 -0.3,-0.1 -0.4,-0.3 -0.5,-0.6 -0.1,-0.2 -0.2,-0.7 -0.2,-1.5 v -4.3 H 129 v -1 h 0.9 v -1.8 l 1.2,-0.8 v 2.6 h 1.3 v 1 h -1.3 v 4.3 c 0,0.4 0,0.6 0.1,0.7 0,0.1 0.1,0.2 0.2,0.2 0.1,0.1 0.2,0.1 0.4,0.1 0.2,0.2 0.4,0.2 0.6,0.1 z"
                 id="path26916-5" />
            </g>
            <g
               id="g26918-9">
              <path
                 style="fill:#ffffff"
                 inkscape:connector-curvature="0"
                 class="st1"
                 d="m 133.6,179.2 v -1.4 h 1.3 v 1.4 z m 0,8.7 v -7.4 h 1.3 v 7.4 z"
                 id="path26920-4" />
            </g>
            <g
               id="g26922-9">
              <path
                 style="fill:#ffffff"
                 inkscape:connector-curvature="0"
                 class="st1"
                 d="m 136.8,187.9 v -7.4 h 1.1 v 1.1 c 0.5,-0.8 1.3,-1.2 2.4,-1.2 0.4,0 0.9,0.1 1.2,0.2 0.4,0.2 0.7,0.4 0.8,0.6 0.2,0.3 0.3,0.6 0.4,0.9 0,0.2 0.1,0.6 0.1,1.2 v 4.6 h -1.3 v -4.5 c 0,-0.5 0,-0.9 -0.1,-1.1 -0.1,-0.2 -0.3,-0.5 -0.5,-0.6 -0.2,-0.2 -0.5,-0.2 -0.9,-0.2 -0.5,0 -1,0.2 -1.4,0.5 -0.4,0.3 -0.6,1 -0.6,1.9 v 4.1 h -1.2 z"
                 id="path26924-0" />
            </g>
            <g
               id="g26926-9">
              <path
                 style="fill:#ffffff"
                 inkscape:connector-curvature="0"
                 class="st1"
                 d="m 144.3,184.2 c 0,-1.4 0.4,-2.4 1.1,-3.1 0.6,-0.5 1.4,-0.8 2.3,-0.8 1,0 1.9,0.3 2.5,1 0.6,0.7 1,1.6 1,2.8 0,1 -0.1,1.7 -0.4,2.3 -0.3,0.5 -0.7,1 -1.2,1.3 -0.5,0.3 -1.1,0.5 -1.8,0.5 -1,0 -1.9,-0.3 -2.5,-1 -0.7,-0.8 -1,-1.7 -1,-3 z m 1.3,0 c 0,0.9 0.2,1.7 0.6,2.1 0.4,0.5 0.9,0.7 1.6,0.7 0.6,0 1.1,-0.2 1.6,-0.7 0.4,-0.5 0.6,-1.2 0.6,-2.2 0,-0.9 -0.2,-1.6 -0.6,-2.1 -0.4,-0.5 -0.9,-0.7 -1.6,-0.7 -0.6,0 -1.1,0.2 -1.6,0.7 -0.4,0.6 -0.6,1.3 -0.6,2.2 z"
                 id="path26928-1" />
            </g>
            <g
               id="g26930-7">
              <path
                 style="fill:#ffffff"
                 inkscape:connector-curvature="0"
                 class="st1"
                 d="m 152.2,184.9 v -1.3 h 3.9 v 1.3 z"
                 id="path26932-7" />
            </g>
            <g
               id="g26934-1">
              <path
                 style="fill:#ffffff"
                 inkscape:connector-curvature="0"
                 class="st1"
                 d="m 162.3,187 c -0.5,0.4 -0.9,0.7 -1.3,0.8 -0.4,0.2 -0.9,0.2 -1.4,0.2 -0.8,0 -1.4,-0.2 -1.9,-0.6 -0.4,-0.4 -0.7,-0.9 -0.7,-1.5 0,-0.4 0.1,-0.7 0.2,-1 0.2,-0.3 0.4,-0.5 0.6,-0.7 0.3,-0.2 0.6,-0.3 0.9,-0.4 0.2,-0.1 0.6,-0.1 1.1,-0.2 1,-0.1 1.8,-0.3 2.2,-0.4 0,-0.2 0,-0.3 0,-0.3 0,-0.5 -0.1,-0.9 -0.4,-1.1 -0.3,-0.3 -0.8,-0.4 -1.4,-0.4 -0.6,0 -1,0.1 -1.3,0.3 -0.3,0.2 -0.5,0.6 -0.6,1.1 l -1.2,-0.2 c 0.1,-0.5 0.3,-1 0.6,-1.3 0.3,-0.3 0.6,-0.6 1.1,-0.7 0.5,-0.2 1,-0.3 1.7,-0.3 0.6,0 1.1,0.1 1.5,0.2 0.4,0.1 0.7,0.3 0.9,0.6 0.2,0.2 0.3,0.5 0.4,0.9 0,0.2 0.1,0.6 0.1,1.2 v 1.7 c 0,1.2 0,1.9 0.1,2.2 0.1,0.3 0.2,0.6 0.3,0.9 h -1.3 c -0.1,-0.3 -0.2,-0.6 -0.2,-1 z m -0.1,-2.8 c -0.5,0.2 -1.1,0.3 -2.1,0.5 -0.5,0.1 -0.9,0.2 -1.1,0.3 -0.2,0.1 -0.4,0.2 -0.5,0.4 -0.1,0.2 -0.2,0.4 -0.2,0.6 0,0.3 0.1,0.6 0.4,0.8 0.3,0.2 0.6,0.3 1.1,0.3 0.5,0 0.9,-0.1 1.3,-0.3 0.4,-0.2 0.7,-0.5 0.8,-0.9 0.1,-0.3 0.2,-0.7 0.2,-1.3 v -0.4 z"
                 id="path26936-1" />
            </g>
            <g
               id="g26938-5">
              <path
                 style="fill:#ffffff"
                 inkscape:connector-curvature="0"
                 class="st1"
                 d="m 165.4,187.9 v -7.4 h 1.1 v 1 c 0.2,-0.4 0.5,-0.7 0.9,-0.9 0.4,-0.2 0.8,-0.3 1.3,-0.3 0.5,0 1,0.1 1.4,0.3 0.4,0.2 0.6,0.5 0.7,1 0.6,-0.9 1.4,-1.3 2.3,-1.3 0.7,0 1.3,0.2 1.7,0.6 0.4,0.4 0.6,1 0.6,1.9 v 5.1 h -1.2 v -4.7 c 0,-0.5 0,-0.9 -0.1,-1.1 -0.1,-0.2 -0.2,-0.4 -0.4,-0.5 -0.2,-0.1 -0.5,-0.2 -0.8,-0.2 -0.5,0 -1,0.2 -1.3,0.5 -0.3,0.3 -0.5,0.9 -0.5,1.7 v 4.3 h -1.3 v -4.8 c 0,-0.6 -0.1,-1 -0.3,-1.3 -0.2,-0.3 -0.5,-0.4 -1,-0.4 -0.4,0 -0.7,0.1 -1,0.3 -0.3,0.2 -0.5,0.5 -0.7,0.8 -0.1,0.4 -0.2,0.9 -0.2,1.6 v 3.8 z"
                 id="path26940-9" />
            </g>
            <g
               id="g26942-7">
              <path
                 style="fill:#ffffff"
                 inkscape:connector-curvature="0"
                 class="st1"
                 d="m 182.4,185.6 1.3,0.2 c -0.2,0.8 -0.6,1.3 -1.1,1.8 -0.6,0.4 -1.3,0.6 -2.1,0.6 -1.1,0 -1.9,-0.3 -2.6,-1 -0.6,-0.7 -1,-1.6 -1,-2.8 0,-1.2 0.3,-2.2 1,-2.9 0.6,-0.7 1.5,-1 2.5,-1 1,0 1.8,0.3 2.4,1 0.6,0.7 0.9,1.6 0.9,2.8 0,0.1 0,0.2 0,0.3 h -5.5 c 0,0.8 0.3,1.4 0.7,1.9 0.4,0.4 0.9,0.6 1.6,0.6 0.5,0 0.9,-0.1 1.2,-0.4 0.2,-0.2 0.5,-0.6 0.7,-1.1 z m -4.1,-2.1 h 4.1 c -0.1,-0.6 -0.2,-1.1 -0.5,-1.4 -0.4,-0.5 -0.9,-0.7 -1.6,-0.7 -0.6,0 -1.1,0.2 -1.5,0.6 -0.3,0.4 -0.5,0.9 -0.5,1.5 z"
                 id="path26944-7" />
            </g>
            <g
               id="g26946-6">
              <path
                 style="fill:#ffffff"
                 inkscape:connector-curvature="0"
                 class="st1"
                 d="m 185.3,187.9 v -7.4 h 1.1 v 1.1 c 0.3,-0.5 0.6,-0.9 0.8,-1 0.2,-0.2 0.5,-0.3 0.8,-0.3 0.4,0 0.9,0.1 1.3,0.4 l -0.4,1.2 c -0.3,-0.2 -0.6,-0.3 -0.9,-0.3 -0.3,0 -0.5,0.1 -0.7,0.2 -0.2,0.2 -0.4,0.4 -0.5,0.7 -0.1,0.4 -0.2,0.9 -0.2,1.5 v 3.9 z"
                 id="path26948-7" />
            </g>
            <g
               id="g26950-3">
              <path
                 style="fill:#ffffff"
                 inkscape:connector-curvature="0"
                 class="st1"
                 d="m 190,179.2 v -1.4 h 1.3 v 1.4 z m 0,8.7 v -7.4 h 1.3 v 7.4 z"
                 id="path26952-6" />
            </g>
            <g
               id="g26954-5">
              <path
                 style="fill:#ffffff"
                 inkscape:connector-curvature="0"
                 class="st1"
                 d="m 198.1,185.2 1.2,0.2 c -0.1,0.9 -0.5,1.5 -1,2 -0.6,0.5 -1.2,0.7 -2,0.7 -1,0 -1.8,-0.3 -2.4,-1 -0.6,-0.7 -0.9,-1.6 -0.9,-2.9 0,-0.8 0.1,-1.5 0.4,-2.1 0.3,-0.6 0.7,-1.1 1.2,-1.4 0.5,-0.3 1.1,-0.5 1.8,-0.5 0.8,0 1.5,0.2 2,0.6 0.5,0.4 0.8,1 1,1.7 l -1.2,0.2 c -0.1,-0.5 -0.3,-0.9 -0.6,-1.1 -0.3,-0.3 -0.7,-0.4 -1.1,-0.4 -0.6,0 -1.1,0.2 -1.5,0.7 -0.4,0.5 -0.6,1.2 -0.6,2.2 0,1 0.2,1.7 0.6,2.2 0.4,0.5 0.9,0.7 1.5,0.7 0.5,0 0.9,-0.2 1.2,-0.5 0.1,-0.2 0.3,-0.6 0.4,-1.3 z"
                 id="path26956-6" />
            </g>
            <g
               id="g26958-3">
              <path
                 style="fill:#ffffff"
                 inkscape:connector-curvature="0"
                 class="st1"
                 d="m 205.2,187 c -0.5,0.4 -0.9,0.7 -1.3,0.8 -0.4,0.2 -0.9,0.2 -1.4,0.2 -0.8,0 -1.4,-0.2 -1.9,-0.6 -0.4,-0.4 -0.7,-0.9 -0.7,-1.5 0,-0.4 0.1,-0.7 0.2,-1 0.2,-0.3 0.4,-0.5 0.6,-0.7 0.3,-0.2 0.6,-0.3 0.9,-0.4 0.2,-0.1 0.6,-0.1 1.1,-0.2 1,-0.1 1.8,-0.3 2.2,-0.4 0,-0.2 0,-0.3 0,-0.3 0,-0.5 -0.1,-0.9 -0.4,-1.1 -0.3,-0.3 -0.8,-0.4 -1.4,-0.4 -0.6,0 -1,0.1 -1.3,0.3 -0.3,0.2 -0.5,0.6 -0.6,1.1 l -1.2,-0.2 c 0.1,-0.5 0.3,-1 0.6,-1.3 0.3,-0.3 0.6,-0.6 1.1,-0.7 0.5,-0.2 1,-0.3 1.7,-0.3 0.6,0 1.1,0.1 1.5,0.2 0.4,0.1 0.7,0.3 0.9,0.6 0.2,0.2 0.3,0.5 0.4,0.9 0,0.2 0.1,0.6 0.1,1.2 v 1.7 c 0,1.2 0,1.9 0.1,2.2 0.1,0.3 0.2,0.6 0.3,0.9 h -1.3 c -0.1,-0.3 -0.2,-0.6 -0.2,-1 z m -0.1,-2.8 c -0.5,0.2 -1.1,0.3 -2.1,0.5 -0.5,0.1 -0.9,0.2 -1.1,0.3 -0.2,0.1 -0.4,0.2 -0.5,0.4 -0.1,0.2 -0.2,0.4 -0.2,0.6 0,0.3 0.1,0.6 0.4,0.8 0.3,0.2 0.6,0.3 1.1,0.3 0.5,0 0.9,-0.1 1.3,-0.3 0.4,-0.2 0.7,-0.5 0.8,-0.9 0.1,-0.3 0.2,-0.7 0.2,-1.3 v -0.4 z"
                 id="path26960-9" />
            </g>
            <g
               id="g26962-4">
              <path
                 style="fill:#ffffff"
                 inkscape:connector-curvature="0"
                 class="st1"
                 d="m 208.3,187.9 v -7.4 h 1.1 v 1.1 c 0.5,-0.8 1.3,-1.2 2.4,-1.2 0.4,0 0.9,0.1 1.2,0.2 0.4,0.2 0.7,0.4 0.8,0.6 0.2,0.3 0.3,0.6 0.4,0.9 0,0.2 0.1,0.6 0.1,1.2 v 4.6 H 213 v -4.5 c 0,-0.5 0,-0.9 -0.1,-1.1 -0.1,-0.2 -0.3,-0.5 -0.5,-0.6 -0.2,-0.2 -0.5,-0.2 -0.9,-0.2 -0.5,0 -1,0.2 -1.4,0.5 -0.4,0.3 -0.6,1 -0.6,1.9 v 4.1 h -1.2 z"
                 id="path26964-8" />
            </g>
            <g
               id="g26966-1">
              <path
                 style="fill:#ffffff"
                 inkscape:connector-curvature="0"
                 class="st1"
                 d="m 215.8,184.2 c 0,-1.4 0.4,-2.4 1.1,-3.1 0.6,-0.5 1.4,-0.8 2.3,-0.8 1,0 1.9,0.3 2.5,1 0.6,0.7 1,1.6 1,2.8 0,1 -0.1,1.7 -0.4,2.3 -0.3,0.5 -0.7,1 -1.2,1.3 -0.5,0.3 -1.1,0.5 -1.8,0.5 -1,0 -1.9,-0.3 -2.5,-1 -0.7,-0.8 -1,-1.7 -1,-3 z m 1.3,0 c 0,0.9 0.2,1.7 0.6,2.1 0.4,0.5 0.9,0.7 1.6,0.7 0.6,0 1.1,-0.2 1.6,-0.7 0.4,-0.5 0.6,-1.2 0.6,-2.2 0,-0.9 -0.2,-1.6 -0.6,-2.1 -0.4,-0.5 -0.9,-0.7 -1.6,-0.7 -0.6,0 -1.1,0.2 -1.6,0.7 -0.4,0.6 -0.6,1.3 -0.6,2.2 z"
                 id="path26968-2" />
            </g>
            <g
               id="g26970-9">
              <path
                 style="fill:#ffffff"
                 inkscape:connector-curvature="0"
                 class="st1"
                 d="M 233,187.9 V 187 c -0.5,0.7 -1.2,1.1 -2.1,1.1 -0.6,0 -1.1,-0.2 -1.6,-0.5 -0.5,-0.3 -0.9,-0.8 -1.2,-1.4 -0.3,-0.6 -0.4,-1.3 -0.4,-2 0,-0.7 0.1,-1.4 0.4,-2 0.2,-0.6 0.6,-1.1 1.1,-1.4 0.5,-0.3 1,-0.5 1.7,-0.5 0.4,0 0.8,0.1 1.2,0.3 0.3,0.2 0.6,0.4 0.9,0.7 v -3.7 h 1.2 v 10.2 H 233 Z m -4,-3.7 c 0,0.9 0.2,1.7 0.6,2.1 0.4,0.5 0.9,0.7 1.4,0.7 0.5,0 1,-0.2 1.4,-0.7 0.4,-0.4 0.6,-1.1 0.6,-2.1 0,-1 -0.2,-1.8 -0.6,-2.2 -0.4,-0.5 -0.9,-0.7 -1.4,-0.7 -0.6,0 -1,0.2 -1.4,0.7 -0.4,0.5 -0.6,1.3 -0.6,2.2 z"
                 id="path26972-3" />
            </g>
            <g
               id="g26974-9">
              <path
                 style="fill:#ffffff"
                 inkscape:connector-curvature="0"
                 class="st1"
                 d="m 241.2,185.6 1.3,0.2 c -0.2,0.8 -0.6,1.3 -1.1,1.8 -0.6,0.4 -1.3,0.6 -2.1,0.6 -1.1,0 -1.9,-0.3 -2.6,-1 -0.6,-0.7 -1,-1.6 -1,-2.8 0,-1.2 0.3,-2.2 1,-2.9 0.6,-0.7 1.5,-1 2.5,-1 1,0 1.8,0.3 2.4,1 0.6,0.7 0.9,1.6 0.9,2.8 0,0.1 0,0.2 0,0.3 H 237 c 0,0.8 0.3,1.4 0.7,1.9 0.4,0.4 0.9,0.6 1.6,0.6 0.5,0 0.9,-0.1 1.2,-0.4 0.3,-0.2 0.5,-0.6 0.7,-1.1 z m -4.1,-2.1 h 4.1 c -0.1,-0.6 -0.2,-1.1 -0.5,-1.4 -0.4,-0.5 -0.9,-0.7 -1.6,-0.7 -0.6,0 -1.1,0.2 -1.5,0.6 -0.2,0.4 -0.5,0.9 -0.5,1.5 z"
                 id="path26976-0" />
            </g>
          </g>
          <g
             transform="matrix(0.28227167,0,0,0.28227167,25.717877,-147.84088)"
             style="enable-background:new"
             class="st421"
             id="g26978-8">
            <g
               id="g26980-8">
              <path
                 style="fill:#ffffff"
                 inkscape:connector-curvature="0"
                 class="st1"
                 d="M 64,207.2 V 197 h 1.4 v 10.2 z"
                 id="path26982-5" />
            </g>
            <g
               id="g26984-0">
              <path
                 style="fill:#ffffff"
                 inkscape:connector-curvature="0"
                 class="st1"
                 d="m 67.6,207.2 v -7.4 h 1.1 v 1.1 c 0.5,-0.8 1.3,-1.2 2.4,-1.2 0.4,0 0.9,0.1 1.2,0.2 0.4,0.2 0.7,0.4 0.8,0.6 0.2,0.3 0.3,0.6 0.4,0.9 0,0.2 0.1,0.6 0.1,1.2 v 4.6 h -1.3 v -4.5 c 0,-0.5 0,-0.9 -0.1,-1.1 -0.1,-0.2 -0.3,-0.5 -0.5,-0.6 -0.2,-0.2 -0.5,-0.2 -0.9,-0.2 -0.5,0 -1,0.2 -1.4,0.5 -0.4,0.3 -0.6,1 -0.6,1.9 v 4.1 h -1.2 z"
                 id="path26986-9" />
            </g>
            <g
               id="g26988-6">
              <path
                 style="fill:#ffffff"
                 inkscape:connector-curvature="0"
                 class="st1"
                 d="m 75.1,205 1.2,-0.2 c 0.1,0.5 0.3,0.9 0.6,1.1 0.3,0.3 0.8,0.4 1.3,0.4 0.6,0 1,-0.1 1.3,-0.4 0.3,-0.2 0.4,-0.5 0.4,-0.8 0,-0.3 -0.1,-0.5 -0.4,-0.7 -0.2,-0.1 -0.6,-0.3 -1.3,-0.4 -0.9,-0.2 -1.6,-0.4 -1.9,-0.6 -0.4,-0.2 -0.6,-0.4 -0.8,-0.7 -0.2,-0.3 -0.3,-0.6 -0.3,-1 0,-0.3 0.1,-0.6 0.2,-0.9 0.2,-0.3 0.4,-0.5 0.6,-0.7 0.2,-0.1 0.5,-0.3 0.8,-0.4 0.3,-0.1 0.7,-0.2 1.1,-0.2 0.6,0 1.1,0.1 1.5,0.3 0.4,0.2 0.8,0.4 1,0.7 0.2,0.3 0.4,0.7 0.4,1.1 l -1.2,0.2 c -0.1,-0.4 -0.2,-0.7 -0.5,-0.9 -0.3,-0.2 -0.6,-0.3 -1.1,-0.3 -0.6,0 -1,0.1 -1.2,0.3 -0.2,0.2 -0.4,0.4 -0.4,0.7 0,0.2 0.1,0.3 0.2,0.4 0.1,0.1 0.3,0.2 0.5,0.3 0.1,0 0.5,0.2 1.1,0.3 0.9,0.2 1.5,0.4 1.9,0.6 0.4,0.2 0.6,0.4 0.8,0.7 0.2,0.3 0.3,0.6 0.3,1.1 0,0.4 -0.1,0.8 -0.4,1.2 -0.2,0.4 -0.6,0.7 -1.1,0.9 -0.5,0.2 -1,0.3 -1.6,0.3 -1,0 -1.7,-0.2 -2.2,-0.6 -0.5,-0.4 -0.7,-1 -0.8,-1.8 z"
                 id="path26990-3" />
            </g>
            <g
               id="g26992-8">
              <path
                 style="fill:#ffffff"
                 inkscape:connector-curvature="0"
                 class="st1"
                 d="m 85.5,206.1 0.2,1.1 c -0.4,0.1 -0.7,0.1 -0.9,0.1 -0.5,0 -0.8,-0.1 -1.1,-0.2 -0.3,-0.1 -0.4,-0.3 -0.5,-0.6 C 83.1,206.3 83,205.8 83,205 v -4.3 h -1 v -1 h 1 V 198 l 1.2,-0.8 v 2.6 h 1.3 v 1 h -1.3 v 4.3 c 0,0.4 0,0.6 0.1,0.7 0,0.1 0.1,0.2 0.2,0.2 0.1,0.1 0.2,0.1 0.4,0.1 0.2,0.1 0.4,0 0.6,0 z"
                 id="path26994-5" />
            </g>
            <g
               id="g26996-6">
              <path
                 style="fill:#ffffff"
                 inkscape:connector-curvature="0"
                 class="st1"
                 d="m 91.5,206.3 c -0.5,0.4 -0.9,0.7 -1.3,0.8 -0.4,0.2 -0.9,0.2 -1.4,0.2 -0.8,0 -1.4,-0.2 -1.9,-0.6 -0.4,-0.4 -0.7,-0.9 -0.7,-1.5 0,-0.4 0.1,-0.7 0.2,-1 0.1,-0.3 0.4,-0.5 0.6,-0.7 0.3,-0.2 0.6,-0.3 0.9,-0.4 0.2,-0.1 0.6,-0.1 1.1,-0.2 1,-0.1 1.8,-0.3 2.2,-0.4 0,-0.2 0,-0.3 0,-0.3 0,-0.5 -0.1,-0.9 -0.4,-1.1 -0.3,-0.3 -0.8,-0.4 -1.4,-0.4 -0.6,0 -1,0.1 -1.3,0.3 -0.3,0.2 -0.5,0.6 -0.6,1.1 l -1.2,-0.2 c 0.1,-0.5 0.3,-1 0.6,-1.3 0.3,-0.3 0.6,-0.6 1.1,-0.7 0.5,-0.2 1,-0.3 1.7,-0.3 0.6,0 1.1,0.1 1.5,0.2 0.4,0.1 0.7,0.3 0.9,0.6 0.2,0.2 0.3,0.5 0.4,0.9 0,0.2 0.1,0.6 0.1,1.2 v 1.7 c 0,1.2 0,1.9 0.1,2.2 0.1,0.3 0.2,0.6 0.3,0.9 h -1.3 c 0,-0.3 -0.1,-0.6 -0.2,-1 z m -0.1,-2.8 c -0.5,0.2 -1.1,0.3 -2.1,0.5 -0.5,0.1 -0.9,0.2 -1.1,0.3 -0.2,0.1 -0.4,0.2 -0.5,0.4 -0.1,0.2 -0.2,0.4 -0.2,0.6 0,0.3 0.1,0.6 0.4,0.8 0.3,0.2 0.6,0.3 1.1,0.3 0.5,0 0.9,-0.1 1.3,-0.3 0.4,-0.2 0.7,-0.5 0.8,-0.9 0.1,-0.3 0.2,-0.7 0.2,-1.3 v -0.4 z"
                 id="path26998-1" />
            </g>
            <g
               id="g27000-1">
              <path
                 style="fill:#ffffff"
                 inkscape:connector-curvature="0"
                 class="st1"
                 d="M 94.6,207.2 V 197 h 1.3 v 10.2 z"
                 id="path27002-5" />
            </g>
            <g
               id="g27004-9">
              <path
                 style="fill:#ffffff"
                 inkscape:connector-curvature="0"
                 class="st1"
                 d="m 102.7,206.3 c -0.5,0.4 -0.9,0.7 -1.3,0.8 -0.4,0.2 -0.9,0.2 -1.4,0.2 -0.8,0 -1.4,-0.2 -1.9,-0.6 -0.4,-0.4 -0.7,-0.9 -0.7,-1.5 0,-0.4 0.1,-0.7 0.2,-1 0.2,-0.3 0.4,-0.5 0.6,-0.7 0.3,-0.2 0.6,-0.3 0.9,-0.4 0.2,-0.1 0.6,-0.1 1.1,-0.2 1,-0.1 1.8,-0.3 2.2,-0.4 0,-0.2 0,-0.3 0,-0.3 0,-0.5 -0.1,-0.9 -0.4,-1.1 -0.3,-0.3 -0.8,-0.4 -1.4,-0.4 -0.6,0 -1,0.1 -1.3,0.3 -0.3,0.2 -0.5,0.6 -0.6,1.1 l -1.2,-0.2 c 0.1,-0.5 0.3,-1 0.6,-1.3 0.3,-0.3 0.6,-0.6 1.1,-0.7 0.5,-0.2 1,-0.3 1.7,-0.3 0.6,0 1.1,0.1 1.5,0.2 0.4,0.1 0.7,0.3 0.9,0.6 0.2,0.3 0.3,0.5 0.4,0.9 0,0.2 0.1,0.6 0.1,1.2 v 1.7 c 0,1.2 0,1.9 0.1,2.2 0.1,0.3 0.2,0.6 0.3,0.9 h -1.3 c -0.1,-0.3 -0.2,-0.6 -0.2,-1 z m -0.1,-2.8 c -0.5,0.2 -1.1,0.3 -2.1,0.5 -0.5,0.1 -0.9,0.2 -1.1,0.3 -0.2,0.1 -0.4,0.2 -0.5,0.4 -0.1,0.2 -0.2,0.4 -0.2,0.6 0,0.3 0.1,0.6 0.4,0.8 0.3,0.2 0.6,0.3 1.1,0.3 0.5,0 0.9,-0.1 1.3,-0.3 0.4,-0.2 0.7,-0.5 0.8,-0.9 0.1,-0.3 0.2,-0.7 0.2,-1.3 v -0.4 z"
                 id="path27006-8" />
            </g>
            <g
               id="g27008-4">
              <path
                 style="fill:#ffffff"
                 inkscape:connector-curvature="0"
                 class="st1"
                 d="m 110.6,204.5 1.2,0.2 c -0.1,0.9 -0.5,1.5 -1,2 -0.6,0.5 -1.2,0.7 -2,0.7 -1,0 -1.8,-0.3 -2.4,-1 -0.6,-0.7 -0.9,-1.6 -0.9,-2.9 0,-0.8 0.1,-1.5 0.4,-2.1 0.3,-0.6 0.7,-1.1 1.2,-1.4 0.5,-0.3 1.1,-0.5 1.8,-0.5 0.8,0 1.5,0.2 2,0.6 0.5,0.4 0.8,1 1,1.7 l -1.2,0.2 c -0.1,-0.5 -0.3,-0.9 -0.6,-1.1 -0.3,-0.3 -0.7,-0.4 -1.1,-0.4 -0.6,0 -1.1,0.2 -1.5,0.7 -0.4,0.5 -0.6,1.2 -0.6,2.2 0,1 0.2,1.7 0.6,2.2 0.4,0.5 0.9,0.7 1.5,0.7 0.5,0 0.9,-0.2 1.2,-0.5 0.1,-0.2 0.3,-0.7 0.4,-1.3 z m -2.9,3.7 0.4,-1.2 h 0.9 l -0.2,0.7 c 0.4,0 0.7,0.2 0.9,0.4 0.2,0.2 0.3,0.4 0.3,0.7 0,0.3 -0.2,0.7 -0.5,0.9 -0.3,0.3 -0.8,0.4 -1.5,0.4 -0.4,0 -0.7,0 -1,-0.1 l 0.1,-0.8 c 0.3,0 0.5,0 0.7,0 0.4,0 0.7,-0.1 0.9,-0.2 0.1,-0.1 0.2,-0.2 0.2,-0.3 0,-0.1 0,-0.2 -0.1,-0.2 -0.1,-0.1 -0.2,-0.1 -0.3,-0.2 -0.2,-0.1 -0.4,-0.1 -0.8,-0.1 z"
                 id="path27010-8" />
            </g>
            <g
               id="g27012-1">
              <path
                 style="fill:#ffffff"
                 inkscape:connector-curvature="0"
                 class="st1"
                 d="m 117.8,206.3 c -0.5,0.4 -0.9,0.7 -1.3,0.8 -0.4,0.2 -0.9,0.2 -1.4,0.2 -0.8,0 -1.4,-0.2 -1.9,-0.6 -0.4,-0.4 -0.7,-0.9 -0.7,-1.5 0,-0.4 0.1,-0.7 0.2,-1 0.2,-0.3 0.4,-0.5 0.6,-0.7 0.3,-0.2 0.6,-0.3 0.9,-0.4 0.2,-0.1 0.6,-0.1 1.1,-0.2 1,-0.1 1.8,-0.3 2.2,-0.4 0,-0.2 0,-0.3 0,-0.3 0,-0.5 -0.1,-0.9 -0.4,-1.1 -0.3,-0.3 -0.8,-0.4 -1.4,-0.4 -0.6,0 -1,0.1 -1.3,0.3 -0.3,0.2 -0.5,0.6 -0.6,1.1 l -1.2,-0.2 c 0.1,-0.5 0.3,-1 0.6,-1.3 0.3,-0.3 0.6,-0.6 1.1,-0.7 0.5,-0.2 1,-0.3 1.7,-0.3 0.6,0 1.1,0.1 1.5,0.2 0.4,0.1 0.7,0.3 0.9,0.6 0.2,0.3 0.3,0.5 0.4,0.9 0,0.2 0.1,0.6 0.1,1.2 v 1.7 c 0,1.2 0,1.9 0.1,2.2 0.1,0.3 0.2,0.6 0.3,0.9 H 118 c -0.1,-0.3 -0.2,-0.6 -0.2,-1 z m -4.2,-7.6 c 0,-0.5 0.1,-0.9 0.4,-1.2 0.3,-0.3 0.6,-0.4 1,-0.4 0.3,0 0.7,0.1 1.2,0.4 0.3,0.1 0.5,0.2 0.7,0.2 0.1,0 0.3,0 0.3,-0.1 0.1,-0.1 0.1,-0.2 0.2,-0.5 h 0.9 c 0,0.5 -0.1,0.9 -0.4,1.2 -0.3,0.3 -0.6,0.4 -1,0.4 -0.3,0 -0.7,-0.1 -1.2,-0.4 -0.3,-0.2 -0.5,-0.3 -0.7,-0.3 -0.2,0 -0.3,0.1 -0.4,0.2 -0.1,0.1 -0.2,0.3 -0.1,0.5 z m 4.1,4.8 c -0.5,0.2 -1.1,0.3 -2.1,0.5 -0.5,0.1 -0.9,0.2 -1.1,0.3 -0.2,0.1 -0.4,0.2 -0.5,0.4 -0.1,0.2 -0.2,0.4 -0.2,0.6 0,0.3 0.1,0.6 0.4,0.8 0.3,0.2 0.6,0.3 1.1,0.3 0.5,0 0.9,-0.1 1.3,-0.3 0.4,-0.2 0.7,-0.5 0.8,-0.9 0.1,-0.3 0.2,-0.7 0.2,-1.3 v -0.4 z"
                 id="path27014-0" />
            </g>
            <g
               id="g27016-3">
              <path
                 style="fill:#ffffff"
                 inkscape:connector-curvature="0"
                 class="st1"
                 d="m 120.4,203.5 c 0,-1.4 0.4,-2.4 1.1,-3.1 0.6,-0.5 1.4,-0.8 2.3,-0.8 1,0 1.9,0.3 2.5,1 0.6,0.7 1,1.6 1,2.8 0,1 -0.1,1.7 -0.4,2.3 -0.3,0.5 -0.7,1 -1.2,1.3 -0.5,0.3 -1.1,0.5 -1.8,0.5 -1,0 -1.9,-0.3 -2.5,-1 -0.7,-0.8 -1,-1.7 -1,-3 z m 1.3,0 c 0,0.9 0.2,1.7 0.6,2.1 0.4,0.5 0.9,0.7 1.6,0.7 0.6,0 1.1,-0.2 1.6,-0.7 0.4,-0.5 0.6,-1.2 0.6,-2.2 0,-0.9 -0.2,-1.6 -0.6,-2.1 -0.4,-0.5 -0.9,-0.7 -1.6,-0.7 -0.6,0 -1.1,0.2 -1.6,0.7 -0.4,0.6 -0.6,1.3 -0.6,2.2 z"
                 id="path27018-0" />
            </g>
            <g
               id="g27020-4">
              <path
                 style="fill:#ffffff"
                 inkscape:connector-curvature="0"
                 class="st1"
                 d="m 137.6,207.2 v -0.9 c -0.5,0.7 -1.2,1.1 -2.1,1.1 -0.6,0 -1.1,-0.2 -1.6,-0.5 -0.5,-0.3 -0.9,-0.8 -1.2,-1.4 -0.3,-0.6 -0.4,-1.3 -0.4,-2 0,-0.7 0.1,-1.4 0.4,-2 0.2,-0.6 0.6,-1.1 1.1,-1.4 0.5,-0.3 1,-0.5 1.7,-0.5 0.4,0 0.8,0.1 1.2,0.3 0.3,0.2 0.6,0.4 0.9,0.7 V 197 h 1.2 v 10.2 z m -3.9,-3.7 c 0,0.9 0.2,1.7 0.6,2.1 0.4,0.5 0.9,0.7 1.4,0.7 0.5,0 1,-0.2 1.4,-0.7 0.4,-0.4 0.6,-1.1 0.6,-2.1 0,-1 -0.2,-1.8 -0.6,-2.2 -0.4,-0.5 -0.9,-0.7 -1.4,-0.7 -0.6,0 -1,0.2 -1.4,0.7 -0.5,0.5 -0.6,1.2 -0.6,2.2 z"
                 id="path27022-4" />
            </g>
            <g
               id="g27024-4">
              <path
                 style="fill:#ffffff"
                 inkscape:connector-curvature="0"
                 class="st1"
                 d="m 145.9,204.8 1.3,0.2 c -0.2,0.8 -0.6,1.3 -1.1,1.8 -0.6,0.4 -1.3,0.6 -2.1,0.6 -1.1,0 -1.9,-0.3 -2.6,-1 -0.6,-0.7 -1,-1.6 -1,-2.8 0,-1.2 0.3,-2.2 1,-2.9 0.6,-0.7 1.5,-1 2.5,-1 1,0 1.8,0.3 2.4,1 0.6,0.7 0.9,1.6 0.9,2.8 0,0.1 0,0.2 0,0.3 h -5.5 c 0,0.8 0.3,1.4 0.7,1.9 0.4,0.4 0.9,0.6 1.6,0.6 0.5,0 0.9,-0.1 1.2,-0.4 0.2,-0.1 0.5,-0.5 0.7,-1.1 z m -4.2,-2 h 4.1 c -0.1,-0.6 -0.2,-1.1 -0.5,-1.4 -0.4,-0.5 -0.9,-0.7 -1.6,-0.7 -0.6,0 -1.1,0.2 -1.5,0.6 -0.2,0.3 -0.4,0.9 -0.5,1.5 z"
                 id="path27026-4" />
            </g>
            <g
               id="g27028-7">
              <path
                 style="fill:#ffffff"
                 inkscape:connector-curvature="0"
                 class="st1"
                 d="m 152.4,203.9 1.3,-0.1 c 0.1,0.5 0.2,0.9 0.4,1.3 0.2,0.3 0.6,0.6 1,0.8 0.5,0.2 1,0.3 1.6,0.3 0.5,0 1,-0.1 1.4,-0.2 0.4,-0.2 0.7,-0.4 0.9,-0.6 0.2,-0.3 0.3,-0.6 0.3,-0.9 0,-0.3 -0.1,-0.6 -0.3,-0.8 -0.2,-0.2 -0.5,-0.4 -0.9,-0.6 -0.3,-0.1 -0.9,-0.3 -1.8,-0.5 -0.9,-0.2 -1.6,-0.4 -2,-0.6 -0.5,-0.3 -0.9,-0.6 -1.1,-1 -0.2,-0.4 -0.4,-0.8 -0.4,-1.3 0,-0.5 0.1,-1 0.4,-1.4 0.3,-0.4 0.7,-0.8 1.3,-1 0.6,-0.2 1.2,-0.3 1.9,-0.3 0.8,0 1.4,0.1 2,0.4 0.6,0.2 1,0.6 1.3,1.1 0.3,0.5 0.5,1 0.5,1.6 l -1.3,0.1 c -0.1,-0.6 -0.3,-1.1 -0.7,-1.5 -0.4,-0.3 -1,-0.5 -1.8,-0.5 -0.8,0 -1.4,0.2 -1.8,0.5 -0.4,0.3 -0.6,0.7 -0.6,1.1 0,0.4 0.1,0.7 0.4,0.9 0.3,0.2 0.9,0.5 2,0.7 1.1,0.2 1.9,0.5 2.3,0.7 0.6,0.3 1,0.6 1.3,1 0.3,0.4 0.4,0.9 0.4,1.5 0,0.5 -0.2,1.1 -0.5,1.5 -0.3,0.5 -0.8,0.9 -1.3,1.1 -0.6,0.3 -1.2,0.4 -2,0.4 -0.9,0 -1.7,-0.1 -2.3,-0.4 -0.6,-0.3 -1.1,-0.7 -1.5,-1.2 -0.2,-0.8 -0.4,-1.4 -0.4,-2.1 z"
                 id="path27030-6" />
            </g>
            <g
               id="g27032-3">
              <path
                 style="fill:#ffffff"
                 inkscape:connector-curvature="0"
                 class="st1"
                 d="m 161.8,203.5 c 0,-1.4 0.4,-2.4 1.1,-3.1 0.6,-0.5 1.4,-0.8 2.3,-0.8 1,0 1.9,0.3 2.5,1 0.6,0.7 1,1.6 1,2.8 0,1 -0.1,1.7 -0.4,2.3 -0.3,0.5 -0.7,1 -1.2,1.3 -0.5,0.3 -1.1,0.5 -1.8,0.5 -1,0 -1.9,-0.3 -2.5,-1 -0.7,-0.8 -1,-1.7 -1,-3 z m 1.3,0 c 0,0.9 0.2,1.7 0.6,2.1 0.4,0.5 0.9,0.7 1.6,0.7 0.6,0 1.1,-0.2 1.6,-0.7 0.4,-0.5 0.6,-1.2 0.6,-2.2 0,-0.9 -0.2,-1.6 -0.6,-2.1 -0.4,-0.5 -0.9,-0.7 -1.6,-0.7 -0.6,0 -1.1,0.2 -1.6,0.7 -0.4,0.6 -0.6,1.3 -0.6,2.2 z"
                 id="path27034-1" />
            </g>
            <g
               id="g27036-7">
              <path
                 style="fill:#ffffff"
                 inkscape:connector-curvature="0"
                 class="st1"
                 d="m 170.5,207.2 v -6.4 h -1.1 v -1 h 1.1 V 199 c 0,-0.5 0,-0.9 0.1,-1.1 0.1,-0.3 0.3,-0.6 0.6,-0.8 0.3,-0.2 0.7,-0.3 1.3,-0.3 0.4,0 0.7,0 1.2,0.1 l -0.2,1.1 c -0.3,0 -0.5,-0.1 -0.7,-0.1 -0.4,0 -0.7,0.1 -0.8,0.2 -0.2,0.2 -0.2,0.5 -0.2,0.9 v 0.7 h 1.4 v 1 h -1.4 v 6.4 h -1.3 z"
                 id="path27038-5" />
            </g>
            <g
               id="g27040-9">
              <path
                 style="fill:#ffffff"
                 inkscape:connector-curvature="0"
                 class="st1"
                 d="m 176.9,206.1 0.2,1.1 c -0.4,0.1 -0.7,0.1 -0.9,0.1 -0.5,0 -0.8,-0.1 -1.1,-0.2 -0.3,-0.1 -0.4,-0.3 -0.5,-0.6 -0.1,-0.2 -0.2,-0.7 -0.2,-1.5 v -4.3 h -0.9 v -1 h 0.9 V 198 l 1.2,-0.8 v 2.6 h 1.3 v 1 h -1.3 v 4.3 c 0,0.4 0,0.6 0.1,0.7 0,0.1 0.1,0.2 0.2,0.2 0.1,0.1 0.2,0.1 0.4,0.1 0.2,0.1 0.4,0 0.6,0 z"
                 id="path27042-6" />
            </g>
            <g
               id="g27044-2">
              <path
                 style="fill:#ffffff"
                 inkscape:connector-curvature="0"
                 class="st1"
                 d="m 179.5,207.2 -2.3,-7.4 h 1.3 l 1.2,4.3 0.4,1.6 c 0,-0.1 0.1,-0.6 0.4,-1.5 l 1.2,-4.3 h 1.3 l 1.1,4.3 0.4,1.4 0.4,-1.4 1.3,-4.3 h 1.2 l -2.3,7.4 h -1.3 l -1.2,-4.4 -0.3,-1.3 -1.5,5.7 h -1.3 z"
                 id="path27046-1" />
            </g>
            <g
               id="g27048-7">
              <path
                 style="fill:#ffffff"
                 inkscape:connector-curvature="0"
                 class="st1"
                 d="m 193.3,206.3 c -0.5,0.4 -0.9,0.7 -1.3,0.8 -0.4,0.2 -0.9,0.2 -1.4,0.2 -0.8,0 -1.4,-0.2 -1.9,-0.6 -0.4,-0.4 -0.7,-0.9 -0.7,-1.5 0,-0.4 0.1,-0.7 0.2,-1 0.2,-0.3 0.4,-0.5 0.6,-0.7 0.3,-0.2 0.6,-0.3 0.9,-0.4 0.2,-0.1 0.6,-0.1 1.1,-0.2 1,-0.1 1.8,-0.3 2.2,-0.4 0,-0.2 0,-0.3 0,-0.3 0,-0.5 -0.1,-0.9 -0.4,-1.1 -0.3,-0.3 -0.8,-0.4 -1.4,-0.4 -0.6,0 -1,0.1 -1.3,0.3 -0.3,0.2 -0.5,0.6 -0.6,1.1 l -1.2,-0.2 c 0.1,-0.5 0.3,-1 0.6,-1.3 0.3,-0.3 0.6,-0.6 1.1,-0.7 0.5,-0.2 1,-0.3 1.7,-0.3 0.6,0 1.1,0.1 1.5,0.2 0.4,0.1 0.7,0.3 0.9,0.6 0.2,0.2 0.3,0.5 0.4,0.9 0,0.2 0.1,0.6 0.1,1.2 v 1.7 c 0,1.2 0,1.9 0.1,2.2 0.1,0.3 0.2,0.6 0.3,0.9 h -1.3 c -0.1,-0.3 -0.2,-0.6 -0.2,-1 z m -0.1,-2.8 c -0.5,0.2 -1.1,0.3 -2.1,0.5 -0.5,0.1 -0.9,0.2 -1.1,0.3 -0.2,0.1 -0.4,0.2 -0.5,0.4 -0.1,0.2 -0.2,0.4 -0.2,0.6 0,0.3 0.1,0.6 0.4,0.8 0.3,0.2 0.6,0.3 1.1,0.3 0.5,0 0.9,-0.1 1.3,-0.3 0.4,-0.2 0.7,-0.5 0.8,-0.9 0.1,-0.3 0.2,-0.7 0.2,-1.3 v -0.4 z"
                 id="path27050-8" />
            </g>
            <g
               id="g27052-5">
              <path
                 style="fill:#ffffff"
                 inkscape:connector-curvature="0"
                 class="st1"
                 d="m 196.4,207.2 v -7.4 h 1.1 v 1.1 c 0.3,-0.5 0.6,-0.9 0.8,-1 0.2,-0.2 0.5,-0.3 0.8,-0.3 0.4,0 0.9,0.1 1.3,0.4 l -0.4,1.2 c -0.3,-0.2 -0.6,-0.3 -0.9,-0.3 -0.3,0 -0.5,0.1 -0.7,0.2 -0.2,0.2 -0.4,0.4 -0.5,0.7 -0.1,0.4 -0.2,0.9 -0.2,1.5 v 3.9 z"
                 id="path27054-7" />
            </g>
            <g
               id="g27056-4">
              <path
                 style="fill:#ffffff"
                 inkscape:connector-curvature="0"
                 class="st1"
                 d="m 206.3,204.8 1.3,0.2 c -0.2,0.8 -0.6,1.3 -1.1,1.8 -0.6,0.4 -1.3,0.6 -2.1,0.6 -1.1,0 -1.9,-0.3 -2.6,-1 -0.6,-0.7 -1,-1.6 -1,-2.8 0,-1.2 0.3,-2.2 1,-2.9 0.6,-0.7 1.5,-1 2.5,-1 1,0 1.8,0.3 2.4,1 0.6,0.7 0.9,1.6 0.9,2.8 0,0.1 0,0.2 0,0.3 h -5.5 c 0,0.8 0.3,1.4 0.7,1.9 0.4,0.4 0.9,0.6 1.6,0.6 0.5,0 0.9,-0.1 1.2,-0.4 0.2,-0.1 0.5,-0.5 0.7,-1.1 z m -4.2,-2 h 4.1 c -0.1,-0.6 -0.2,-1.1 -0.5,-1.4 -0.4,-0.5 -0.9,-0.7 -1.6,-0.7 -0.6,0 -1.1,0.2 -1.5,0.6 -0.2,0.3 -0.4,0.9 -0.5,1.5 z"
                 id="path27058-1" />
            </g>
            <g
               id="g27060-8">
              <path
                 style="fill:#ffffff"
                 inkscape:connector-curvature="0"
                 class="st1"
                 d="M 213.2,207.2 V 197 h 1.4 v 9 h 5 v 1.2 z"
                 id="path27062-5" />
            </g>
            <g
               id="g27064-9">
              <path
                 style="fill:#ffffff"
                 inkscape:connector-curvature="0"
                 class="st1"
                 d="M 221.1,198.4 V 197 h 1.3 v 1.4 z m 0,8.8 v -7.4 h 1.3 v 7.4 z"
                 id="path27066-7" />
            </g>
            <g
               id="g27068-5">
              <path
                 style="fill:#ffffff"
                 inkscape:connector-curvature="0"
                 class="st1"
                 d="m 226.3,207.2 -2.8,-7.4 h 1.3 l 1.6,4.4 c 0.2,0.5 0.3,1 0.5,1.5 0.1,-0.4 0.3,-0.9 0.5,-1.4 l 1.6,-4.5 h 1.3 l -2.8,7.4 z"
                 id="path27070-3" />
            </g>
            <g
               id="g27072-8">
              <path
                 style="fill:#ffffff"
                 inkscape:connector-curvature="0"
                 class="st1"
                 d="m 231.4,207.2 v -7.4 h 1.1 v 1.1 c 0.3,-0.5 0.6,-0.9 0.8,-1 0.2,-0.2 0.5,-0.3 0.8,-0.3 0.4,0 0.9,0.1 1.3,0.4 l -0.4,1.2 c -0.3,-0.2 -0.6,-0.3 -0.9,-0.3 -0.3,0 -0.5,0.1 -0.7,0.2 -0.2,0.2 -0.4,0.4 -0.5,0.7 -0.1,0.4 -0.2,0.9 -0.2,1.5 v 3.9 z"
                 id="path27074-8" />
            </g>
            <g
               id="g27076-3">
              <path
                 style="fill:#ffffff"
                 inkscape:connector-curvature="0"
                 class="st1"
                 d="m 241.2,204.8 1.3,0.2 c -0.2,0.8 -0.6,1.3 -1.1,1.8 -0.6,0.4 -1.3,0.6 -2.1,0.6 -1.1,0 -1.9,-0.3 -2.6,-1 -0.6,-0.7 -1,-1.6 -1,-2.8 0,-1.2 0.3,-2.2 1,-2.9 0.6,-0.7 1.5,-1 2.5,-1 1,0 1.8,0.3 2.4,1 0.6,0.7 0.9,1.6 0.9,2.8 0,0.1 0,0.2 0,0.3 H 237 c 0,0.8 0.3,1.4 0.7,1.9 0.4,0.4 0.9,0.6 1.6,0.6 0.5,0 0.9,-0.1 1.2,-0.4 0.3,-0.1 0.5,-0.5 0.7,-1.1 z m -4.1,-2 h 4.1 c -0.1,-0.6 -0.2,-1.1 -0.5,-1.4 -0.4,-0.5 -0.9,-0.7 -1.6,-0.7 -0.6,0 -1.1,0.2 -1.5,0.6 -0.2,0.3 -0.5,0.9 -0.5,1.5 z"
                 id="path27078-1" />
            </g>
          </g>
          <g
             transform="matrix(0.28227167,0,0,0.28227167,25.211937,-147.07272)"
             id="g27106-8">
            <path
               id="line27108-9"
               d="M 60.299999,219.8 H 362.89999" />
            <path
               id="rect27110-6"
               style="fill:#ffffff"
               class="st1"
               d="M 60.299999,218.8 H 362.90001 v 2 H 60.299999 Z" />
          </g>
          <g
             transform="matrix(0.19481632,0,0,0.19481632,-52.725117,-266.62868)"
             id="g64289-4">
            <path
               transform="matrix(0.80201649,0,0,0.80201649,1926.4315,1753.3757)"
               inkscape:connector-curvature="0"
               id="path20199-3"
               d="m -1358.6983,-1122.7245 c 0,0 0.7308,-3.0048 4.5476,-3.0048 3.8168,0 6.8216,3.8168 6.8216,3.8168 0,0 -5.6846,-2.4362 -7.7149,-2.4362 -2.0302,0 -3.6543,1.6242 -3.6543,1.6242 z"
               style="color:#000000;display:inline;overflow:visible;visibility:visible;opacity:0.567347;fill:#ffffff;fill-opacity:1;fill-rule:nonzero;stroke:none;stroke-width:1px;marker:none;filter:url(#filter14506-80-6-61-7);enable-background:accumulate" />
            <path
               id="path20221-3"
               style="display:inline;overflow:visible;fill:#ffffff;stroke:#0055d4;stroke-width:5.43439;marker:none;enable-background:accumulate"
               d="m 877.13261,799.06836 a 44.300766,44.300766 0 0 1 -44.30076,44.30077 44.300766,44.300766 0 0 1 -44.30077,-44.30077 44.300766,44.300766 0 0 1 44.30077,-44.30077 44.300766,44.300766 0 0 1 44.30076,44.30077 z" />
            <path
               id="path20223-3"
               style="display:inline;overflow:visible;fill:#0055d4;marker:none;enable-background:accumulate"
               d="m 879.65207,799.06842 a 46.820286,46.820286 0 0 1 -46.82028,46.82029 46.820286,46.820286 0 0 1 -46.82029,-46.82029 46.820286,46.820286 0 0 1 46.82029,-46.82029 46.820286,46.820286 0 0 1 46.82028,46.82029 z" />
            <path
               id="path20225-8"
               style="display:inline;overflow:visible;opacity:0.482072;fill:url(#radialGradient20235-3);marker:none;enable-background:accumulate"
               d="m 879.65207,799.06842 a 46.820286,46.820286 0 0 1 -46.82028,46.82029 46.820286,46.820286 0 0 1 -46.82029,-46.82029 46.820286,46.820286 0 0 1 46.82029,-46.82029 46.820286,46.820286 0 0 1 46.82028,46.82029 z" />
            <path
               id="path20227-6"
               style="display:inline;overflow:visible;fill:url(#radialGradient20237-2);stroke-width:1.35548;marker:none;filter:url(#filter4645-9);enable-background:accumulate"
               transform="matrix(0.52233967,0,0,0.52233967,655.55246,703.17964)"
               d="m 407.53088,170.44995 a 68.136078,68.136078 0 0 1 -68.13607,68.13608 68.136078,68.136078 0 0 1 -68.13608,-68.13608 68.136078,68.136078 0 0 1 68.13608,-68.13608 68.136078,68.136078 0 0 1 68.13607,68.13608 z" />
            <path
               transform="matrix(0.79084698,0,0,0.79084698,1911.5515,1740.0631)"
               inkscape:connector-curvature="0"
               id="path20229-0"
               d="m -1392.4809,-1232.0483 c -0.8019,0.033 -1.509,0.2328 -2.0475,0.6749 -0.2982,2.8855 0.7189,6.5887 2.9222,8.6149 -0.1902,-0.2464 -0.4195,-0.6929 -0.7355,-1.4291 -0.9777,-1.6628 -2.7369,-9.0374 0.656,-5.4787 1.989,4.1785 2.6367,9.2781 5.7252,12.9819 2.3538,3.8651 6.8255,4.1147 10.5955,5.0816 3.2734,1.588 4.3264,6.2894 7.8522,7.2255 2.5104,3.2637 -0.6389,7.349 -2.0078,10.5006 -2.7461,4.8644 2.8883,7.8174 4.6716,11.632 3.6086,4.9811 7.031,11.5771 4.3138,17.8452 -1.6058,4.5347 -1.9956,9.5445 -3.1409,14.2721 -0.5096,3.3536 -1.2328,10.3996 2.3855,11.0564 0.7253,-3.6267 0.4384,-7.5298 3.3595,-10.2624 2.8735,-5.4672 8.4716,-8.8774 12.7226,-12.7436 1.9606,-2.3297 5.7601,-7.6173 9.5221,-10.203 1.6683,-2.8236 1.1693,-7.6219 4.2343,-10.4213 2.348,-2.4836 3.5146,-8.2489 -0.994,-8.9324 -6.0092,-2.3954 -10.9523,-6.9424 -14.9491,-12.0886 -4.3284,-2.3316 -7.0463,-2.9684 -11.6629,-4.4538 -0.281,-0.091 -0.6668,2.4248 -1.5084,2.4164 -1.1507,-0.011 0.2655,-3.2189 -2.2349,-3.1236 -0.4188,1.379 -2.8098,3.5597 -4.453,4.0295 -0.6343,-1.0347 -2.8863,-3.2068 -2.7234,-4.9624 -0.075,-3.5364 -4.592,-3.6234 -2.8626,-6.9872 -1.0331,-2.9637 -5.1833,4.3511 -6.8781,-0.6552 -1.002,-4.349 -1.1763,-11.7175 -5.1885,-12.545 -1.9336,-0.7657 -5.1682,-2.1428 -7.5739,-2.0447 z m 24.8308,12.2251 c 0.3973,0.1244 2.1717,-0.4166 4.1253,-0.3854 1.8411,0.03 4.9133,1.545 5.4703,1.0618 -0.868,-2.878 -6.9897,-2.3488 -6.8746,-2.3354 -0.9249,0.7782 -3.383,1.4105 -2.721,1.659 z m 20.154,5.4712 c -0.1529,0.27 -0.9304,0.3375 -0.9313,-0.2161 0.3055,-0.5351 0.9002,-0.076 0.9313,0.2161 z m -3.6979,-1.0674 c -3.4763,-0.1072 -1.191,-1.878 -3.0367,-1.8379 -1.2939,0.027 -0.927,1.3862 -3.1699,1.1772 2.062,0.9711 2.2009,0.732 3.6375,1.4994 2.0386,-0.1206 3.2905,-0.092 2.5691,-0.8387 z"
               style="font-size:12px;fill:#0055d4;fill-opacity:1;fill-rule:nonzero;stroke:#ff7d23;stroke-width:1.14527;stroke-opacity:1;filter:url(#filter15293-6)"
               sodipodi:nodetypes="cccccccccccccccccccssccccccccscccccccsccc" />
            <path
               sodipodi:nodetypes="cccccccccccccccccccssccccccccscccccccsccc"
               style="font-size:12px;fill:#ccff00;fill-opacity:1;fill-rule:nonzero;stroke:#d4ff2a;stroke-width:0.905732;stroke-opacity:1"
               d="m 810.31213,765.70152 c -0.63419,0.0263 -1.19339,0.18405 -1.61927,0.53375 -0.23585,2.282 0.56853,5.21059 2.31098,6.81301 -0.15035,-0.19482 -0.33168,-0.54797 -0.58166,-1.13017 -0.77323,-1.31503 -2.16443,-7.14723 0.5188,-4.33284 1.57299,3.30456 2.08527,7.33761 4.52776,10.26674 1.86155,3.05667 5.39798,3.25412 8.37947,4.01874 2.58876,1.25589 3.42149,4.97392 6.20988,5.71426 1.98528,2.58107 -0.50531,5.81191 -1.58793,8.30439 -2.17167,3.84701 2.28426,6.18235 3.69457,9.19916 2.85388,3.93921 5.56048,9.15569 3.41154,14.11276 -1.26993,3.58625 -1.57824,7.54828 -2.48398,11.28705 -0.40296,2.65217 -0.97493,8.22451 1.88655,8.74394 0.5736,-2.86818 0.34672,-5.95491 2.65688,-8.11599 2.27248,-4.3237 6.6997,-7.0207 10.0616,-10.07827 1.55061,-1.84244 4.55538,-6.02411 7.53053,-8.06898 1.31938,-2.233 0.92475,-6.02774 3.34867,-8.24162 1.85693,-1.96418 2.77951,-6.52363 -0.78608,-7.06417 -4.75238,-1.89443 -8.66161,-5.49037 -11.82244,-9.56028 -3.42312,-1.84389 -5.57251,-2.34757 -9.22352,-3.52221 -0.22227,-0.0725 -0.52741,1.91762 -1.19294,1.911 -0.91008,-0.009 0.20995,-2.54565 -1.76745,-2.47029 -0.33122,1.0905 -2.22212,2.81511 -3.52167,3.18673 -0.50159,-0.81833 -2.28262,-2.53614 -2.15383,-3.92454 -0.0589,-2.79672 -3.63153,-2.86556 -2.26387,-5.52578 -0.81697,-2.34386 -4.09917,3.44106 -5.43947,-0.51817 -0.79243,-3.43943 -0.93028,-9.26673 -4.10333,-9.92121 -1.52915,-0.60557 -4.0873,-1.69463 -5.98979,-1.61701 z m 19.63736,9.66815 c 0.3142,0.0984 1.71745,-0.32941 3.26245,-0.30478 1.45606,0.0236 3.88568,1.22184 4.32623,0.83971 -0.68645,-2.27602 -5.52777,-1.85757 -5.43675,-1.84697 -0.73147,0.61544 -2.67544,1.1155 -2.15193,1.31204 z m 15.93872,4.32687 c -0.12092,0.21357 -0.73582,0.26692 -0.73654,-0.17091 0.24165,-0.42316 0.71199,-0.0598 0.73654,0.17091 z m -2.92443,-0.84414 c -2.74926,-0.0851 -0.94196,-1.48522 -2.40164,-1.45352 -1.02321,0.0217 -0.7331,1.09629 -2.50689,0.931 1.63078,0.76797 1.74064,0.57894 2.8767,1.18578 1.6122,-0.0954 2.60235,-0.0725 2.03183,-0.66326 z"
               id="path20231-4"
               inkscape:connector-curvature="0" />
            <path
               style="opacity:0.879808;fill:url(#linearGradient4542);fill-opacity:1;stroke:none"
               d="m 847.16792,758.59388 c 3.13845,1.65749 7.34032,4.24345 9.19436,5.91688 2.13544,1.1261 5.62324,4.03105 8.67356,6.32011 0,0 -4.21908,-4.75863 -8.01509,-7.46469 -3.03937,-2.09794 -6.46838,-3.56885 -9.85283,-4.7723 z m 15.59037,8.4177 4.09753,5.0154 3.65237,3.8048 -3.02289,-4.3467 z m -8.13284,-2.24205 c -5.11467,-3.20856 -14.27779,-7.52927 -14.27779,-7.52927 0,0 4.48012,4.83652 6.16578,10.75349 1.68574,5.91706 -0.50776,10.42226 -0.50776,10.42226 0,0 6.68603,1.226 14.82331,6.56077 8.2456,5.40568 12.87127,16.5816 12.87127,16.5816 0,0 0.47179,-6.27365 -2.05212,-15.21848 -2.52382,-8.94483 -6.00491,-13.65871 -6.00491,-13.65871 0,0 -5.90311,-4.7032 -11.01778,-7.91166 z m 12.99916,9.48664 c 1.84099,3.30058 4.12651,6.80395 4.86188,9.64414 1.58956,2.65326 2.90703,7.14542 4.23611,12.25936 0,0 -0.17291,-9.44778 -2.35038,-13.19679 -2.22674,-3.62021 -6.74761,-8.70671 -6.74761,-8.70671 z"
               id="path20233-8"
               inkscape:connector-curvature="0"
               sodipodi:nodetypes="cccccccccczczcsczczccccc" />
          </g>
          <g
             aria-label="BELO HORIZONTE"
             transform="scale(0.8985499,1.1129042)"
             id="text685-9-8"
             style="font-weight:bold;font-size:7.5078px;line-height:1.25;font-family:Lato;-inkscape-font-specification:'Lato Bold';fill:#ffffff;stroke-width:0.187696;enable-background:new">
            <path
               d="m 50.975188,-71.335119 c 0,-0.983522 -0.690717,-1.554114 -1.651716,-1.554114 h -2.229816 v 5.247952 h 2.440035 c 1.051092,0 1.666731,-0.630655 1.666731,-1.554115 0,-0.540561 -0.262773,-0.968506 -0.75078,-1.171217 0.330343,-0.20271 0.525546,-0.585608 0.525546,-0.968506 z m -1.734302,-0.593116 c 0.390406,0 0.638163,0.247757 0.630656,0.630655 -0.0075,0.352867 -0.247758,0.563085 -0.630656,0.563085 h -1.028568 v -1.19374 z m 0.165172,2.109692 c 0.172679,0 0.322835,0.01502 0.450468,0.105109 0.157664,0.112617 0.24025,0.30782 0.232742,0.518038 -0.02252,0.352867 -0.247758,0.578101 -0.630655,0.578101 h -1.246295 v -1.201248 z"
               style="font-weight:normal;font-family:'Intro Bold';-inkscape-font-specification:'Intro Bold, '"
               id="path3508" />
            <path
               d="m 55.352242,-72.896741 h -3.220846 v 5.25546 h 3.280909 v -1.021061 h -2.147231 v -1.201248 h 1.952028 v -0.983522 h -1.952028 v -1.066107 h 2.087168 z"
               style="font-weight:normal;font-family:'Intro Bold';-inkscape-font-specification:'Intro Bold, '"
               id="path3510" />
            <path
               d="m 57.552032,-72.896741 h -1.12617 v 5.25546 h 3.318447 v -1.006045 h -2.192277 z"
               style="font-weight:normal;font-family:'Intro Bold';-inkscape-font-specification:'Intro Bold, '"
               id="path3512" />
            <path
               d="m 65.435223,-70.269011 c 0,-1.764333 -1.298849,-2.710316 -2.672777,-2.710316 -1.39645,0 -2.6953,0.938475 -2.6953,2.710316 0,1.771841 1.268818,2.717823 2.672777,2.717823 1.591654,0 2.6953,-1.118662 2.6953,-2.717823 z m -4.234399,0 c 0,-1.111155 0.735764,-1.67424 1.561622,-1.67424 0.818351,0 1.554115,0.555578 1.554115,1.67424 0,1.148693 -0.743272,1.689255 -1.561622,1.689255 -0.840874,0 -1.554115,-0.540562 -1.554115,-1.689255 z"
               style="font-weight:normal;font-family:'Intro Bold';-inkscape-font-specification:'Intro Bold, '"
               id="path3514" />
            <path
               d="m 72.45502,-67.641281 v -5.25546 h -1.12617 v 2.004582 h -2.01209 v -2.004582 h -1.118662 v 5.25546 h 1.118662 v -2.222309 h 2.01209 v 2.222309 z"
               style="font-weight:normal;font-family:'Intro Bold';-inkscape-font-specification:'Intro Bold, '"
               id="path3516" />
            <path
               d="m 78.746559,-70.269011 c 0,-1.764333 -1.29885,-2.710316 -2.672777,-2.710316 -1.396451,0 -2.6953,0.938475 -2.6953,2.710316 0,1.771841 1.268818,2.717823 2.672777,2.717823 1.591653,0 2.6953,-1.118662 2.6953,-2.717823 z m -4.234399,0 c 0,-1.111155 0.735764,-1.67424 1.561622,-1.67424 0.81835,0 1.554115,0.555578 1.554115,1.67424 0,1.148693 -0.743273,1.689255 -1.561623,1.689255 -0.840873,0 -1.554114,-0.540562 -1.554114,-1.689255 z"
               style="font-weight:normal;font-family:'Intro Bold';-inkscape-font-specification:'Intro Bold, '"
               id="path3518" />
            <path
               d="m 82.838309,-69.55577 c 0.600624,-0.292804 0.938475,-0.878413 0.938475,-1.546607 0,-0.930967 -0.653178,-1.801872 -1.854426,-1.801872 -0.75078,-0.0075 -1.494053,0 -2.244833,0 v 5.25546 h 1.12617 v -1.734302 h 0.938475 l 1.081124,1.734302 h 1.201248 v -0.157664 z m -2.049629,-0.75078 v -1.614177 h 1.12617 c 0.480499,0 0.773303,0.352866 0.773303,0.795827 0.0075,0.450468 -0.300312,0.81835 -0.773303,0.81835 z"
               style="font-weight:normal;font-family:'Intro Bold';-inkscape-font-specification:'Intro Bold, '"
               id="path3520" />
            <path
               d="m 86.457068,-68.534709 v -3.491127 h 0.68321 v -0.870905 h -2.49259 v 0.870905 h 0.68321 v 3.491127 h -0.743272 v 0.893428 h 2.612714 v -0.893428 z"
               style="font-weight:normal;font-family:'Intro Bold';-inkscape-font-specification:'Intro Bold, '"
               id="path3522" />
            <path
               d="m 91.787604,-72.896741 h -3.874025 v 0.983522 h 2.199785 l -2.410003,4.114274 v 0.157664 h 4.106766 v -1.006045 h -2.402496 l 2.379973,-4.084244 z"
               style="font-weight:normal;font-family:'Intro Bold';-inkscape-font-specification:'Intro Bold, '"
               id="path3524" />
            <path
               d="m 97.673723,-70.269011 c 0,-1.764333 -1.298849,-2.710316 -2.672777,-2.710316 -1.396451,0 -2.6953,0.938475 -2.6953,2.710316 0,1.771841 1.268818,2.717823 2.672777,2.717823 1.591653,0 2.6953,-1.118662 2.6953,-2.717823 z m -4.234399,0 c 0,-1.111155 0.735764,-1.67424 1.561622,-1.67424 0.81835,0 1.554115,0.555578 1.554115,1.67424 0,1.148693 -0.743272,1.689255 -1.561623,1.689255 -0.840873,0 -1.554114,-0.540562 -1.554114,-1.689255 z"
               style="font-weight:normal;font-family:'Intro Bold';-inkscape-font-specification:'Intro Bold, '"
               id="path3526" />
            <path
               d="m 102.68893,-67.626266 h 0.33785 v -5.270475 h -1.12617 v 2.980596 l -2.950564,-3.00312 H 98.59718 v 5.277984 h 1.118662 v -3.00312 z"
               style="font-weight:normal;font-family:'Intro Bold';-inkscape-font-specification:'Intro Bold, '"
               id="path3528" />
            <path
               d="m 105.17402,-71.920727 v 4.279446 h 1.08863 v -4.279446 h 1.39645 v -0.976014 h -3.88904 v 0.976014 z"
               style="font-weight:normal;font-family:'Intro Bold';-inkscape-font-specification:'Intro Bold, '"
               id="path3530" />
            <path
               d="m 111.62322,-72.896741 h -3.22084 v 5.25546 h 3.28091 v -1.021061 h -2.14723 v -1.201248 h 1.95202 v -0.983522 h -1.95202 v -1.066107 h 2.08716 z"
               style="font-weight:normal;font-family:'Intro Bold';-inkscape-font-specification:'Intro Bold, '"
               id="path3532" />
          </g>
          <g
             aria-label="2 0 2 3"
             transform="scale(0.97383937,1.0268634)"
             id="text10080-9"
             style="font-size:8.24392px;line-height:1.25;font-family:'Noto Sans';-inkscape-font-specification:'Noto Sans';fill:#ffffff;stroke-width:0.206098">
            <path
               d="m 107.4038,-78.742695 c 1.48391,0 1.6323,1.475662 0.78317,2.415469 l -2.54737,3.000787 v 0.09068 h 3.56137 v -0.370976 h -1.73122 l -1.17888,0.02473 1.10469,-1.261319 c 0.38746,-0.453416 0.70897,-0.849124 1.07995,-1.269564 1.04698,-1.211856 0.65951,-3.009031 -1.07995,-2.976055 -1.09645,0.0082 -1.6323,0.544098 -1.6323,1.525125 h 0.35449 c 0,-0.791416 0.45341,-1.178881 1.28605,-1.178881 z"
               style="font-family:'Intro Light';-inkscape-font-specification:'Intro Light, '"
               id="path3535" />
            <path
               d="m 114.60074,-79.080695 c -1.19537,0 -2.12693,0.75844 -2.12693,1.986784 v 1.962053 c 0,1.236588 0.93156,1.986785 2.12693,1.986785 1.17888,0 2.11044,-0.750197 2.11044,-1.986785 v -1.962053 c 0,-1.228344 -0.93156,-1.986784 -2.11044,-1.986784 z m 0,5.556402 c -0.75844,0 -1.36849,-0.354489 -1.60757,-0.989271 -0.0824,-0.214341 -0.12366,-0.445171 -0.12366,-0.700733 v -1.797174 c 0,-0.255562 0.0412,-0.486392 0.12366,-0.69249 0.23908,-0.651269 0.84913,-1.005758 1.60757,-1.005758 0.75019,0 1.36024,0.354489 1.59932,1.005758 0.0824,0.206098 0.12366,0.436928 0.12366,0.69249 v 1.797174 c 0,0.255562 -0.0412,0.486392 -0.12366,0.700733 -0.23908,0.634782 -0.84913,0.989271 -1.59932,0.989271 z"
               style="font-family:'Intro Light';-inkscape-font-specification:'Intro Light, '"
               id="path3537" />
            <path
               d="m 121.68226,-78.742695 c 1.4839,0 1.63229,1.475662 0.78317,2.415469 l -2.54737,3.000787 v 0.09068 h 3.56137 v -0.370976 h -1.73122 l -1.17888,0.02473 1.10468,-1.261319 c 0.38747,-0.453416 0.70898,-0.849124 1.07996,-1.269564 1.04698,-1.211856 0.65951,-3.009031 -1.07996,-2.976055 -1.09644,0.0082 -1.63229,0.544098 -1.63229,1.525125 h 0.35449 c 0,-0.791416 0.45341,-1.178881 1.28605,-1.178881 z"
               style="font-family:'Intro Light';-inkscape-font-specification:'Intro Light, '"
               id="path3539" />
            <path
               d="m 126.5709,-74.719662 c 0.12366,1.014003 0.85737,1.574589 1.87137,1.574589 1.19537,0 1.97029,-0.717221 1.97029,-1.87137 0,-1.055222 -0.77492,-1.747711 -1.83839,-1.681759 l 1.87137,-2.209371 v -0.09893 h -3.63557 v 0.370976 h 2.93484 l -1.81367,2.159907 v 0.148391 c 1.11293,-0.329757 2.08572,0.280293 2.08572,1.327271 0,0.964539 -0.65127,1.483906 -1.58284,1.483906 -0.79141,0 -1.36024,-0.42044 -1.4839,-1.203613 z"
               style="font-family:'Intro Light';-inkscape-font-specification:'Intro Light, '"
               id="path3541" />
          </g>
        </g>
      </g>
    </g>
  </g>
  <g
     inkscape:groupmode="layer"
     id="layer3"
     inkscape:label="Sombra"
     style="filter:url(#filter5204)" />
  <g
     inkscape:label="Arte"
     inkscape:groupmode="layer"
     id="layer1"
     transform="translate(0,-32.41665)"
     style="display:inline" />
  <style
     id="style4763"
     type="text/css">
	.st0{fill:#52677A;}
	.st1{fill:#B7CDD8;}
	.st2{fill:#FFFFFF;}
	.st3{fill:#F06024;}
	.st4{fill:#CE521F;}
	.st5{fill:#2C3B52;}
	.st6{fill:#EBEBEB;}
	.st7{fill:#BABABA;}
	.st8{fill:#E7E6E6;}
	.st9{fill:#8E96A3;}
	.st10{fill:#3D4D5C;}
	.st11{fill:#3E9697;}
	.st12{opacity:9.000000e-02;}
	.st13{fill:#DDDDDD;}
	.st14{fill:#CAD74B;}
</style>
</svg>
